<?xml version="1.0" encoding="UTF-8" standalone="no"?>
<svg
   xmlns:dc="http://purl.org/dc/elements/1.1/"
   xmlns:cc="http://creativecommons.org/ns#"
   xmlns:rdf="http://www.w3.org/1999/02/22-rdf-syntax-ns#"
   xmlns:svg="http://www.w3.org/2000/svg"
   xmlns="http://www.w3.org/2000/svg"
   version="1.1"
   id="svg4572"
   width="530.88184"
   height="310.76859"
   viewBox="0 0 530.88184 310.76859">
  <metadata
     id="metadata4578">
    <rdf:RDF>
      <cc:Work
         rdf:about="">
        <dc:format>image/svg+xml</dc:format>
        <dc:type
           rdf:resource="http://purl.org/dc/dcmitype/StillImage" />
        <dc:title></dc:title>
      </cc:Work>
    </rdf:RDF>
  </metadata>
  <defs
     id="defs4576" />
  <path
     style="fill:#000000"
     d="m 325.54312,309.76733 c -2.2,-0.51257 -5.24389,-1.18783 -6.76421,-1.50059 -3.12074,-0.64198 -7.01173,-5.4248 -6.57461,-8.08153 0.1589,-0.96577 -0.0375,-2.27562 -0.43635,-2.91079 -0.45044,-0.71726 0.88524,-2.10441 3.52496,-3.66079 2.33761,-1.37826 5.5719,-3.89608 7.1873,-5.59515 3.04516,-3.20287 6.56291,-4.11707 6.56291,-1.70557 0,1.69262 -6.75833,7.92291 -10.94026,10.08547 -2.86859,1.4834 -4.1367,3.53089 -2.18686,3.53089 0.48009,0 2.98788,-0.93556 5.57287,-2.07903 4.42248,-1.95627 7.55425,-2.02226 7.55425,-0.15918 0,0.45351 -2.3625,2.05824 -5.25,3.56607 -2.8875,1.50782 -4.125,2.49006 -2.75,2.18275 7.98485,-1.78463 8,-1.78498 8,-0.1853 0,0.86642 -0.73633,1.98738 -1.63628,2.49102 -2.6796,1.49958 7.04768,2.53303 11.13747,1.18328 1.88835,-0.62321 4.58895,-2.50646 6.00134,-4.18499 4.13788,-4.91758 8.38302,-7.3413 39.99747,-22.83609 16.71041,-8.19006 31.9246,-16.31489 34.34461,-18.34103 2.38954,-2.00062 4.75204,-3.6375 5.25,-3.6375 0.49797,0 0.90539,-1.13684 0.90539,-2.52632 0,-1.65164 -1.52073,-4.04704 -4.39232,-6.91863 -3.97172,-3.97173 -10.32695,-8.1967 -11.0992,-7.37879 -0.16812,0.17806 -2.13563,2.54652 -4.37224,5.26325 -3.00517,3.65028 -3.79218,5.27012 -3.01531,6.2062 1.65187,1.99038 0.34345,3.03669 -6.7488,5.39684 -3.90684,1.30012 -10.95084,5.12217 -17.23914,9.35392 -11.42446,7.68817 -21.47703,13.60353 -23.11784,13.60353 -2.76594,0 -0.42291,-3.14332 4.35152,-5.83785 2.95167,-1.66582 9.36417,-5.83076 14.25,-9.25544 4.88583,-3.42467 11.65699,-7.52892 15.04701,-9.12056 9.07447,-4.2605 8.95574,-5.64263 -0.47614,-5.54279 -4.5752,0.0484 -10.3191,-0.64728 -14.18754,-1.71841 -7.3861,-2.04513 -34.44393,-3.70991 -37.29787,-2.2948 -0.98882,0.4903 -2.21519,1.98909 -2.72525,3.33065 -1.32558,3.48655 -6.55951,3.44933 -8.15757,-0.058 l -1.13781,-2.49723 -3.09075,2.31215 c -14.52087,10.86285 -28.91871,15.05391 -43.62986,12.70018 -17.91256,-2.86594 -21.3324,-3.61687 -21.71358,-4.76788 -0.51963,-1.56903 9.61553,-1.72987 14.75929,-0.23423 1.92137,0.55867 7.35488,1.29566 12.07446,1.63775 7.31958,0.53055 9.57866,0.29 15.36714,-1.63628 6.88557,-2.29137 17.53822,-7.81575 20.89245,-10.83465 1.58923,-1.43036 1.77984,-2.81945 1.39546,-10.16962 -0.52859,-10.10763 -3.2695,-27.70042 -5.29914,-34.01297 -0.79577,-2.475 -1.44464,-5.0625 -1.44192,-5.75 0.009,-2.17428 1.88425,-1.35474 3.43298,1.5 l 1.49189,2.75 0.04,-4.75 c 0.022,-2.6125 0.45972,-4.75 0.97265,-4.75 1.7556,0 2.45903,4.50378 2.2644,14.49804 -0.21197,10.88432 1.37123,18.41205 4.78511,22.7521 2.70865,3.44349 2.68706,6.15812 -0.0433,5.44411 -1.28058,-0.33487 -2.27415,0.016 -2.62354,0.9265 -0.75534,1.96839 0.57614,3.17295 1.62728,1.47217 1.71553,-2.77579 3.31913,0.0496 2.75096,4.84694 -0.81414,6.87413 0.45951,8.17832 4.13956,4.23881 3.04911,-3.26407 10.27278,-7.11725 13.41691,-7.15671 1.99346,-0.025 2.39792,2.5918 0.5,3.23498 -0.6875,0.23299 3.7,0.67129 9.75,0.97402 6.32414,0.31644 14.61316,1.48714 19.5,2.75408 6.29795,1.63279 9.92485,2.0391 14,1.5684 3.025,-0.34941 6.625,-0.76566 8,-0.92499 2.72097,-0.31531 7.21106,-5.91486 6.41222,-7.99661 -0.29438,-0.76713 -4.74825,-1.73325 -11.69385,-2.5366 -19.04521,-2.20281 -20.46855,-3.04845 -4.21837,-2.50623 l 15,0.50052 4.45274,-3.00304 c 2.44901,-1.65167 5.24265,-4.48432 6.20809,-6.29477 0.96544,-1.81044 1.7742,-2.65078 1.79725,-1.86741 0.0294,1.0002 0.78518,0.72606 2.53798,-0.92061 1.37283,-1.2897 2.7834,-2.05757 3.1346,-1.70637 1.16512,1.16511 -1.84278,6.70549 -5.01037,9.2288 -1.71616,1.36709 -4.09507,3.44581 -5.28646,4.61937 l -2.16616,2.13374 4.66616,2.35811 c 8.59493,4.34356 15.1472,11.49837 15.15958,16.55363 0.004,1.48004 0.40472,2.93704 0.89132,3.23778 1.32982,0.82187 10.4193,-6.79211 13.28322,-11.12696 4.5767,-6.92731 5.49225,-8.74686 7.67136,-15.24597 4.7311,-14.11033 2.8933,-16.99264 -20.38216,-31.96623 -16.11201,-10.36518 -23.07936,-18.96313 -17.77315,-21.93263 1.38163,-0.77321 0.61855,-1.4832 -4.25,-3.95429 -3.2637,-1.65653 -8.634,-4.66905 -11.934,-6.69449 -5.80352,-3.56201 -6.23939,-3.66576 -13.3101,-3.16797 -8.24667,0.58058 -10.29271,1.72746 -9.99734,5.60388 0.1127,1.47894 -0.79638,4.09515 -2.02016,5.81379 -1.84683,2.59363 -4.04797,3.71 -12.94873,6.56732 -13.55518,4.35148 -19.27214,4.9741 -28.33044,3.08539 -6.65896,-1.38843 -7.28146,-1.36923 -9.10475,0.28082 -3.61374,3.27039 -17.14079,1.59046 -27.78848,-3.45107 -3.025,-1.43229 -7.075,-2.57088 -9,-2.53018 -1.925,0.0407 -14.975,0.60347 -29,1.25062 -14.025,0.64714 -27.85973,1.25821 -30.74384,1.35792 -2.88411,0.0997 -5.24661,0.35151 -5.25,0.55956 -0.003,0.20805 1.30786,2.68305 2.91387,5.5 1.60602,2.81695 4.33163,8.72173 6.05691,13.12173 1.72528,4.4 5.30557,11.825 7.95621,16.5 2.65063,4.675 6.07493,11.34248 7.60955,14.81663 2.52497,5.71612 3.02048,6.25884 5.21221,5.70875 1.33209,-0.33434 9.91968,-0.79654 19.08354,-1.02713 9.16385,-0.23059 19.48729,-0.71587 22.94096,-1.0784 5.8744,-0.61663 6.22915,-0.79655 5.5,-2.7895 -1.08791,-2.97355 -0.46091,-18.02601 1.02556,-24.62075 1.428,-6.33535 3.19318,-7.27321 8.40578,-4.46604 4.28615,2.30825 4.15858,3.2112 -0.43381,3.0705 -3.66814,-0.11238 -3.74049,-0.0403 -4.90401,4.88594 -0.64951,2.75 -1.22414,7.96776 -1.27693,11.59501 -0.11534,7.92394 1.82628,10.53385 7.47456,10.04722 3.33903,-0.28768 4.5783,1.0297 2.29573,2.4404 -3.40152,2.10226 -17.40098,3.59517 -37.83311,4.03455 -12.35676,0.26572 -22.5765,0.59281 -22.71055,0.72685 -0.13404,0.13405 1.08853,4.3865 2.71683,9.4499 6.02856,18.74656 2.83356,31.98059 -9.23885,38.26831 -7.7344,4.02834 -15.6675,4.49 -36.8903,2.14678 -23.75329,-2.62261 -44.0141,-4.21238 -53.66031,-4.21046 -5.64648,0.001 -7.25,-0.31727 -7.25,-1.43954 0,-2.43025 -1.83872,-2.76847 -6.77247,-1.24574 -10.56629,3.26113 -16.13875,3.97837 -26.42219,3.40083 -5.66788,-0.31834 -11.655294,-1.04683 -13.305294,-1.61888 -4.51838,-1.56652 -19.012622,-4.09525 -23.473254,-4.09525 -2.162952,0 -5.11104,-0.53691 -6.551306,-1.19314 -2.079535,-0.9475 -2.7841,-0.92547 -3.422207,0.10701 -1.027267,1.66215 -5.053233,0.48202 -5.053233,-1.48126 0,-0.78793 0.9,-1.43261 2,-1.43261 1.1,0 2,-0.48032 2,-1.06739 0,-0.61231 -0.852689,-0.79675 -2,-0.43261 -2.729879,0.86643 -2.679247,-2.14807 0.08551,-5.09102 l 2.08551,-2.21992 -2.186173,-0.69387 c -1.202395,-0.38162 -2.663447,-0.21659 -3.246781,0.36674 -0.747477,0.74748 -1.824897,0.61092 -3.649337,-0.46256 -2.444094,-1.43807 -2.969919,-1.32416 -9.411392,2.03873 -4.838292,2.52592 -8.116221,3.5619 -11.270172,3.5619 -4.425463,0 -4.47063,-0.0359 -9.111966,-7.25 -2.565452,-3.9875 -6.32726,-9.5 -8.359574,-12.25 -4.98447,-6.74467 -11.4773902,-18.85502 -13.9281202,-25.97819 -2.24553795,-6.52677 -2.77191995,-21.03056 -0.952659,-26.2493 1.227278,-3.52057 8.203631,-9.51703 10.1290342,-8.70632 0.723866,0.30479 4.172747,4.07234 7.66418,8.37233 3.491433,4.29999 9.018318,10.46041 12.281967,13.68982 l 5.933907,5.87166 -1.934256,-5.5 c -1.06384,-3.025 -2.600286,-7.075 -3.414323,-9 -2.875967,-6.80096 -7.291508,-33.14806 -5.955434,-35.53549 0.781442,-1.39636 1.080525,-1.21454 1.964354,1.19417 0.57341,1.56273 2.259289,8.23894 3.746397,14.83602 1.487109,6.59709 3.136057,12.67209 3.66433,13.5 0.736132,1.15367 0.827623,1.0138 0.39167,-0.59879 -1.280961,-4.73827 -3.524029,-19.14733 -3.525305,-22.64591 -0.0015,-4.10411 1.638704,-5.08747 2.501931,-1.5 0.297771,1.2375 1.417772,6.90288 2.488891,12.58973 1.416847,7.52242 3.349414,13.38063 7.092641,21.5 3.947326,8.56208 5.213609,12.49979 5.439201,16.91405 0.277525,5.43045 0.151616,5.78952 -2.240624,6.38994 -2.229788,0.55964 -2.327207,0.75226 -0.8099,1.60139 0.948626,0.53088 3.047287,0.70073 4.663691,0.37745 4.012128,-0.80243 4.284915,0.46891 2.334255,10.87891 -1.515952,8.09012 -1.517552,9.0893 -0.02083,13.00841 2.24617,5.88152 4.723447,8.00251 7.56842,6.47993 1.201981,-0.64328 3.110944,-0.92757 4.24214,-0.63176 1.332069,0.34834 3.880109,-0.67245 7.231895,-2.89724 7.983226,-5.29896 21.125632,-11.08515 30.506926,-13.43125 4.675,-1.16914 10.89064,-3.27593 13.81253,-4.68177 2.92189,-1.40584 5.62189,-2.2226 6,-1.81503 0.37811,0.40758 0.12497,0.94194 -0.56253,1.18748 -0.6875,0.24553 -1.25,1.0166 -1.25,1.71348 0,2.5698 -22.282054,11.70802 -24.831644,10.18385 -0.3676,-0.21975 -2.69336,0.46787 -5.16836,1.52805 -2.475,1.06018 -3.375,1.64979 -2,1.31026 1.375,-0.33954 3.5125,-0.85848 4.75,-1.15319 4.10615,-0.97789 2.37081,1.67011 -2.5,3.81481 -10.513327,4.6292 -12.249738,5.72658 -23.250002,14.69354 -0.275,0.22417 0.475286,1.06357 1.667303,1.86534 1.315088,0.88454 5.247235,1.57307 10,1.75102 4.307983,0.1613 11.859899,1.25612 16.782039,2.43294 10.647024,2.54555 22.204724,2.76375 32.051034,0.6051 3.8498,-0.84401 8.46213,-1.80289 10.24963,-2.13084 3.22166,-0.59109 3.25,-0.64653 3.25,-6.35845 0,-6.18842 -0.6536,-6.9709 -5.83179,-6.98173 -4.35088,-0.009 -10.29039,-1.98772 -9.5522,-3.18212 0.43134,-0.69793 3.24182,-0.88484 7.95038,-0.52873 5.37786,0.40672 7.41059,0.2188 7.77021,-0.71836 0.26787,-0.69805 2.64084,-1.5644 5.27326,-1.92521 2.63242,-0.36082 8.15128,-1.81749 12.26413,-3.23706 12.17999,-4.20397 19.65286,-5.367 34.60393,-5.38558 l 13.97792,-0.0174 -8.11959,-8.25 c -4.46578,-4.5375 -11.20584,-12.66922 -14.97792,-18.07049 -7.12924,-10.20841 -23.17114,-34.62185 -23.608,-35.92794 -0.13768,-0.41163 -2.14762,0.19037 -4.46653,1.33779 -8.22781,4.07117 -56.47042,14.91064 -66.361974,14.91064 -1.60701,0 -2.92183,-0.46412 -2.92183,-1.03138 0,-1.08015 0.72704,-1.41309 5.25,-2.40415 1.5125,-0.33142 2.75,-1.25863 2.75,-2.06047 0,-3.31287 7.592694,-6.22532 25.000004,-9.58964 5.775,-1.11614 12.19661,-2.67847 14.27024,-3.47185 4.70257,-1.79922 11.42979,-1.84768 14.76635,-0.10637 1.94629,1.01575 3.38927,1.07249 6.2006,0.24384 l 3.664,-1.07998 -3.84275,-6 c -2.11351,-3.3 -5.24128,-8.13266 -6.95059,-10.73924 -1.70932,-2.60658 -3.10785,-5.18252 -3.10785,-5.72432 0,-0.54179 -1.2375,-1.66399 -2.75,-2.49377 -1.5125,-0.82978 -4.03927,-2.58702 -5.61504,-3.90498 l -2.86505,-2.39629 0.49465,-16.52607 0.49465,-16.52608 4.36514,-8.34463 c 6.85788,-13.10986 28.99613,-34.311949 62.7937,-60.138359 14.16903,-10.82726 23.76219,-15.16061 45.89691,-20.7322 l 4.31495,-1.08613 -0.68018,-5.44396 c -0.44414,-3.55481 -0.31731,-5.44397 0.3655,-5.44397 0.57512,0 1.20015,1.0125 1.38896,2.25 0.18881,1.2375 0.92524,2.12746 1.63651,1.97768 0.85003,-0.179 1.21859,0.67776 1.07546,2.5 -0.43908,5.58997 -0.008,7.764 1.28384,6.47232 1.47321,-1.47321 7.24095,-1.56956 9.86574,-0.16482 2.4106,1.29011 2.51303,3.66692 0.18426,4.27549 -1.05684,0.27619 -0.64109,0.50327 1.04966,0.57333 1.53981,0.0638 4.15964,0.81927 5.82183,1.67883 4.1198,2.13043 5.84926,0.638 5.16577,-4.45779 -0.28156,-2.0992 0.0248,-4.81969 0.6809,-6.04554 1.45902,-2.7262 7.52302,-5.44363 9.57945,-4.29279 1.10623,0.61907 0.31721,1.38627 -3.16621,3.07865 l -4.63962,2.2541 0.60676,4.42674 c 0.73711,5.37785 0.0485,7.4738 -2.45553,7.4738 -1.35254,0 -1.89301,0.71376 -1.89301,2.5 0,2.91937 0.76167,3.04411 5.78212,0.94695 4.94428,-2.06534 8.57859,-5.68245 10.82142,-10.77017 1.01269,-2.29723 2.22452,-4.44894 2.69295,-4.78158 1.09824,-0.7799 -1.34876,-6.4228 -4.71479,-10.87251 l -2.63044,-3.47732 2.27437,-1.79502 c 2.73068,-2.15515 7.356,-1.61316 10.15967,1.19051 2.76526,2.76525 3.44008,11.48963 1.08961,14.08687 -0.98169,1.08475 -2.61514,1.97227 -3.6299,1.97227 -1.25856,0 -1.84501,0.73107 -1.84501,2.3 0,1.265 -0.49831,2.79831 -1.10735,3.40735 -0.60904,0.60904 -1.41063,2.61154 -1.78131,4.45 -0.56558,2.80513 -1.55335,3.77846 -6.14265,6.05278 -3.00778,1.49057 -5.82751,2.84768 -6.26606,3.01579 -0.43856,0.16811 0.0799,2.32356 1.1522,4.78987 1.07227,2.46632 2.52172,7.10088 3.22101,10.29904 1.36815,6.25713 1.15479,6.14854 8.06509,4.10491 1.09281,-0.32318 3.51302,1.61335 7.2455,5.79749 5.66679,6.35251 6.81596,8.78277 4.153,8.78277 -0.80332,0 -1.93531,-0.5625 -2.51553,-1.25 -0.58023,-0.6875 -2.17297,-2.51068 -3.53943,-4.05152 -1.36646,-1.54084 -2.48447,-3.45334 -2.48447,-4.25 0,-1.88984 -3.69561,-1.85566 -7.38475,0.0683 -3.71032,1.93499 -5.04531,0.85373 -6.54,-5.29701 -0.63082,-2.59587 -2.09637,-7.98226 -3.25677,-11.96976 -1.98983,-6.83766 -2.27395,-7.25 -4.99554,-7.25 -3.29731,0 -4.67807,-2.26471 -2.7772,-4.55512 1.66618,-2.00762 0.4145,-3.16744 -4.56301,-4.22813 -3.53142,-0.75253 -3.95102,-1.14705 -3.7029,-3.48158 0.18987,-1.78642 -0.35161,-2.97081 -1.68426,-3.68402 -3.09062,-1.65405 -4.12317,-1.27042 -5.24541,1.94885 -1.19704,3.43381 -3.41582,3.94386 -4.35016,1 -0.7661,-2.41378 -1.42243,-2.44326 -9.0399,-0.40599 -3.27806,0.8767 -9.24621,2.39544 -13.26257,3.37497 -4.01636,0.97954 -8.29136,2.6846 -9.5,3.78902 -1.20864,1.10443 -3.64292,2.7384 -5.40951,3.63105 -2.75037,1.38974 -17.05226,11.2114 -23.96576,16.45821 -1.19776,0.90901 -8.17276,6.88356 -15.5,13.27679 -17.19008,14.99883 -29.39709,27.742469 -34.26674,35.773119 -3.25793,5.37273 -3.92555,7.41883 -4.16905,12.77704 -0.15945,3.50893 -0.53693,10.45072 -0.83883,15.42619 -0.30191,4.97548 -0.29208,10.02581 0.0218,11.22296 0.42788,1.63176 3.24428,3.33254 11.25064,6.7941 13.65141,5.90221 19.77003,7.36551 29.67988,7.09813 6.79713,-0.1834 24.90501,1.60332 33.5,3.30547 2.347,0.4648 2.2908,0.31325 -0.91833,-2.47633 -5.28821,-4.59686 -11.03895,-6.05907 -27.92554,-7.10047 -8.43913,-0.52044 -15.71102,-0.71935 -16.15976,-0.44202 -1.31953,0.81553 -3.99633,-0.59725 -3.99633,-2.10924 0,-1.10009 2.26045,-1.40724 10.75,-1.46069 8.59706,-0.0541 10.24932,-0.28317 8.25,-1.14367 -11.981,-5.15656 -18.28258,-8.44813 -19.1009,-9.97718 -1.48975,-2.78363 0.72715,-2.31692 10.549,2.22078 6.77758,3.13125 19.50613,6.96775 23.11728,6.96775 0.23904,0 0.43462,0.675 0.43462,1.5 0,0.825 0.84582,1.5 1.87961,1.5 1.03378,0 4.91126,1.52582 8.61662,3.39072 l 6.73701,3.39072 3.52293,-2.39072 c 1.93761,-1.3149 4.02263,-2.39108 4.63338,-2.39151 1.62315,-0.001 13.26717,-5.63475 13.95853,-6.7534 0.35696,-0.57757 -2.64902,-0.91224 -7.62952,-0.84944 -6.68478,0.0843 -8.21856,-0.17631 -8.21856,-1.39637 0,-0.90261 0.7313,-1.37509 1.83623,-1.18636 1.00993,0.1725 5.05993,-0.18271 9,-0.78935 8.51812,-1.31151 12.6481,-4.31654 10.76592,-7.83342 -0.60618,-1.13266 -1.10215,-3.48515 -1.10215,-5.22775 0,-1.7426 -1.09031,-5.25968 -2.42291,-7.81574 -4.98783,-9.56717 -12.57709,-25.84443 -12.57709,-26.97503 0,-4.401299 6.732,4.74665 10.91172,14.82765 1.2542,3.025 3.30064,7.3 4.54764,9.5 1.247,2.2 3.03149,6.33704 3.96553,9.19342 0.93404,2.85638 2.61543,6.35942 3.73643,7.78453 1.4153,1.79927 1.84389,3.36517 1.40244,5.12404 -0.54275,2.16247 0.3568,3.52535 6.15026,9.31812 3.73229,3.73185 8.81098,7.80227 11.28598,9.04538 2.475,1.24312 5.4,3.04508 6.5,4.00435 1.1,0.95928 5.6,3.02579 10,4.59223 4.4,1.56645 9.35,3.61391 11,4.54991 3.65747,2.07478 13.10251,4.2228 16.4485,3.74076 2.19358,-0.31602 2.57066,-1.0815 3.62194,-7.35274 0.96888,-5.77967 0.93207,-7.27767 -0.21115,-8.59273 -0.76153,-0.876 -5.91235,-3.96052 -11.44626,-6.8545 l -10.06166,-5.26177 -2.17568,1.99165 c -2.89917,2.65393 -10.10747,6.21735 -12.57683,6.21735 -4.06741,0 -2.87088,-1.83959 3.17094,-4.87515 3.42661,-1.72161 7.11138,-3.80961 8.18838,-4.64 1.92487,-1.4841 1.90827,-1.60205 -0.97532,-6.93276 -2.14921,-3.9731 -3.25684,-5.15463 -4.14286,-4.4193 -1.83549,1.52332 -7.84,0.65574 -7.84,-1.13279 0,-1.56624 4.58053,-2.22334 9.5,-1.36283 2.3802,0.41634 9,8.79937 9,11.39722 0,1.09739 9.5511,5.93866 11.75,5.95584 0.6875,0.005 1.25,-0.6494 1.25,-1.45505 0,-1.85947 3.08974,-3.53518 6.51829,-3.53518 h 2.64977 l -2.99914,-3.75 c -6.9433,-8.68164 -19.64875,-20.25 -22.24043,-20.25 -0.57981,0 -0.9741,-0.7875 -0.87619,-1.75 0.40183,-3.95037 -0.19629,-5.2731 -3.0523,-6.75 -3.19298,-1.65115 -3.98534,-3.5 -1.5,-3.5 2.11646,0 1.87362,-1.99883 -0.99023,-8.1507 -1.36963,-2.94212 -2.49463,-6.1368 -2.5,-7.0993 -0.005,-0.962499 -0.45977,-1.749999 -1.00977,-1.749999 -0.9874,0 -1.46757,2.080679 -1.1539,4.999999 0.0887,0.825 0.38667,4.05006 0.66227,7.1668 0.2756,3.11675 2.07396,10.18555 3.99636,15.70846 3.93129,11.29432 4.07293,12.12474 2.06796,12.12474 -0.85686,0 -2.62039,-3.09747 -4.41243,-7.75 -2.81745,-7.3147 -3.56367,-10.49514 -6.159,-26.25 -0.58892,-3.575 -1.35266,-7.849999 -1.6972,-9.499999 -0.56392,-2.70055 -0.46182,-2.86399 1.02291,-1.63738 2.53081,2.09084 3.04507,-0.52717 2.24488,-11.42829 -0.48018,-6.54156 -0.35981,-9.43433 0.39256,-9.43433 1.48739,0 3.02232,4.36533 3.09954,8.8151 l 0.064,3.6849 1.61747,-3.25 c 3.24325,-6.51669 4.38685,-2.42563 1.77783,6.3599 -1.44038,4.85026 -1.40086,5.1692 1.60223,12.931509 1.69346,4.37722 3.53804,9.75859 4.09906,11.95859 1.70597,6.68978 3.19114,8.66036 17.23361,22.86619 7.44804,7.53468 13.55611,14.24716 13.57349,14.91661 0.0498,1.91728 4.62711,6.63694 7.49386,7.72688 6.37417,2.42346 24.67323,0.34935 38.74559,-4.39162 8.97742,-3.02448 11.00327,-3.19738 12.75353,-1.08845 0.97068,1.16961 1.00455,2.11105 0.14388,4 -1.10343,2.42176 -1.03968,2.47039 3.23879,2.47039 2.96112,0 6.08908,0.9516 9.72856,2.95966 2.9503,1.62781 8.73919,4.72642 12.86419,6.88581 7.09712,3.71525 13,8.38801 13,10.29089 0,1.08436 15.06366,1.05449 20.72514,-0.0411 2.67035,-0.51675 5.7073,-2.15667 8.25288,-4.45645 3.12584,-2.82401 4.86681,-3.63798 7.77486,-3.63508 4.63819,0.005 11.05144,3.59194 9.39064,5.25274 -0.83133,0.83133 -2.04511,0.68401 -4.66743,-0.56649 -4.94508,-2.35814 -5.54128,-2.22605 -11.55485,2.56001 l -5.34002,4.25 h -13.3798 c -12.85513,0 -13.45474,-0.0926 -15.29061,-2.36078 -1.81443,-2.24165 -1.91085,-2.25814 -1.91085,-0.32672 0,1.11873 1.19463,3.4538 2.65474,5.18904 2.56171,3.04442 14.95826,11.79764 24.4289,17.24928 2.52101,1.45119 6.24236,4.47451 8.26968,6.71851 3.07918,3.40829 4.00123,3.9113 5.60061,3.05534 1.05302,-0.56357 2.64469,-1.02466 3.53703,-1.02466 1.47688,0 1.48278,0.19941 0.0657,2.22251 -2.24933,3.21137 -1.91743,6.50767 0.9433,9.3684 1.375,1.375 2.5,3.0761 2.5,3.78023 0,1.69143 -3.9206,5.22328 -6.75106,6.08165 -2.36972,0.71864 -4.86324,4.26624 -3.76826,5.36122 0.35349,0.3535 4.4477,0.87745 9.09825,1.16435 4.65054,0.2869 8.47433,0.97164 8.49732,1.52164 0.10775,2.57867 -13.42338,3.34602 -16.83727,0.95483 -2.12912,-1.49129 -2.32433,-1.36025 -5.59885,3.75866 -4.04199,6.31864 -11.47222,13.40058 -16.07923,15.32551 -1.82508,0.76257 -3.60266,2.12744 -3.95018,3.03305 -0.4892,1.27485 -1.40199,1.50209 -4.0433,1.00658 -1.8763,-0.352 -3.67419,-0.21489 -3.99531,0.30469 -0.99942,1.61711 -18.56922,10.62074 -43.12667,22.10026 -12.9617,6.05903 -23.75518,11.01642 -23.98548,11.01642 -0.2303,0 -2.31716,2.05955 -4.63746,4.57678 -2.3203,2.51722 -5.45722,5.21722 -6.97093,6 -3.04909,1.57674 -10.21402,1.69123 -16.35153,0.26128 z M 231.2439,287.83 c 6.12141,-1.26983 13.02051,-4.95088 15.25312,-8.13837 0.85035,-1.21406 1.5461,-4.10569 1.5461,-6.42585 0,-2.32016 0.49312,-4.52324 1.09581,-4.89573 1.3186,-0.81493 0.49713,-7.72413 -1.77638,-14.94078 -2.05814,-6.53301 -11.66548,-27.40715 -15.43014,-33.52551 -1.62343,-2.63841 -4.68727,-8.99952 -6.80852,-14.1358 -2.12126,-5.13628 -5.74865,-13.31843 -8.06089,-18.18255 -2.31223,-4.86412 -3.98384,-9.68597 -3.71468,-10.71521 0.30652,-1.17213 -0.12613,-2.05761 -1.15792,-2.36983 -4.87106,-1.47398 -23.75892,-3.5711 -32.16345,-3.5711 -9.30695,0 -22.0288,-2.34815 -26.9284,-4.97033 -2.17377,-1.16337 1.07178,4.42387 15.95716,27.47033 15.1035,23.38418 27.31753,39.75484 37.27813,49.96449 10.49855,10.76104 15.70928,19.1646 15.70928,25.33499 0,3.15778 -2.00894,6.07369 -4.25,6.16872 -0.4125,0.0175 -0.75,-2.23613 -0.75,-5.00804 0,-3.00267 -0.77888,-6.56657 -1.92691,-8.8169 -2.13374,-4.18247 -4.62248,-6.68138 -5.40048,-5.42255 -0.278,0.44981 -5.60556,0.49019 -11.83903,0.0897 -12.60718,-0.80991 -23.5977,0.83776 -37.75873,5.6607 -4.08384,1.39087 -8.24634,2.52885 -9.25,2.52885 -2.194,0 -2.20293,0.18232 -0.31403,6.40893 1.65268,5.44789 1.93333,9.59107 0.6497,9.59107 -1.12121,0 -2.87994,-3.98745 -3.70979,-8.41093 -0.37032,-1.97395 -1.07323,-3.58903 -1.56202,-3.58903 -1.19474,0 -1.12016,3.82235 0.19415,9.95078 l 1.08287,5.04922 5.66713,-0.005 c 7.98066,-0.007 47.14129,3.1957 61.16714,5.00243 8.56271,1.103 11.49674,1.08649 17.20078,-0.0967 z m 5.02748,-8.13092 c -3.05463,-1.47215 -3.74132,-4.87698 -1.75735,-8.71355 1.56981,-3.03569 4.05113,-4.86755 5.1308,-3.78788 0.2835,0.28349 -0.20626,2.24274 -1.08835,4.35388 -1.49443,3.57668 -1.48539,3.92503 0.13255,5.10809 0.95499,0.69831 2.32534,1.26965 3.04522,1.26965 0.71988,0 1.30887,0.675 1.30887,1.5 0,1.75483 -3.40858,1.89064 -6.77174,0.26981 z m -196.047047,-11.36352 3.081898,-1.59371 -2.740261,-1.79759 c -4.156635,-2.72671 -6.283382,-6.69135 -7.629228,-14.22224 -1.405753,-7.86612 -0.381099,-15.48334 2.30841,-17.16058 2.492069,-1.55411 3.246824,-0.13003 1.792245,3.38164 -0.841155,2.03072 -1.069093,5.28213 -0.669951,9.55644 0.959743,10.27767 4.53289,15.9282 10.53079,16.65328 2.230978,0.2697 2.294559,0.0317 2.597145,-9.72353 0.170599,-5.5 0.47613,-10.87076 0.678957,-11.93502 0.288318,-1.51284 -0.384196,-2.09426 -3.082367,-2.66484 -3.975371,-0.84068 -5.671639,-2.78555 -7.119674,-8.16314 -0.653024,-2.42515 -1.834848,-4.13621 -3.229546,-4.6758 -2.258768,-0.87387 -13.208155,-11.925 -22.356361,-22.56408 -4.4242962,-5.14533 -5.4185342,-5.84179 -7.0000002,-4.90351 -3.215971,1.90802 -4.919212,11.1732 -3.660354,19.91136 1.286295,8.9286 7.9679042,23.15625 15.8170802,33.68049 2.75,3.68722 6.258836,8.80756 7.797413,11.37854 1.538577,2.57098 3.050168,4.42175 3.359091,4.11283 0.308924,-0.30892 -0.387412,-1.89456 -1.547413,-3.52363 -1.16,-1.62907 -2.109091,-3.76347 -2.109091,-4.74312 0,-0.97965 -0.839928,-2.71018 -1.866506,-3.84563 -4.211127,-4.65772 -13.133494,-16.99705 -13.133494,-18.16317 0,-0.68904 2.378819,1.30129 5.286265,4.42296 6.903553,7.41221 12.713735,14.74691 12.713735,16.04965 0,0.57051 1.151031,2.73343 2.557847,4.80649 1.406817,2.07306 2.348945,4.56804 2.09362,5.54441 -0.584481,2.23506 1.430694,2.3012 5.52975,0.1815 z M 23.049949,233.62629 c 0.0094,-1.64269 6.156952,-5.69702 8.63838,-5.69702 3.101833,0 3.471489,1.02737 1.410888,3.92121 -1.46308,2.05471 -2.798977,2.68343 -5.970455,2.8099 -2.599297,0.10365 -4.08316,-0.27255 -4.078813,-1.03409 z m -0.750072,-7.65749 c -1.457602,-2.33399 -0.731515,-4.71508 1.860888,-6.10249 1.542708,-0.82564 1.882351,-0.65708 1.882351,0.93416 0,1.44923 0.507147,1.80894 2,1.41855 2.464264,-0.64442 2.722075,1.84532 0.428571,4.13882 -2.136761,2.13676 -4.695134,1.9755 -6.17181,-0.38904 z m 23.743239,1.10183 c 0,-1.57225 -1.80781,-6.63475 -4.017355,-11.25 -4.214289,-8.80271 -4.426085,-7.44074 -0.362098,2.32851 1.308699,3.14592 2.379453,7.08342 2.379453,8.75 0,1.66657 0.45,3.03013 1,3.03013 0.55,0 1,-1.28639 1,-2.85864 z m 412.767264,0.66043 c -0.49947,-1.49841 -2.2337,-1.0686 -2.58991,0.64188 -0.22259,1.06885 0.17816,1.35714 1.29227,0.92962 0.8882,-0.34084 1.47214,-1.04801 1.29764,-1.5715 z M 121.04312,197.18994 c 5.225,-1.37398 12.2,-3.10862 15.5,-3.85476 3.3,-0.74614 7.35,-1.73944 9,-2.20733 2.99318,-0.84879 2.99486,-0.85348 0.73812,-2.06619 -1.86774,-1.00367 -3.00651,-0.88608 -6.53526,0.67485 -2.35037,1.03968 -7.40752,2.45062 -11.23812,3.13544 -11.29157,2.01863 -23.77827,5.17251 -26.46474,6.68443 -2.294234,1.29117 -2.00615,1.35449 3.5,0.76934 3.3,-0.3507 10.275,-1.7618 15.5,-3.13578 z m 227.5,-16.21128 c 8.92277,-2.49287 17.60026,-5.40259 17.98936,-6.03218 0.24377,-0.39443 -1.90411,-0.54295 -4.77307,-0.33005 l -5.21629,0.3871 4.5,-2.44511 c 5.12382,-2.78407 11.19517,-8.63695 8.93709,-8.6155 -3.32009,0.0316 -5.76039,1.30313 -6.7752,3.53038 -1.16233,2.55105 -5.6962,5.18736 -14.74099,8.57145 -6.60365,2.47074 -12.2686,2.10485 -19.17503,-1.2385 -2.39264,-1.15826 -4.51164,-1.94191 -4.70888,-1.74145 -0.19724,0.20046 -0.67383,2.05197 -1.0591,4.11447 -0.69409,3.71584 -0.66986,3.75091 2.66082,3.84968 1.84871,0.0548 4.48629,0.47887 5.86129,0.94233 2.69114,0.90708 11.62381,0.3697 16.5,-0.99262 z m -108.18799,-3.2999 c 1.49054,-0.20523 1.03162,-1.16145 -2.5868,-5.38995 -2.41934,-2.82725 -5.26452,-6.32889 -6.32262,-7.78143 -1.79852,-2.46898 -2.15107,-2.56384 -5.4132,-1.45659 -6.59375,2.23808 -8.65215,4.32717 -8.18726,8.30934 0.25659,2.1978 -0.01,3.56914 -0.69272,3.56914 -1.37402,0 -1.45302,2.25639 -0.12549,3.58392 0.82787,0.82787 14.91444,0.324 23.32809,-0.83443 z m 34.55545,-1.30313 c 1.66652,-0.57734 -1.43081,-3.1864 -7.36746,-6.20603 -5.36031,-2.72647 -16.59583,-13.14619 -19.01071,-17.63036 -1.06925,-1.98548 -2.30694,-3.60997 -2.75042,-3.60997 -0.44348,0 -1.74701,1.59436 -2.89675,3.54302 -1.14974,1.94865 -3.83456,4.4328 -5.96628,5.52032 -2.13171,1.08752 -3.87584,2.14002 -3.87584,2.33889 0,0.19887 2.05725,2.55223 4.57168,5.22968 2.51442,2.67745 5.64886,6.44309 6.96543,8.36809 l 2.39375,3.5 13.28457,-0.28996 c 7.30651,-0.15947 13.89993,-0.50313 14.65203,-0.76368 z m 73.79356,-4.6136 c 7.41115,-2.75079 8.70327,-3.88271 4.08113,-3.57514 -5.71239,0.3801 -4.83698,-1.63462 1.25785,-2.89491 3.025,-0.6255 7.525,-2.02734 10,-3.1152 2.475,-1.08786 5.35191,-2.27417 6.39313,-2.63625 1.04122,-0.36209 1.70241,-0.84905 1.46932,-1.08214 -0.23309,-0.23309 -4.235,0.717 -8.89313,2.11133 -7.03585,2.10605 -10.65486,2.55258 -21.38213,2.63825 l -12.9128,0.10312 -4.75897,-5.17559 c -2.61743,-2.84657 -4.90667,-4.84498 -5.08719,-4.44091 -0.18053,0.40408 -1.64215,1.40968 -3.24805,2.23468 -3.94603,2.02719 -4.20488,3.4986 -0.85928,4.88439 3.1341,1.29819 9.2791,6.70624 9.2791,8.1663 0,0.52212 1.05,0.94931 2.33333,0.94931 1.28334,0 2.66563,0.3375 3.07177,0.75 1.31242,1.33297 7.00856,3.09577 10.25592,3.17392 1.73855,0.0418 5.78855,-0.89918 9,-2.09116 z m -37.66102,120.3036 c 0,-1.89839 4.53371,-7.13636 6.17686,-7.13636 0.49727,0 2.1573,-0.92651 3.68896,-2.05892 3.04317,-2.24991 4.39776,-2.34083 20.38418,-1.36825 10.74053,0.65343 13.01855,1.61417 8.1849,3.45192 -3.38615,1.28741 -7.90827,1.23067 -16.27594,-0.20422 -8.29928,-1.42317 -11.2819,-0.48865 -16.88934,5.29177 -4.21319,4.34318 -5.26962,4.74895 -5.26962,2.02406 z M 94.029466,277.64789 c -0.008,-1.22024 -0.28357,-3.22565 -0.61346,-4.45647 -0.43604,-1.62689 -0.091,-2.41284 1.26366,-2.87882 1.0249,-0.35253 4.11345,-1.68637 6.863454,-2.96408 7.27908,-3.38202 21.52218,-6.79707 22.84236,-5.47689 1.68904,1.68904 -0.17813,2.68181 -9.34236,4.96731 -11.80189,2.94332 -17.415654,5.86103 -17.808264,9.2557 -0.39064,3.37775 -3.18583,4.73222 -3.20539,1.55325 z M 71.191807,256.67927 c -2.171986,-7.01397 -3.341977,-17.52032 -2.190638,-19.67162 1.774232,-3.31518 3.039102,-2.42251 3.077076,2.17162 0.01932,2.3375 0.678513,7.175 1.464871,10.75 0.786358,3.575 1.44555,7.2875 1.464871,8.25 0.06053,3.01551 -2.761356,1.90633 -3.81618,-1.5 z m 54.740013,2.58333 c -0.0612,-0.45833 -0.22094,-2.40833 -0.35494,-4.33333 -0.134,-1.925 -0.59279,-5.1875 -1.01954,-7.25 -1.02627,-4.96005 1.0388,-5.06402 3.08969,-0.15555 1.71947,4.11526 1.50309,11.5505 -0.35391,12.16116 -0.6875,0.22608 -1.30009,0.0361 -1.3613,-0.42228 z m 353.20609,-6.90703 c -3.06296,-2.57731 -6.07214,-9.78471 -4.66893,-11.18275 0.41046,-0.40895 1.58825,0.38145 2.6173,1.75645 5.61651,7.5047 6.17101,8 8.95617,8 1.56597,0 4.11925,-1.06169 5.67394,-2.35931 4.64294,-3.87519 8.95932,-5.64069 13.79064,-5.64069 2.50977,0 5.44589,-0.55123 6.5247,-1.22496 1.4529,-0.90735 2.25315,-0.93328 3.08643,-0.1 0.83328,0.83328 0.54796,1.70196 -1.10044,3.35036 -1.97628,1.97628 -2.97543,2.17173 -8.92573,1.74598 -6.06753,-0.43413 -6.78762,-0.28301 -7.6246,1.60004 -1.45758,3.2793 -7.26597,6.62858 -11.49543,6.62858 -2.59696,0 -4.73011,-0.80334 -6.83405,-2.5737 z m -287.09479,-6.4263 c 0.825,-0.53316 2.625,-0.93141 4,-0.88501 l 2.5,0.0844 -2.5,0.80061 c -1.375,0.44035 -3.175,0.83861 -4,0.88501 -1.33333,0.075 -1.33333,-0.0233 0,-0.88501 z m 328.20578,-4.56842 c -2.50742,-1.75627 -2.09086,-3.43158 0.85324,-3.43158 2.55234,0 2.45342,-1.18463 -0.30902,-3.70072 -3.19271,-2.908 -6.3684,-4.38294 -8.04862,-3.73818 -0.79393,0.30465 -2.17652,-0.1791 -3.07244,-1.07502 -1.63708,-1.63708 -1.92,-4.16513 -1.64252,-14.67697 0.0826,-3.13 -0.61826,-8.42976 -1.55752,-11.77725 -1.717,-6.11935 -1.55606,-7.84652 0.6066,-6.50992 2.47102,1.52717 4.23924,8.22344 4.55724,17.25833 0.17966,5.10415 0.60163,9.72521 0.93772,10.26902 0.33609,0.54381 2.81665,2.10639 5.51235,3.4724 2.6957,1.36602 5.89848,3.83246 7.11729,5.48099 1.21881,1.64853 3.08387,2.99732 4.14459,2.99732 1.51199,0 1.79833,0.48601 1.3256,2.25 -0.33164,1.2375 -0.60913,2.8125 -0.61664,3.5 -0.0197,1.80875 -7.09905,1.57891 -9.80787,-0.31842 z m -34.20578,-5.39678 c 0,-0.53087 1.27226,-2.44337 2.82725,-4.25 1.55498,-1.80664 4.30447,-5.46281 6.10997,-8.12482 2.11723,-3.12162 3.62658,-4.49618 4.2512,-3.87156 1.24248,1.24248 -2.95362,9.54429 -7.05679,13.96158 -2.89097,3.11229 -6.13163,4.31984 -6.13163,2.2848 z M 57.209368,234.9183 c -3.506233,-1.48219 -2.096211,-3.54059 2.189115,-3.19575 2.004548,0.16131 3.642027,0.16131 3.638841,0 -0.101135,-5.12102 -2.409143,-12.61694 -4.58361,-14.8866 -3.403613,-3.5526 -4.414591,-10.72545 -2.025597,-14.37151 1.611646,-2.45969 1.556376,-2.58904 -3.122156,-7.30694 -6.98199,-7.04076 -16.407988,-18.04189 -20.121734,-23.48419 -2.766699,-4.05446 -3.606462,-4.66535 -5.693255,-4.1416 -1.729266,0.43402 -2.447856,0.20093 -2.447856,-0.79403 0,-2.07807 2.09505,-3.80841 4.611106,-3.80841 2.052799,0 7.388894,5.05376 7.388894,6.99794 0,0.46448 2.8125,3.92533 6.25,7.69078 3.4375,3.76546 7.724699,8.63841 9.527108,10.82879 2.195177,2.66768 3.185622,3.35644 3,2.08623 -0.47385,-3.24256 2.189276,-2.99862 3.341295,0.30607 0.592486,1.6996 1.483226,3.09019 1.979422,3.09019 0.496196,0 0.902175,0.59969 0.902175,1.33264 0,0.73294 1.695397,2.69509 3.767549,4.36032 3.461616,2.78183 3.945425,2.90957 5.958094,1.57321 1.918461,-1.27381 2.55721,-1.27155 5.14256,0.0182 1.623609,0.80997 4.117466,1.24987 5.541906,0.97757 2.100978,-0.40163 2.589891,-0.11053 2.589891,1.54203 0,2.98057 -5.052485,3.86881 -8.94095,1.57184 -1.648634,-0.97387 -3.140439,-1.56933 -3.315122,-1.32324 -6.445216,9.07985 -8.567896,16.17373 -6.80198,22.73184 0.876607,3.25547 1.603982,4.07478 4.052277,4.56444 4.367076,0.87341 5.881723,-0.10012 6.527318,-4.1954 0.657783,-4.1726 4.917092,-15.55214 7.075471,-18.90345 2.126124,-3.30123 3.773356,-2.85184 3.037266,0.8286 l -0.61572,3.0786 6.49072,-0.6951 c 5.42802,-0.58129 6.49072,-0.44795 6.49072,0.81441 0,2.06944 -2.15492,2.72349 -8.97321,2.72349 h -5.809631 l -1.594285,3.98451 c -0.876857,2.19148 -1.894013,5.85891 -2.260347,8.14984 l -0.666062,4.16532 8.901765,-0.67714 c 9.84805,-0.74911 37.995834,-4.94895 48.901774,-7.29647 4.63336,-0.99734 8.27637,-2.51327 10.77521,-4.48379 5.45185,-4.29919 11.49554,-6.69615 17.75272,-7.04083 4.33137,-0.2386 5.47207,0.0112 5.47207,1.19856 0,1.08188 -1.55068,1.66677 -5.56302,2.09827 -6.50691,0.69977 -12.16721,3.75027 -20.51764,11.05754 -8.20627,7.18112 -17.52037,10.85431 -11.00679,4.34073 l 2.62467,-2.62467 -4.76861,0.63355 c -2.62274,0.34845 -9.94361,1.48409 -16.26861,2.52363 -15.65487,2.57295 -31.99426,4.10896 -41.007325,3.85497 -4.120973,-0.11613 -9.292679,0.082 -11.492679,0.4402 -2.2,0.35825 -5.050187,0.20741 -6.333748,-0.33519 z m 6.833748,-24.52517 c 0,-0.63464 0.9,-1.96837 2,-2.96386 2.464568,-2.2304 2.553725,-3.48994 0.25,-3.5318 -0.9625,-0.0175 -2.623463,-0.69246 -3.691029,-1.49993 -1.524062,-1.15274 -2.11152,-1.19962 -2.734687,-0.2182 -1.177354,1.85421 -0.989566,8.57258 0.307351,10.99589 1.095865,2.04764 1.174889,2.05533 2.5,0.24313 0.752601,-1.02924 1.368365,-2.3906 1.368365,-3.02523 z m 404.537524,21.28614 c 1.76093,-5.89332 6.95783,-11.78011 5.78866,-6.5571 -1.51745,6.77893 -2.5471,8.8071 -4.47112,8.8071 -1.59607,0 -1.85679,-0.44525 -1.31754,-2.25 z m -303.6245,-2.97909 c -1.45427,-1.96892 -1.85418,-2.03792 -4.78207,-0.82515 -1.75729,0.72789 -3.51815,0.99914 -3.91301,0.60276 -1.11103,-1.11528 3.71432,-4.54852 6.39284,-4.54852 2.64668,0 6.72631,3.48873 6.13922,5.25 -0.6476,1.9428 -2.19044,1.75016 -3.83698,-0.47909 z m 187.55988,-4.81476 c -0.35482,-0.57411 -0.35825,-4.73661 -0.008,-9.25 0.3624,-4.66494 0.20345,-9.64516 -0.36836,-11.54081 -0.83052,-2.75335 -0.77169,-3.14031 0.3375,-2.21976 2.2649,1.87969 3.51964,9.2144 2.88049,16.83818 -0.57177,6.82003 -1.37013,8.55395 -2.84201,6.17239 z m 54.05278,-3.90649 c -3.26118,-6.30643 -0.66862,-12.56752 4.91698,-11.87462 2.98794,0.37066 3.5659,2.1575 0.86016,2.65932 -2.99785,0.556 -4.08566,2.91264 -3.54767,7.68569 0.5869,5.20699 -0.0883,5.67022 -2.22947,1.52961 z m 59.47432,-1.99296 c 0,-3.79068 3.68599,-5.0567 14.72251,-5.0567 5.93513,0 10.27749,0.40765 10.27749,0.96482 0,2.0461 -4.41039,3.1553 -11.49671,2.89139 -5.83363,-0.21725 -7.77951,0.0838 -9.27194,1.43442 -2.49852,2.26113 -4.23135,2.16534 -4.23135,-0.23393 z m -83.30698,0.30298 c -0.35218,-0.35217 0.0552,-1.81764 0.90516,-3.25661 1.438,-2.43433 1.36206,-3.10267 -1.09193,-9.60968 -4.03664,-10.70359 -4.10168,-11.50821 -0.61224,-7.57506 5.47684,6.17327 7.71076,16.3194 4.27725,19.42668 -2.00956,1.81863 -2.52417,1.96875 -3.47824,1.01467 z m -7.06029,-3.71186 c -0.41893,-2.1187 -0.52958,-4.0843 -0.24588,-4.368 0.75758,-0.75758 1.85536,4.25774 1.39892,6.39109 -0.23613,1.10363 -0.69345,0.30122 -1.15304,-2.02309 z m 119.36727,-3.92328 c 0,-0.77801 0.8912,-2.22109 1.98044,-3.20684 2.17271,-1.96627 3.54507,-7.29326 2.62281,-10.18076 -0.74847,-2.34337 -9.60325,-11.89099 -9.60325,-10.35465 0,0.66519 -1.16009,1.01707 -2.75,0.83413 -2.14057,-0.2463 -2.96775,-1.05695 -3.73257,-3.65801 l -0.98256,-3.34159 -6.51744,0.68966 -6.51743,0.68965 2.19159,-2.35034 c 1.80952,-1.9406 3.19281,-2.34995 7.93472,-2.34807 5.63899,0.002 5.75844,0.0612 6.58701,3.25228 0.46412,1.7875 1.1685,3.28656 1.56527,3.33124 0.39678,0.0447 1.85879,0.16766 3.24891,0.27328 2.89079,0.21965 9.50123,5.84299 11.57412,9.84582 2.11796,4.08987 1.74173,9.99317 -0.88598,13.90178 -2.35976,3.51003 -6.71564,5.21098 -6.71564,2.62242 z m -237.05383,-3.31217 c -5.74566,-5.98151 -9.6044,-7.41237 -19.98967,-7.41237 -6.7443,0 -9.01692,-0.31875 -8.71569,-1.22242 0.55931,-1.67793 4.18908,-2.55971 11.02332,-2.6779 5.29032,-0.0915 6.2233,-0.47368 11.35021,-4.64961 3.07235,-2.50246 6.07536,-4.38684 6.67337,-4.1875 2.45839,0.81946 1.56241,2.72079 -2.73718,5.80853 -2.50279,1.79737 -4.55053,3.53932 -4.55053,3.87102 0,0.33169 1.54262,1.43383 3.42804,2.44919 3.46377,1.86537 9.57196,8.59771 9.57196,10.55005 0,2.10413 -2.67805,0.98537 -6.05383,-2.52899 z m 223.59448,1.6534 c -0.31756,-0.51383 1.31272,-3.46164 3.62286,-6.55069 3.35012,-4.47971 4.37559,-5.30315 5.06656,-4.06846 2.11345,3.77653 -6.45031,14.24211 -8.68942,10.61915 z m -30.60571,-4.64416 c -1.64878,-1.98666 -1.7558,-14.00075 -0.13911,-15.61744 0.64396,-0.64396 1.34103,-0.97584 1.54903,-0.7375 0.81641,0.93542 1.50729,17.93333 0.72891,17.93333 -0.45589,0 -1.41836,-0.71027 -2.13883,-1.57839 z m -303.56638,-3.00723 c 3.05972,-2.69051 7.13144,-2.9271 7.13144,-0.41438 0,1.02829 -0.84118,1.41318 -2.67487,1.22393 -1.47118,-0.15184 -2.96024,0.18566 -3.30902,0.75 -0.34878,0.56434 -1.39509,1.01185 -2.32513,0.99447 -1.28892,-0.0241 -1.00892,-0.63135 1.17758,-2.55402 z m 330.31894,-0.0602 c -1.38801,-1.38802 -0.63032,-4.3144 1.39815,-5.40001 2.72392,-1.45779 3.50917,-0.54456 2.35053,2.73364 -0.96786,2.7384 -2.55076,3.86429 -3.74868,2.66637 z m -138.6875,-2.39226 c 0,-3.83456 7.04681,-10.31323 8.55802,-7.86804 0.30801,0.49837 -0.13872,0.90612 -0.99273,0.90612 -0.85401,0 -2.90557,1.86752 -4.55902,4.15004 -1.65345,2.28252 -3.00627,3.54787 -3.00627,2.81188 z m 135.54271,-10.89282 c -1.07622,-1.74136 1.64179,-2.31317 3.26754,-0.68742 1.4911,1.49109 1.44888,1.61832 -0.53695,1.61832 -1.1854,0 -2.41416,-0.41891 -2.73059,-0.9309 z m -8.82425,-4.3191 c -0.55443,-1.54626 1.00813,-4.75 2.31672,-4.75 0.53065,0 0.96482,1.35 0.96482,3 0,3.03426 -2.36821,4.29719 -3.28154,1.75 z m 10.78154,-0.75 c 0.33992,-0.55 0.81648,-1 1.05902,-1 0.24254,0 0.44098,0.45 0.44098,1 0,0.55 -0.47656,1 -1.05902,1 -0.58246,0 -0.7809,-0.45 -0.44098,-1 z m -128,-34.86348 c -5.1767,-2.35483 -7.40438,-4.85225 -5.11262,-5.73168 0.88694,-0.34035 2.28762,-0.3598 3.11262,-0.0432 1.77122,0.67968 1.87554,-0.2437 0.45084,-3.99092 -1.73851,-4.57263 -1.27188,-21.36003 0.76148,-27.39486 1.63754,-4.86009 4.4105,-8.18636 5.72706,-6.86981 0.29442,0.29442 -0.43642,3.20351 -1.62407,6.46463 -2.72549,7.4838 -3.05067,22.96852 -0.59701,28.42933 l 1.57262,3.5 1.20237,-3.25 c 0.77921,-2.10622 1.8718,-3.25 3.10454,-3.25 2.10808,0 2.32721,1.61985 1.26625,9.36043 -0.5732,4.18193 -0.89378,4.6374 -3.25,4.61761 -1.43775,-0.0121 -4.41408,-0.84077 -6.61408,-1.84152 z m -141.95868,-5.64044 c -3.27727,-2.97663 -5.68159,-5.68914 -5.34293,-6.0278 1.64118,-1.64118 12.80161,7.26997 12.80161,10.22156 0,2.16027 -1.21511,1.47706 -7.45868,-4.19376 z m -12.52309,-1.46202 c -0.6291,-1.17548 -0.97948,-3.12652 -0.77863,-4.33564 0.28789,-1.73307 0.61295,-1.36363 1.53569,1.74535 1.32768,4.47335 0.94728,5.77488 -0.75706,2.59029 z m -41.01823,-7.02152 c 0,-0.5431 -1.78065,-2.11153 -3.957,-3.4854 -4.68015,-2.95444 -6.4388,-5.81403 -5.60898,-9.12028 0.90852,-3.61985 2.56598,-2.89196 2.56598,1.12687 0,2.98346 0.54903,3.85766 3.52584,5.61402 4.23504,2.49873 7.07766,6.85225 4.47416,6.85225 -0.55,0 -1,-0.44435 -1,-0.98746 z m 57.24301,-7.08612 c -7.52044,-3.90073 -15.11357,-10.39928 -13.73656,-11.75636 0.37394,-0.36854 2.10047,0.97581 3.83672,2.98742 5.39742,6.25342 19.17072,11.90714 20.3236,8.34252 0.17788,-0.55 -2.96235,-4.41217 -6.97829,-8.58259 -4.01595,-4.17043 -8.13398,-9.34543 -9.15118,-11.5 -1.0172,-2.15458 -2.93671,-5.64743 -4.26557,-7.761889 -1.32886,-2.11446 -2.15397,-4.10661 -1.83358,-4.427 0.7484,-0.7484 2.76931,1.89039 6.71762,8.771479 1.73572,3.025 6.68574,9.15752 11.00004,13.62781 4.3143,4.4703 7.84419,8.54679 7.84419,9.05887 0,1.44554 -2.31236,3.96859 -4.25699,4.64488 -1.06028,0.36874 -4.82737,-0.98152 -9.5,-3.40514 z m -56.50879,-1.25448 c -2.19127,-5.298 -2.30523,-7.39073 -0.31239,-5.73682 1.31403,1.09055 3.24149,8.73489 2.41167,9.56471 -0.20078,0.20078 -1.14546,-1.52177 -2.09928,-3.82789 z m 30.26578,-30.095209 c 0,-1.97582 4.87068,-7.57673 6.58889,-7.57673 2.01857,0 1.79768,0.63624 -1.75625,5.05864 -3.31395,4.12376 -4.83264,4.91508 -4.83264,2.51809 z m 37.65151,-2.14893 c -1.56667,-1.88529 -3.51667,-3.4278 -4.33334,-3.4278 -2.19181,0 -0.99981,-2.44982 1.36249,-2.8002 2.21426,-0.32842 8.31934,5.78815 8.31934,8.335 0,2.43892 -2.33537,1.51892 -5.34849,-2.107 z m 90.65425,-11.9594 c 1.84458,-1.62279 4.0082,-2.4684 6.31575,-2.4684 1.93048,0 4.34779,-0.44839 5.37179,-0.99641 1.024,-0.54803 2.58843,-0.71759 3.47652,-0.3768 2.98221,1.14438 0.90833,2.8632 -4.37143,3.62303 -2.8799,0.41446 -6.0756,1.2028 -7.10155,1.75187 -1.02595,0.54907 -2.90744,0.98409 -4.1811,0.96671 -2.29244,-0.0313 -2.28751,-0.0564 0.49002,-2.5 z m 18.18987,-2.47546 c -0.34231,-0.55389 0.0127,-1.25077 0.78887,-1.54862 0.7762,-0.29785 2.44822,-1.94411 3.71561,-3.65834 1.94857,-2.63558 2.02692,-3.01033 0.5075,-2.42727 -1.98927,0.76335 -5.50761,-1.80066 -5.50761,-4.0137 0,-0.73975 0.23111,-1.34501 0.51357,-1.34501 0.89672,0 4.95518,2.4603 5.77353,3.5 0.43291,0.55 0.49532,-0.6875 0.13871,-2.75 -0.35693,-2.06431 -0.23875,-3.75 0.2629,-3.75 1.4468,0 3.31129,2.25183 3.31129,3.9992 0,1.2456 0.79151,1.50679 3.57972,1.18129 2.83374,-0.33083 4.18461,-1.27885 6.48236,-4.5492 4.61404,-6.56712 5.02794,-6.94127 6.28645,-5.68276 1.48179,1.48179 -2.9458,9.95578 -5.79679,11.0945 -1.12845,0.45072 -4.23379,1.60358 -6.90073,2.5619 -3.68292,1.32339 -5.23045,2.54231 -6.43522,5.06873 -1.58694,3.32787 -5.30398,4.6107 -6.72016,2.31928 z m -66.60092,-2.21493 c -0.6631,-1.25291 -2.62306,-4.07801 -4.35546,-6.27801 -1.7324,-2.2 -3.67047,-5.22143 -4.30682,-6.71429 -1.63218,-3.82902 0.31959,-4.55269 2.24368,-0.8319 0.85871,1.66055 2.88692,4.529 4.50713,6.37432 3.41528,3.88978 5.36971,8.3357 4.02872,9.16448 -0.50139,0.30987 -1.45415,-0.4617 -2.11725,-1.7146 z m 40.66404,-4.68296 c -0.36685,-0.59356 -0.2229,-1.87027 0.31988,-2.83713 0.93591,-1.66715 1.02302,-1.66408 1.6869,0.0593 0.80595,2.09217 -0.93832,4.50664 -2.00678,2.77783 z m -44.1594,-9.7944 c -2.10426,-4.20994 -3.53217,-5.89035 -5.20698,-6.12775 -2.85854,-0.4052 -2.34442,-2.55438 0.71842,-3.00326 3.1607,-0.46322 5.73034,2.23382 7.6581,8.03777 2.48628,7.48547 0.38735,8.20943 -3.16954,1.09324 z m 47.85065,-4.96293 c -0.6875,-0.27741 -1.25,-1.15981 -1.25,-1.96089 0,-2.09957 4.24559,-10.08214 4.68227,-8.80361 0.2016,0.59028 1.70556,0.8767 3.34214,0.63651 3.59836,-0.52813 3.78827,0.67817 0.58109,3.69116 -1.7264,1.62187 -2.60206,1.91369 -3.13839,1.0459 -0.53719,-0.86919 -1.01869,-0.71256 -1.73293,0.56372 -0.74151,1.325 -0.57646,1.99825 0.65941,2.68988 2.96636,1.66006 0.25022,3.50676 -3.14359,2.13733 z m 21.12576,-3.42391 c -3.10443,-0.90007 -6.11746,-3.50544 -5.16057,-4.46233 0.50792,-0.50792 11.71347,2.14385 12.53632,2.96669 0.24682,0.24682 0.15214,0.92871 -0.21039,1.5153 -0.76983,1.24561 -2.82071,1.23999 -7.16536,-0.0197 z m 16.62424,-0.61658 c -0.825,-0.32142 -2.625,-1.00142 -4,-1.51113 -4.41985,-1.63842 -0.036,-2.93081 6.03563,-1.77934 7.68652,1.45772 10.64543,1.26188 11.43415,-0.75676 1.40253,-3.58963 1.67439,-15.77132 0.43584,-19.53003 -0.92143,-2.79636 -0.95328,-4.07231 -0.12239,-4.9032 2.13685,-2.13685 -3.3795,-9.54675 -11.76452,-15.8028098 -5.00604,-3.735 -5.83647,-4.01347 -11.94932,-4.00695 -6.51669,0.007 -18.10132,2.32727 -27.41421,5.4908898 -2.66465,0.90518 -5.09128,1.39934 -5.3925,1.09811 -1.21122,-1.21122 2.23229,-3.5713098 10.21324,-6.9998898 6.68268,-2.87085 10.20815,-3.73747003 17.23273,-4.23609003 8.30554,-0.58954 9.15751,-0.46175 14.31131,2.14655003 7.1401,3.61354 17.50855,14.1334398 18.9123,19.1885298 1.4528,5.23169 1.25951,20.73895 -0.3341,26.80489 l -1.31356,5 -7.3923,0.19081 c -4.06577,0.10494 -8.0673,-0.0722 -8.8923,-0.39358 z m -45.34501,-8.12597 c -0.91025,-1.00581 -1.65499,-2.36736 -1.65499,-3.02568 0,-1.64755 5.5566,1.25657 6.34743,3.31743 0.84584,2.20423 -2.62915,1.98817 -4.69244,-0.29175 z m 18.09501,-0.47399 c -4.68703,-1.31237 -5.0117,-3.70321 -0.5,-3.68196 3.73226,0.0176 5.13087,0.76641 6.04156,3.23469 0.72474,1.96431 0.0663,2.01745 -5.54156,0.44727 z m 35.47931,0.0417 c -0.54852,-0.68144 -2.17757,-4.53679 -3.62011,-8.56744 -1.44254,-4.03064 -3.08557,-8.19314 -3.65118,-9.25 -0.78882,-1.4739 -0.69929,-1.92153 0.38435,-1.92153 1.75153,0 3.57528,2.14564 5.83666,6.86681 1.64372,3.43167 1.70697,3.46679 1.14027,0.63319 -0.32999,-1.65 -1.24361,-4.27662 -2.03027,-5.83693 -1.31862,-2.61543 -1.28815,-2.81039 0.39034,-2.49706 1.00135,0.18693 2.60743,1.91354 3.56908,3.83693 1.84689,3.69396 2.37692,11.49252 0.84543,12.43904 -0.49837,0.30801 -0.68416,1.40878 -0.41288,2.44616 0.60086,2.2977 -1.07415,3.56222 -2.45169,1.85085 z m -66.48164,-7.19936 c 0.26702,-1.39677 0.91432,-2.53961 1.43846,-2.53961 1.31002,0 0.58298,4.25484 -0.80503,4.71131 -0.70613,0.23221 -0.93981,-0.56895 -0.63343,-2.17168 z m -21.24767,-9.53961 c -0.33992,-0.55 0.10587,-1 0.99064,-1 2.33853,0 7.04001,-2.62156 9.98753,-5.56908 1.68752,-1.68752 3.41623,-2.45286 5.07204,-2.2455 3.25557,0.4077 3.24991,2.22224 -0.008,2.62995 -1.3861,0.17345 -3.12368,1.17699 -3.86129,2.23008 -1.37685,1.96573 -7.46336,4.95455 -10.08958,4.95455 -0.81021,0 -1.75122,-0.45 -2.09114,-1 z m 41.5,-6.14378 c 0,-2.52979 10.9475,-5.46385 16.5,-4.4222 4.64118,0.87069 4.47787,2.56055 -0.25,2.58682 -2.0625,0.0115 -6.5625,0.6102 -10,1.33054 -3.4375,0.72033 -6.25,0.94751 -6.25,0.50484 z m -53.75,-4.5185 c -3.19548,-1.2894 -0.61697,-2.33772 5.75,-2.33772 6.8587,0 9.21189,1.17397 4.75,2.36971 -2.64282,0.70825 -8.71131,0.68976 -10.5,-0.032 z m 53.76697,-2.85579 c 1.30108,-1.38493 4.6112,-3.18493 7.35582,-4 8.26208,-2.4535698 20.62721,-1.6370698 20.62721,1.36207 0,0.42549 -3.7125,0.779 -8.25,0.78557 -6.10448,0.009 -9.68035,0.57854 -13.75,2.19068 -7.39321,2.92871 -8.96855,2.83963 -5.98303,-0.33832 z m -42.76697,-4.15249 c -1.2375,-1.4554398 -2.25,-3.9624698 -2.25,-5.5711798 0,-3.89107003 2.14875,-3.12314 3.25994,1.16506 0.78953,3.04692 1.08536,3.24244 4.04594,2.6741 8.82082,-1.69335 11.25027,-1.67708 14.63457,0.098 4.53194,2.3770498 5.4869,4.9028898 1.44006,3.8089298 -3.65514,-0.98808 -11.97661,-1.09857 -15.88051,-0.21086 -2.47702,0.56325 -3.39223,0.22086 -5.25,-1.96408 z"
     id="path4582" />
</svg>
