<?xml version="1.0" encoding="UTF-8" standalone="no"?>
<svg
   xmlns:dc="http://purl.org/dc/elements/1.1/"
   xmlns:cc="http://creativecommons.org/ns#"
   xmlns:rdf="http://www.w3.org/1999/02/22-rdf-syntax-ns#"
   xmlns:svg="http://www.w3.org/2000/svg"
   xmlns="http://www.w3.org/2000/svg"
   viewBox="0 0 2621.1907 2236.5825"
   height="2236.5825"
   width="2621.1907"
   id="svg850"
   version="1.1">
  <metadata
     id="metadata856">
    <rdf:RDF>
      <cc:Work
         rdf:about="">
        <dc:format>image/svg+xml</dc:format>
        <dc:type
           rdf:resource="http://purl.org/dc/dcmitype/StillImage" />
        <dc:title></dc:title>
      </cc:Work>
    </rdf:RDF>
  </metadata>
  <defs
     id="defs854" />
  <path
     id="path860"
     d="m 1505.0051,2235.203 c -1.1,-0.8365 -13.7,-8.5484 -28,-17.1376 -14.3,-8.5892 -37.6163,-23.2227 -51.814,-32.5188 -14.1978,-9.2962 -45.2478,-28.0462 -69,-41.6666 -23.7523,-13.6205 -51.511,-29.8479 -61.686,-36.0609 -48.1065,-29.3746 -92.0168,-53.8655 -126.9115,-70.7847 -11.8737,-5.7571 -35.3135,-17.1255 -52.0885,-25.263 -28.6106,-13.879 -44.9987,-20.9838 -48.4018,-20.9838 -0.8065,0 -4.7585,2.4988 -8.7823,5.5529 -4.4876,3.4061 -15.1842,9.4109 -27.6687,15.5325 -22.4881,11.0267 -27.7426,14.2863 -43.14724,26.7655 -24.7539,20.0531 -41.6689,36.03 -63.1515,59.6491 -48.8214,53.6767 -74.3894,70.3174 -121.3485,78.9782 -28.3983,5.2376 -36.3272,5.9321 -67.5,5.9123 -31.6779,-0.02 -48.3198,-1.6087 -82.5,-7.875 -38.9882,-7.1477 -85.9146,-21.8921 -107.3409,-33.7267 -25.9534,-14.3352 -42.39316,-37.2053 -46.25658,-64.3496 -1.27096,-8.9298 -0.68221,-25.2238 1.60572,-44.4392 1.98533,-16.6741 5.47642,-57.1972 5.48495,-63.6671 0.004,-2.9618 0.87603,-7.1949 2.04343,-9.9183 1.62066,-3.7809 1.77385,-4.9332 0.75,-5.6417 -0.73169,-0.5064 -7.75619,-0.5667 -16.28662,-0.1399 -8.25,0.4127 -16.575,0.6689 -18.5,0.5693 -1.925,-0.1 -10.7,0.4777 -19.5,1.283 -8.8,0.8053 -33.775,2.612 -55.5,4.015 -77.59436,5.0111 -152.3426,12.713 -185,19.0618 -6.875,1.3366 -14.13104,2.4319 -16.12454,2.434 -4.38584,0 -61.54807,13.96 -85.8742,20.965 -18.376085,5.2915 -24.794395,6.1029 -27.429825,3.4675 -1.93713,-1.9372 -1.948,-2.446 -0.10839,-5.0724 0.88364,-1.2615 3.08104,-2.3475 5.54861,-2.7421 2.24705,-0.3593 14.301175,-3.5124 26.786945,-7.007 32.11395,-8.988 85.87774,-21.9021 88.83184,-21.3374 1.36809,0.2615 5.72341,-0.1555 9.6785,-0.9267 27.43252,-5.3491 114.54289,-14.192 180.69106,-18.3426 17.875,-1.1216 42.85,-2.956 55.5,-4.0763 12.65,-1.1203 31.44161,-2.1241 41.75913,-2.2305 15.558,-0.1606 18.66834,-0.4311 18.22706,-1.5852 -3.98764,-10.4292 -8.93921,-33.2662 -12.27399,-56.6084 l -2.71442,-19 -7.29112,-4 c -13.13973,-7.2086 -58.5709,-34.5955 -64.70666,-39.0066 -10.42735,-7.4963 -17.01467,-14.1 -29.66678,-29.7402 -6.76595,-8.3639 -15.17031,-18.3675 -18.67636,-22.2302 -7.34063,-8.0873 -15.7644,-19.5723 -17.76353,-24.2189 -0.75625,-1.7578 -4.60273,-8.9578 -8.54774,-16 -11.35689,-20.2732 -23.56961,-46.0462 -26.21813,-55.3292 -3.31521,-11.6198 -5.91037,-27.6063 -9.57366,-58.9749 -1.7021,-14.575 -3.31473,-27.8763 -3.58363,-29.5584 -0.26891,-1.6822 -3.25029,-6.6322 -6.6253,-11 -10.90661,-14.1151 -17.76567,-32.4081 -16.45649,-43.8891 0.41746,-3.6609 0.1647,-5.3889 -0.97199,-6.6449 -0.84489,-0.9336 -2.62472,-4.7822 -3.95518,-8.5525 -2.89586,-8.2064 -3.23189,-18.3969 -0.86899,-26.3537 1.50783,-5.0774 1.48365,-5.7362 -0.45621,-12.4315 -4.66399,-16.0973 -9.36934,-45.4155 -17.18392,-107.0699 -13.0112,-102.6541 -20.5316,-172.232 -22.91422,-212 -1.32293,-22.0809 -1.32521,-80.5924 -0.004,-101.0171 2.309,-35.6929 8.25162,-76.90535 14.63329,-101.48285 l 3.50535,-13.5 -0.46507,-42.5 c -0.50739,-46.36824 -0.64417,-48.11389 -8.26644,-105.5 -6.95332,-52.34974 -7.6834,-73.80679 -3.82783,-112.5 l 0.4484,-4.5 -20.21278,-9.5 c -32.26348,-15.16382 -57.5754,-29.55587 -79.56408,-45.23916 -17.8469,-12.72919 -21.45265,-18.1668 -19.17018,-28.90934 0.62537,-2.94332 4.17447,-13.2265 7.88688,-22.8515 23.30422,-60.41979 30.489,-102.88603 30.11546,-178 -0.17952,-36.10021 -1.25951,-50.8049 -5.10442,-69.5 -4.74544,-23.07371 -21.9331,-85.24432 -31.74084,-114.81186 l -5.70133,-17.18814 0.035,-17.5 c 0.0284,-14.16764 0.4581,-19.49942 2.25678,-28 6.12644,-28.95369 15.6366,-56.079774 26.40576,-75.317904 5.27468,-9.42274 7.97617,-11.69224 11.60566,-9.7498 3.14906,1.68533 2.62888,4.53498 -2.39074,13.09709 -9.16672,15.63593 -19.67535,44.577104 -25.0865,69.089154 -2.37194,10.74468 -2.74404,14.69488 -2.81477,29.88146 l -0.0815,17.5 4.85399,14.5 c 12.72993,38.02725 31.27673,108.17941 34.76591,131.5 4.96132,33.15983 3.67163,103.51635 -2.70379,147.5 -3.5398,24.4209 -11.56906,53.9488 -22.43724,82.51372 -3.97306,10.44245 -8.16751,22.05225 -9.32099,25.79956 -1.90274,6.18142 -1.9586,7.06026 -0.60238,9.47654 3.17847,5.66282 27.86969,22.99508 52.18503,36.63181 14.67821,8.23194 60.09202,30.57837 62.1433,30.57837 0.67698,0 4.35507,1.57192 8.17353,3.49315 14.60465,7.34822 64.77508,22.47228 95.94267,28.92228 67.6277,13.99526 131.66839,19.95941 178,16.57724 15.8785,-1.15911 43.327,-4.86375 45.8347,-6.18615 1.009,-0.53213 2.5253,-2.61878 3.3695,-4.63701 1.3255,-3.16903 1.4352,-7.99868 0.8043,-35.41074 -0.4018,-17.45768 -0.398,-41.49498 0.01,-53.41624 0.706,-20.71257 0.8387,-21.76755 2.9877,-23.75925 l 2.249,-2.08425 -3.7798,-15.49951 c -2.0789,-8.52474 -5.6651,-23.59952 -7.9693,-33.49952 -11.0201,-47.3487 -35.6307,-107.13711 -85.63928,-208.05065 -25.75278,-51.96715 -33.50258,-68.50103 -33.16417,-70.75446 0.45787,-3.04884 3.15717,-4.30833 6.23146,-2.90759 1.97032,0.89773 4.1961,4.56714 9.32766,15.37749 3.70691,7.80911 14.78187,30.42918 24.61104,50.2668 40.13659,81.00528 65.23119,138.47887 79.27789,181.56841 3.9003,11.96461 8.5827,30.17973 13.81,53.72267 7.5828,34.15218 11.8567,44.50035 25.7765,62.41159 10.1108,13.01008 29.8617,37.22212 40.27,49.36574 25.7983,30.09966 68.7504,73.29408 97.7815,98.33316 22.3735,19.29701 31.8808,26.46833 44.3288,33.43722 14.6155,8.18233 25.2627,12.56323 70.8841,29.16604 23.9289,8.70834 46.0806,20.69197 59.25,32.05301 4.3304,3.73575 5.39,6.97053 3.05,9.31057 -2.2591,2.25913 -5.0777,1.19435 -13.685,-5.16979 -10.9434,-8.09139 -15.089,-10.65553 -26.3814,-16.31739 -8.3834,-4.20254 -30.9757,-13.31282 -33.0157,-13.31282 -0.4755,0 0.3313,1.4625 1.7927,3.25 1.4614,1.7875 10.5643,13.825 20.2286,26.75 19.0315,25.45255 33.9696,44.45451 52.447,66.7151 l 11.7993,14.2151 13.0546,-9.5359 c 7.18,-5.2448 20.897,-14.6859 30.4822,-20.98022 l 17.42774,-11.4443 2.0599,-7.23489 c 5.9616,-20.93827 16.5336,-51.20203 19.8388,-56.79091 10.8792,-18.39609 37.6017,-34.60024 72.4628,-43.94042 6.0729,-1.62709 11.3762,-3.30603 11.785,-3.73096 1.2592,-1.30885 10.8957,-18.33574 15.0945,-26.67089 2.1884,-4.34406 6.6569,-14.46223 9.9302,-22.48483 14.0552,-34.44886 23.2248,-44.34835 56.4305,-60.92223 6.5707,-3.27961 15.7717,-7.54469 20.4467,-9.47796 25.7516,-10.64913 57.259,-25.84535 85.8935,-41.42701 9.5664,-5.20563 30.928,-16.4454 47.4702,-24.97729 36.9569,-19.06103 42.214,-22.03988 92.6973,-52.52549 43.3256,-26.16324 54.939,-33.55727 54.939,-34.97861 0,-0.49406 -1.7742,-7.96554 -3.9427,-16.60329 -5.5662,-22.17185 -7.8046,-36.24993 -9.0339,-56.81837 -2.1644,-36.21571 -5.1181,-64.17013 -12.086,-114.38663 -4.6686,-33.64516 -4.746,-34 -7.4176,-34 -3.2967,0 -3.9685,-1.25926 -7.4695,-14 -4.4093,-16.04613 -7.0949,-24.41793 -12.8455,-40.04325 -6.3432,-17.2357 -8.6785,-25.62916 -11.1327,-40.01284 -4.8429,-28.38275 -11.0721,-88.19008 -11.0721,-106.3042 0,-11.000194 0.2295,-12.661774 2.0726,-15.004854 1.1399,-1.44917 2.6598,-2.63486 3.3775,-2.63486 3.1768,0 3.8937,3.08178 4.1431,17.810004 0.3852,22.76071 7.7478,89.28296 12.4169,112.19 1.9722,9.67538 3.894,15.68383 12.9542,40.5 3.8541,10.5563 4.9929,12.8931 4.6299,9.5 -2.114,-19.75858 -2.7872,-33.39718 -2.2705,-46 0.6559,-16.00189 2.4879,-25.44575 8.1473,-42 1.9742,-5.775 5.8645,-19.275 8.6449,-30 2.7805,-10.725 5.7022,-20.5125 6.4928,-21.75 1.6906,-2.64636 5.5516,-2.96672 7.4975,-0.6221 1.1539,1.39038 0.642,4.41805 -3.5079,20.75 -2.6724,10.51716 -7.2345,26.5471 -10.1381,35.6221 -6.9772,21.80674 -7.8785,28.53871 -7.1509,53.41444 0.6003,20.52206 1.0454,24.27279 11.5823,97.58556 5.1403,35.76543 9.9051,75.90246 11.0995,93.5 0.5227,7.7 1.4053,20.757 1.9615,29.01556 0.5562,8.25855 1.7055,19.05855 2.5539,24 1.8201,10.60074 8.4535,38.69321 9.3621,39.64799 0.3473,0.36495 10.7564,-7.2169 23.1314,-16.84856 23.1541,-18.0212 27.4499,-20.78097 37.5883,-24.14822 11.6365,-3.86481 26.725,-3.63983 35.1823,0.52458 l 3.7294,1.83634 13,-5.33295 c 25.5842,-10.49532 43.7509,-15.67596 95.4892,-27.23094 55.8294,-12.46868 81.7527,-19.42892 184.5108,-49.53997 18.15,-5.31846 34.6875,-10.1193 36.75,-10.66852 2.0625,-0.54922 3.75,-1.32674 3.75,-1.72781 0,-0.40107 -6.4765,-13.73384 -14.3922,-29.62836 -7.9157,-15.89453 -16.4606,-34.15839 -18.9888,-40.58635 -5.9545,-15.13976 -13.1459,-40.18048 -26.7984,-93.31198 -16.1322,-62.78187 -19.6524,-76.13205 -19.7411,-74.86718 -0.4153,5.9216 -4.7148,34.56207 -7.0714,47.10561 -9.0381,48.1057 -31.0181,117.31707 -51.8679,163.32293 -2.6369,5.81822 -5.3464,8.32456 -8.0662,7.46131 -3.7946,-1.20434 -3.6119,-4.94873 0.7233,-14.82327 15.3267,-34.91136 32.9174,-86.70899 42.6744,-125.6594 8.4628,-33.78407 15.4836,-80.83862 15.7338,-105.45093 0.4697,-46.204684 0,-50.788204 -6.7312,-65.351944 -4.9336,-10.67811 -12.6716,-20.59969 -28.1411,-36.082541 -7.3333,-7.33953 -13.3332,-13.7021768 -13.3332,-14.1392158 0,-0.437038 0.8241,-1.812307 1.8313,-3.056153 3.086,-3.811081 6.2624,-1.96748003 19.5239,11.3318318 19.3907,19.446058 29.7563,35.035048 34.0499,51.208138 2.3106,8.70353 3.9187,29.349 3.242,41.621934 -0.5471,9.92368 -0.3639,11.43563 2.7876,23 1.8552,6.80794 9.0684,34.65307 16.0292,61.87807 28.9097,113.07118 30.9912,119.45568 52.9799,162.5 5.6193,11 11.2057,22.3625 12.4143,25.25 1.2086,2.8875 2.7745,5.25 3.4797,5.25 2.8762,0 35.5179,-11.09058 77.0725,-26.18674 49.5024,-17.98345 72.696,-26.12483 119.0897,-41.80264 27.5126,-9.29732 106.7652,-36.98018 156,-54.4906 14.1601,-5.03606 70.4346,-25.53533 104.5,-38.06652 31.2783,-11.50593 58.2262,-20.4535 61.6009,-20.4535 2.6666,0 3.6643,0.51771 4.3362,2.25 1.7228,4.44186 -0.4748,5.64165 -26.9754,14.7279 -14.0039,4.80154 -36.7117,12.89299 -50.4617,17.98101 -78.0653,28.88712 -175.7425,63.40468 -281.5,99.47765 -18.975,6.4722 -53.625,18.74539 -77,27.27374 -23.375,8.52836 -51.5,18.4119 -62.5,21.96343 -11,3.55154 -21.125,6.92333 -22.5,7.49287 -1.375,0.56955 -5.425,1.81919 -9,2.77698 -3.575,0.95779 -22.25,6.36083 -41.5,12.00677 -102.1763,29.96781 -128.0727,36.92595 -182.5,49.0363 -36.4458,8.10938 -60.945,14.3814 -74.6956,19.12282 -13.2064,4.55377 -38.8153,15.41123 -48.8026,20.69096 l -6.9983,3.69957 -1.7828,6.5 c -2.6831,9.78236 -3.2625,24.73624 -1.3764,35.52459 3.2894,18.81505 12.6418,46.53218 21.965,65.09561 13.3105,26.50286 46.3024,74.56984 63.643,92.72374 7.3327,7.67658 20.941,17.61005 31.8641,23.25931 5.0334,2.60322 5.4592,2.6652 8,1.16452 1.476,-0.87177 10.1086,-3.83574 19.1836,-6.5866 39.8388,-12.07614 55.4655,-15.65536 143,-32.75336 97.5201,-19.04848 103.3225,-19.96777 280.5,-44.44039 65.8361,-9.0936 133.0645,-19.24467 179,-27.02787 147.7598,-25.03605 178.2601,-30.49047 209.9033,-37.5374 22.9399,-5.1087 49.5137,-11.9118 64.015,-16.38831 10.3495,-3.19484 12.8931,-3.18895 14.6179,0.0339 2.0495,3.82952 -0.3864,5.66063 -12.6044,9.47474 -37.4057,11.67699 -84.7821,21.68475 -176.9318,37.37495 -22.55,3.83956 -60.8,10.37228 -85,14.51717 -64.1397,10.98562 -128.8114,20.59941 -256,38.05581 -58.5003,8.02906 -108.0944,15.47861 -138.2283,20.76334 l -18.4274,3.23173 0.4405,2.50727 c 0.2423,1.379 2.956,14.88227 6.0305,30.00727 11.1374,54.79003 14.0278,83.8292 11.874,119.29323 -2.5708,42.33165 -11.598,77.71371 -25.4898,99.90765 -10.6955,17.0873 -33.0514,42.2229 -64.618,72.65215 -11.7802,11.3558 -24.6515,24.338 -28.6031,28.8494 l -7.1845,8.2024 2.8122,5.7976 c 5.8173,11.9925 8.316,33.5701 8.1982,70.7975 -0.137,43.3051 -3.5252,83.8411 -7.7524,92.7494 -2.3228,4.8949 -11.6132,8.7432 -23.5519,9.7559 -8.4242,0.7145 -8.5262,0.6954 -11.4398,-2.1422 -3.4538,-3.3636 -3.0378,-3.34 -31.396,-1.7844 -18.9881,1.0415 -41.7927,3.2165 -42.6432,4.067 -0.2272,0.2272 -0.7089,5.7998 -1.0705,12.3837 -0.7908,14.3992 -1.6404,16.4968 -11.8375,29.2266 -19.3536,24.1605 -33.8515,39.0737 -53.613,55.1488 -6.325,5.1451 -11.6333,9.6963 -11.7963,10.1137 -0.1629,0.4175 4.1121,3.1173 9.5,5.9997 18.2816,9.78 31.2218,18.0582 44.0261,28.1646 21.5874,17.039 27.7868,20.6402 54.9208,31.9036 28.553,11.8523 39.6401,18.396 50.9595,30.0766 10.1042,10.4267 21.2858,28.0538 24.3981,38.462 1.1853,3.964 1.423,4.1475 6.0868,4.6999 2.6694,0.3161 7.578,1.6753 10.908,3.0203 15.7599,6.3657 27.0208,16.0958 32.5977,28.1665 4.0413,8.7466 7.8133,22.542 7.1346,26.0927 -0.3557,1.8608 0.9543,4.0056 5.8317,9.5481 10.5357,11.9722 47.587,46.1163 82.433,75.9651 11.275,9.658 29.9608,26.2951 41.5241,36.9712 11.5632,10.6762 26.8611,24.5862 33.9952,30.9112 7.1341,6.325 20.3982,18.2532 29.4759,26.5072 22.7404,20.6769 28.2994,25.5119 53.5048,46.5365 12.1,10.0929 25.825,21.5457 30.5,25.4506 4.675,3.9049 15.9194,12.9287 24.9876,20.0528 9.0682,7.1241 22.3432,17.887 29.5,23.9175 7.1568,6.0305 19.0874,16.0731 26.5124,22.3169 7.425,6.2437 13.8038,12.1702 14.175,13.1699 0.8598,2.315 -1.6969,6.0486 -4.1419,6.0486 -2.2346,0 -5.4801,-2.5379 -32.5331,-25.4398 -11.55,-9.7777 -29.325,-24.334 -39.5,-32.3474 -10.175,-8.0133 -22.325,-17.7756 -27,-21.694 -4.675,-3.9184 -18.4,-15.3784 -30.5,-25.4667 -24.0438,-20.0463 -29.8846,-25.1431 -54.5,-47.5577 -9.075,-8.2637 -22.5743,-20.418 -29.9985,-27.0096 -7.4242,-6.5916 -22.2742,-20.0941 -33,-30.0056 -10.7258,-9.9114 -27.3765,-24.7308 -37.0015,-32.932 -31.3084,-26.677 -63.5066,-56.2221 -83.1754,-76.3218 -32.6542,-33.3696 -49.5732,-42.2254 -80.672,-42.2254 -19.3839,0 -34.8927,3.9781 -60.3808,15.4881 -35.1529,15.8744 -57.3858,34.9853 -83.7759,72.0119 -11.9039,16.7017 -18.0316,29.0759 -18.7345,37.8323 -1.094,13.6294 4.2471,26.3495 15.7832,37.5887 4.5018,4.3858 8.6657,9.4957 9.8831,12.1283 2.5469,5.5073 14.8616,22.0493 29.0102,38.9687 5.7409,6.8651 22.632,24.857 37.5359,39.982 30.34,30.7902 61.6101,65.7361 102.0864,114.0867 32.1624,38.4192 41.2593,48.6413 63.6734,71.5489 16.3261,16.6855 18.2731,19.4577 15.5664,22.1644 -3.3487,3.3487 -5.9726,1.5737 -22.3903,-15.1468 -20.7725,-21.1554 -34.2558,-36.3244 -65.0235,-73.1532 -38.8206,-46.4679 -69.2165,-80.4002 -99.8795,-111.5 -27.36,-27.7498 -42.2027,-44.4844 -56.8446,-64.0904 l -7.1621,-9.5904 -5.1127,-0.5732 c -10.4465,-1.1711 -17.1455,-6.1403 -31.6997,-23.5139 -4.2701,-5.0974 -9.8842,-10.8176 -12.4757,-12.7116 -8.8373,-6.4585 -29.6931,-18.3522 -38.65,-22.0416 -8.4508,-3.4808 -38.554,-11.7454 -39.5047,-10.8457 -0.2436,0.2305 2.0435,2.9948 5.0824,6.143 3.0388,3.1481 9.3634,10.4488 14.0545,16.2238 9.2574,11.3962 22.0655,24.6286 47.9225,49.5102 19.3641,18.6336 27.4259,28.7814 40.8867,51.4667 5.3924,9.0877 12.1774,19.6731 15.0778,23.5231 7.7727,10.3175 24.3521,26.3339 41.9189,40.4952 18.3314,14.7778 32.3092,28.0173 39.0686,37.0048 14.0041,18.6205 26.1735,47.5441 35.9183,85.3684 5.0676,19.6697 7.4361,34.4321 10.5303,65.6316 2.893,29.1708 3.0845,30.3934 9.0573,57.8265 4.9791,22.8689 5.2191,25.5135 2.5254,27.82 -1.8482,1.5825 -1.8023,1.7799 1.6817,7.2262 9.2719,14.4944 19.349,40.0933 23.1352,58.7708 4.5037,22.2171 4.8948,39.2684 1.499,65.3565 -1.7432,13.3923 -3.3658,16.2551 -8.0134,14.1375 -2.656,-1.2102 -2.6765,-1.298 -2.0872,-8.9298 0.3274,-4.2393 1.1151,-11.9827 1.7505,-17.2077 1.4116,-11.6069 0.6496,-34.1558 -1.5671,-46.3757 -3.7701,-20.7835 -14.333,-47.6569 -24.8993,-63.3472 -2.5101,-3.7274 -10.2506,-12.8521 -17.201,-20.2771 -6.9505,-7.425 -15.8067,-17.55 -19.6805,-22.5 -10.2225,-13.0626 -27.0879,-39.0782 -45.7036,-70.5 -37.5708,-63.4163 -69.4594,-114.1239 -83.2036,-132.306 -14.4715,-19.1444 -29.038,-34.6731 -37.5606,-40.0418 -4.3967,-2.7697 -5.5464,-5.9558 -3.05,-8.4522 5.1166,-5.1166 20.413,7.2867 41.4095,33.5772 15.9765,20.0048 52.0895,76.4296 85.9051,134.2228 22.6831,38.7668 41.3349,67.4618 52.7781,81.1969 7.7804,9.3387 25.9484,28.8953 26.4125,28.4313 0.1907,-0.1908 -1.6499,-9.5226 -4.0902,-20.7375 -5.2484,-24.1199 -5.8181,-27.88 -9.0874,-59.9728 -1.3773,-13.5201 -3.4182,-29.9451 -4.5354,-36.5 -4.3692,-25.6364 -15.08,-60.4404 -24.9501,-81.0739 -11.6858,-24.4291 -21.0239,-35.6251 -47.5661,-57.0296 -36.6213,-29.5326 -47.3105,-41.5606 -66.6602,-75.0096 -10.3609,-17.9104 -16.8796,-25.5761 -46.6038,-54.8048 -15.6612,-15.4 -32.3389,-32.725 -37.0616,-38.5 -13.0341,-15.9382 -19.6796,-23.2905 -26.0941,-28.8698 l -5.8353,-5.0753 -15.3605,-1.5039 c -8.4483,-0.8272 -26.6105,-2.4215 -40.3605,-3.5429 -39.5066,-3.2221 -89.3446,-9.9238 -100.5,-13.5141 -2.475,-0.7966 -7.1311,-1.8473 -10.3468,-2.335 l -5.8468,-0.8866 -12.6532,9.549 c -19.5857,14.7807 -40.2167,31.3483 -47.1389,37.8548 l -6.2823,5.9049 1.5268,2.9594 c 2.8761,5.5746 6.7933,19.967 10.6989,39.3086 2.1489,10.6419 4.0576,19.4995 4.2415,19.6834 0.1839,0.1839 2.3143,-2.8981 4.7341,-6.849 11.0609,-18.0592 30.1981,-40.8714 42.3422,-50.4735 8.9985,-7.1149 10.3363,-7.6944 13.2916,-5.758 3.5429,2.3214 3.0175,4.4042 -2.265,8.9793 -22.7255,19.6818 -41.3733,43.0358 -51.7627,64.8258 -4.3942,9.2162 -4.5394,9.8231 -4.5394,18.9728 0,5.1987 -0.4922,13.1095 -1.0938,17.5797 -0.6016,4.4702 -0.9302,8.6184 -0.7302,9.2184 0.2,0.5999 5.5287,-5.5735 11.8417,-13.7186 14.1655,-18.2768 28.2558,-32.6545 41.8723,-42.7263 15.6974,-11.6111 20.88,-13.7498 23.1302,-9.5453 1.7094,3.194 0.3005,5.5933 -5.3126,9.0471 -8.9513,5.5078 -19.5666,13.7609 -27.9528,21.7326 -9.1404,8.6885 -29.3731,33.4855 -37.5704,46.0459 l -5.4583,8.3634 -0.1883,13.1366 c -0.1399,9.7631 -0.8485,16.2183 -2.7592,25.1366 -2.8737,13.4133 -4.2497,22.5 -3.4072,22.5 0.3075,0 2.6635,-1.3345 5.2354,-2.9656 9.0175,-5.7187 30.0907,-13.0344 37.5464,-13.0344 3.1331,0 5.3123,2.9579 4.3689,5.9302 -0.6579,2.0732 -2.493,2.8527 -14.0221,5.9563 -9.8338,2.6473 -24.5869,9.756 -30.1331,14.5195 -3.3417,2.87 -4.2641,4.4231 -4.817,8.1101 -1.1514,7.6779 -4.2793,15.3908 -11.9569,29.4839 -10.6403,19.5314 -10.9091,20.1297 -16.0292,35.6761 -5.797,17.602 -9.2921,23.1083 -22.1991,34.9729 -8.7726,8.0642 -16.4143,16.8988 -15.2633,17.6459 0.2193,0.1423 3.4311,1.0205 7.1374,1.9514 3.7064,0.931 9.3314,2.719 12.5,3.9732 5.17,2.0465 5.7928,2.6072 6.0696,5.4641 0.5453,5.6285 -2.1176,5.9632 -14.8073,1.8609 -14.4219,-4.6623 -16.7112,-4.6186 -20.2509,0.3864 -1.5124,2.1384 -5.7874,5.9547 -9.5,8.4805 -3.7126,2.5258 -8.8546,6.1099 -11.4267,7.9646 -4.5669,3.2932 -4.9542,3.3822 -16.5158,3.7944 -6.5116,0.2321 -12.4107,0.7752 -13.109,1.2068 -0.8141,0.5032 4.7524,3.7471 15.5158,9.0419 30.8374,15.1698 68.7597,36.431 118.2855,66.3169 14.575,8.7952 42.4559,25.1103 61.9576,36.256 41.4594,23.6949 51.9014,30.0147 77.5771,46.9517 10.469,6.906 31.7745,20.2063 47.3454,29.5563 28.8518,17.3248 33.1199,20.2734 33.1199,22.8808 0,4.0474 -5.7521,5.8848 -9.5,3.0346 z m -738.35604,-62.4376 c 14.0384,-1.3858 39.1072,-5.5992 50.4838,-8.4851 32.8764,-8.3398 57.4096,-25.821 96.8247,-68.9927 21.5675,-23.6231 36.7525,-38.4314 56.8993,-55.4879 22.1487,-18.7514 29.99704,-24.0205 51.64824,-34.6748 20.2698,-9.9746 30,-15.5937 30,-17.3249 0,-1.5582 -16.0693,-1.2221 -24.4632,0.5117 -15.514,3.2046 -53.79214,21.8202 -70.53684,34.304 -13.8468,10.3232 -41.2383,35.2508 -81,73.7136 -21.0896,20.4007 -32.8182,26.8139 -65.5099,35.8211 -15.242,4.1994 -41.6693,9.521 -63.4901,12.7849 -22.0794,3.3025 -51.9285,3.2967 -70.4575,-0.014 -15.5273,-2.7741 -44.284,-9.7887 -58.0747,-14.166 -12.6555,-4.017 -40.8281,-15.126 -49.9678,-19.7032 -24.1991,-12.1191 -38.802,-27.0399 -44.3003,-45.2648 -3.41146,-11.3075 -3.48222,-15.1298 -0.67572,-36.5 1.44462,-11 2.87472,-27.425 3.17792,-36.5 l 0.5515,-16.5 -4.2894,-8.3633 c -4.08423,-7.9634 -4.34618,-8.2503 -5.47764,-6 -0.65356,1.2998 -1.9518,12.2633 -2.88498,24.3633 -0.93318,12.1 -2.84162,32.575 -4.24099,45.5 -5.20402,48.0662 -1.36995,64.8776 19.63401,86.0901 12.5377,12.6622 25.626,19.6916 55.8401,29.9904 37.7901,12.8811 73.9928,20.4231 121.1655,25.2419 8.1847,0.8361 49.6291,0.5946 59.144,-0.3446 z m -17.144,-37.8918 c 38.4668,-6.0382 67.8396,-13.2713 86.5,-21.3008 13.0197,-5.6023 22.387,-12.8502 45.2219,-34.9901 36.2744,-35.1705 59.5368,-56.069 73.7781,-66.281 8.8524,-6.3477 49.40724,-26.989 59.86224,-30.4683 12.2415,-4.0737 26.3196,-6.14 54.1378,-7.9461 19.063,-1.2377 27.3937,-3.5735 30.4642,-8.5417 1.1574,-1.8728 3.4724,-4.2712 5.1445,-5.3299 4.1021,-2.5973 13.2779,-14.4571 16.4239,-21.2281 1.4054,-3.025 3.67,-7.608 5.0322,-10.1845 l 2.4769,-4.6844 -10.2708,-4.9579 c -5.649,-2.7268 -13.0197,-6.9835 -16.3795,-9.4593 -11.8836,-8.7573 -21.0259,-23.0895 -23.4769,-36.8042 -1.233,-6.8995 -1.2183,-7.0089 1.1665,-8.6985 2.2747,-1.6116 6.8439,-4.2112 7.4018,-4.2112 0.1398,0 0.468,3.3321 0.7294,7.4047 1.6002,24.9354 27.4632,46.1685 63.6367,52.2448 14.6174,2.4554 37.4729,2.2075 47.5649,-0.5159 19.4346,-5.2445 30.3614,-17.2745 36.2366,-39.8949 3.073,-11.8318 4.2962,-33.413 2.4077,-42.4787 -2.3425,-11.245 -11.6659,-20.4484 -25.0581,-24.7358 -8.6793,-2.7786 -28.4762,-4.0889 -33.7449,-2.2335 -9.2424,3.2547 -14.5853,4.1975 -18.2288,3.2164 -7.0133,-1.8885 -11.0086,-8.8829 -11.0207,-19.2936 l -0.01,-4.7866 -9.75,7.4292 c -5.3625,4.0861 -11.5288,9.2775 -13.7029,11.5366 -2.1742,2.259 -4.5175,4.1073 -5.2075,4.1073 -0.6899,0 -3.7944,3.1834 -6.8989,7.0743 -10.6734,13.3771 -30.7451,28.5559 -57.4407,43.4382 -9.625,5.3658 -31.9,18.1632 -49.5,28.4386 -41.99444,24.5178 -42.15914,24.6094 -50.26894,27.9536 -10.067,4.1513 -19.8058,6.0974 -30.4285,6.0805 -26.2746,-0.042 -41.2478,-10.7814 -41.108,-29.4852 0.1,-13.3767 7.3401,-25.7057 25.8748,-44.0606 l 12.1786,-12.0606 -28.3385,8.7525 c -42.7585,13.2061 -48.1209,14.3055 -69.9095,14.3331 -15.8481,0.02 -18.9522,-0.2521 -25.9649,-2.2767 -30.1077,-8.6923 -40.7756,-29.2941 -28.1563,-54.3757 l 3.1758,-6.312 h -14.0273 c -21.0154,0 -32.8271,-3.8433 -42.9631,-13.9792 -6.9183,-6.9184 -8.9072,-12.0569 -8.4178,-21.7482 0.4757,-9.4202 4.3012,-17.476 13.3163,-28.0416 l 6.5216,-7.6433 -3.2421,-0.4489 c -1.7832,-0.247 -9.0476,-1.2116 -16.143,-2.1436 -7.0955,-0.9321 -17.3616,-2.7748 -22.8137,-4.0949 -11.8004,-2.8573 -15.2547,-3.0653 -14.4114,-0.8678 5.0571,13.1786 6.4035,26.2367 3.8541,37.3806 -1.1267,4.9251 -5.1712,13.0799 -5.2114,10.5074 -0.01,-0.5937 -2.7855,0.2928 -6.1694,1.97 -5.7109,2.8306 -6.9132,3.0471 -16.75,3.0154 -5.8286,-0.019 -12.8474,-0.3673 -15.5974,-0.7745 l -5,-0.7405 5.8509,3.9478 c 8.5137,5.7444 23.1935,18.6881 25.5871,22.561 7.2285,11.6959 2.8884,31.1607 -9.4655,42.4514 -9.665,8.8333 -21.1893,11.5127 -37.4725,8.7124 -14.9554,-2.5719 -31.0772,-6.3703 -42.7196,-10.065 -5.8919,-1.8698 -10.8677,-3.2445 -11.0573,-3.0549 -0.1896,0.1896 3.6855,5.5435 8.6115,11.8975 10.9741,14.1558 15.3594,21.2823 18.0775,29.3774 4.9099,14.6232 0.7007,26.2254 -10.5998,29.2166 -9.0473,2.3948 -19.489,-1.6814 -34.2423,-13.3673 -8.5395,-6.7641 -26.42538,-18.6157 -30.38937,-20.1369 -1.81686,-0.6972 -1.90681,-1.7145 1.99544,22.5691 3.20733,19.9592 7.26841,35.6185 12.96704,50 5.16669,13.0391 12.93129,28 14.53169,28 0.7166,0 0.7436,0.4129 0.082,1.25 -0.5437,0.6875 -1.2485,8 -1.5663,16.25 -0.3178,8.25 -1.8207,24.9998 -3.3399,37.2217 -2.4791,19.9459 -2.6303,22.8596 -1.4758,28.4492 4.9842,24.131 21.7679,38.6709 63.6256,55.1198 25.3231,9.9512 58.8818,19.3647 82.5,23.142 5.225,0.8356 10.625,1.7202 12,1.9657 1.375,0.2456 12.175,0.3025 24,0.1266 15.6552,-0.2329 25.17,-0.896 35,-2.439 z m 433.97204,-238.0617 c -7.5898,-0.9796 -17.7417,-4.4924 -23.4562,-8.1164 -7.8515,-4.9793 -18.577,-13.9381 -19.4514,-16.2474 -0.4499,-1.1883 -1.1518,-5.9468 -1.5598,-10.5746 -0.8121,-9.2114 -3.0999,-13.0859 -7.727,-13.0859 -1.2723,0 -3.9928,-1.1412 -6.0455,-2.5361 -4.499,-3.0571 -4.9974,-6.5888 -1.274,-9.0284 2.2913,-1.5013 2.7153,-1.4741 6.25,0.4018 2.0855,1.1068 5.0208,2.2776 6.5228,2.6018 1.502,0.3242 4.2773,2.1358 6.1673,4.0257 3.5594,3.5594 4.8176,7.5379 6.1781,19.5352 l 0.6236,5.5 7.848,5.782 c 10.1108,7.4492 17.3424,10.5902 27.3714,11.889 11.0891,1.436 12.5807,2.1204 12.5807,5.7724 0,4.8652 -2.4434,5.5761 -14.028,4.0809 z m 23.271,-16.1813 c -1.7293,-1.7293 -1.5579,-3.9425 0.7161,-9.2476 3.7168,-8.671 6.1398,-26.8958 4.4256,-33.2883 -0.6904,-2.5743 -4.2567,-3.5893 -12.3563,-3.5165 -6.127,0.055 -8.0284,-0.9534 -8.0284,-4.2581 0,-4.4505 3.168,-5.8753 11.7553,-5.2867 15.9705,1.0946 18.7973,4.4109 18.5432,21.7542 -0.2519,17.1897 -5.7663,34.1408 -11.3185,34.793 -1.3717,0.1611 -3.0534,-0.2664 -3.737,-0.95 z m -17.8261,-19.7763 c -6.4592,-6.214 -14.1399,-8.9495 -18.0094,-6.4141 -3.5392,2.3189 -7.5907,1.1358 -16.788,-4.9024 -11.3648,-7.4612 -12.3882,-8.8387 -9.0481,-12.1788 2.5811,-2.5811 5.5307,-1.8312 13.4023,3.4074 5.1522,3.4289 7.7925,4.651 8.5,3.9344 0.6129,-0.6207 0.9372,-5.8465 0.8052,-12.9722 -0.2132,-11.5096 -0.1384,-11.9869 2.1091,-13.4596 5.3124,-3.4808 7.5208,0.8455 7.8658,15.4085 l 0.2462,10.3899 4.1758,1.2327 c 11.5275,3.4029 21.63,14.7817 17.1242,19.2875 -2.2535,2.2535 -5.2979,1.1588 -10.3831,-3.7333 z m -32.9169,151.8761 c 4.5782,-1.6851 8.4194,-2.2421 16.2098,-2.3504 8.9467,-0.1244 10.5551,-0.4185 13,-2.3776 1.5346,-1.2296 4.5902,-3.4513 6.7902,-4.9371 9.1845,-6.2027 11.5837,-8.7311 17.5949,-18.5416 4.9898,-8.1436 8.8704,-12.7914 18.9838,-22.7361 14.1412,-13.9055 15.8295,-16.5734 20.8837,-33 3.6087,-11.7285 7.7765,-21.2752 13.7861,-31.5782 11.2675,-19.3171 12.9356,-24.3118 14.335,-42.9218 0.5791,-7.7 2.4137,-20.75 4.0771,-29 2.9423,-14.5929 3.006,-15.507 2.3487,-33.683 -0.53,-14.6563 -0.2992,-22.1362 1.0709,-34.7046 1.6475,-15.1143 1.6511,-16.8356 0.063,-30.3998 -0.9258,-7.9081 -2.794,-18.8411 -4.1515,-24.2955 -1.3575,-5.4544 -2.4742,-11.0421 -2.4814,-12.4171 -0.019,-3.6597 -4.5645,-21.7858 -6.7489,-26.9135 l -1.8801,-4.4134 -8.5254,10.4134 c -4.689,5.7274 -12.7207,16.0385 -17.8482,22.9135 -23.4242,31.407 -40.3542,49.4037 -59.7363,63.5 -6.0499,4.4 -11.7399,9.201 -12.6444,10.669 -0.9045,1.4679 -3.6953,5.1864 -6.2017,8.2633 -4.4752,5.4938 -4.5674,5.7536 -5.1312,14.4556 -1.0166,15.6917 0.3004,16.8446 13.95,12.2111 9.4237,-3.1989 11.9226,-3.2011 34.2557,-0.029 17.8324,2.5326 33.6324,14.9913 37.9571,29.9303 5.1763,17.8807 1.76,48.0216 -7.7074,68 -6.9385,14.642 -19.6058,24.9608 -36.2842,29.5572 -9.1713,2.5275 -35.2363,3.0861 -48.9655,1.0493 -6.05,-0.8976 -11.9,-1.8658 -13,-2.1516 -2.3342,-0.6065 -4.4285,2.6531 -9.4016,14.6326 -1.7323,4.1731 -4.5067,8.8875 -6.1651,10.4764 -1.6585,1.5889 -4.3856,5.0243 -6.0604,7.6341 -1.6747,2.6099 -4.5367,5.6672 -6.36,6.794 -2.3419,1.4474 -3.1721,2.595 -2.8284,3.9097 0.2842,1.0865 -0.3668,2.656 -1.5642,3.7716 -2.4804,2.3108 -14.0379,6.146 -23.6157,7.8364 -5.1422,0.9075 -6.4728,1.438 -5.0046,1.995 8.94,3.3918 27.4212,11.9537 45,20.8472 14.6015,7.3873 21.7617,10.4988 23.5,10.2119 1.375,-0.2269 5.2,-1.4064 8.5,-2.621 z m -213.00004,-99.5937 c 8.7338,-2.2227 17.3822,-6.4986 41.5,-20.5185 36.09144,-20.9802 65.98494,-38.2033 76.54244,-44.0998 13.0952,-7.3139 28.9359,-19.1668 39.0293,-29.204 6.3251,-6.2899 9.0602,-9.9743 12.6399,-17.0268 5.9393,-11.7015 11.2368,-26.0466 14.9358,-40.4452 5.4965,-21.3955 6.9315,-24.1167 11.888,-22.5435 2.8046,0.8901 3.3967,4.6532 1.6035,10.1906 -0.8546,2.639 -2.6964,9.3738 -4.093,14.9663 -1.3966,5.5925 -3.8627,13.908 -5.4803,18.479 -1.6175,4.5709 -2.809,8.4427 -2.6478,8.6039 0.7575,0.7576 18.832,-13.7721 24.8669,-19.9899 10.7524,-11.0783 22.1191,-32.1205 26.8804,-49.7612 2.5289,-9.3696 4.1465,-12 7.3794,-12 4.4448,0 5.1122,3.6598 2.4109,13.2209 -1.2865,4.5535 -3.3433,10.864 -4.5706,14.0233 -2.8707,7.3891 -2.0063,6.9691 11.0117,-5.3512 11.6616,-11.0364 21.3449,-22.4476 38.9437,-45.893 27.248,-36.3001 38.0589,-47.0397 78.4291,-77.9121 8.9269,-6.8267 16.2307,-12.7404 16.2307,-13.1416 0,-0.4012 -1.2375,-1.0372 -2.75,-1.4132 -11.3349,-2.8182 -61.6583,-26.3532 -80.949,-37.8579 -24.6906,-14.7252 -42.3526,-31.8777 -51.4443,-49.9602 -4.9828,-9.9104 -6.4541,-16.8281 -7.9152,-37.215 -0.6307,-8.8 -1.229,-16.091 -1.3297,-16.2023 -0.1007,-0.1113 -6.242,-1.1274 -13.6474,-2.2581 -44.8575,-6.8492 -61.7976,-11.8496 -93.7099,-27.6616 -31.0252,-15.3724 -49.8541,-30.6961 -59.1735,-48.1579 l -4.419,-8.2799 -13.081,-7.1127 c -22.12444,-12.0299 -44.88434,-25.5022 -48.99014,-28.9986 -2.1499,-1.8309 -5.4032,-4.6049 -7.2294,-6.1645 -1.8263,-1.5596 -6.8172,-4.7982 -11.091,-7.1969 -4.2738,-2.3988 -8.8955,-5.4554 -10.2705,-6.7926 -1.375,-1.3372 -6.7365,-6.1244 -11.9145,-10.6382 -7.7203,-6.73 -9.8744,-8.119 -11.97,-7.7185 -1.4055,0.2687 -9.5439,-0.8769 -18.0854,-2.5457 -13.2975,-2.5981 -17.974,-3.0504 -32.5301,-3.1458 -18.8917,-0.1239 -22.57,0.5638 -30.151,5.6369 -6.2007,4.1494 -11.349,12.4429 -11.349,18.2824 0,6.1888 5.158,15.7419 10.9875,20.3499 4.8843,3.8608 48.3137,25.8643 55.5125,28.1254 2.2,0.691 5.2088,2.1041 6.6863,3.1402 3.2478,2.2778 6.8518,3.9406 45.8137,21.1381 16.775,7.4044 40.4,17.163 52.5,21.6858 27.18784,10.1623 33.50004,13.6461 33.50004,18.4889 0,4.4887 -3.77,5.7125 -8.7656,2.8454 -3.2292,-1.8533 -0.9874,-2.3507 -52.73444,11.7026 -9.9,2.6887 -36.1886,9.4421 -58.4192,15.0076 -43.7597,10.9555 -61.341,16.3611 -86.0471,26.4563 -15.2331,6.2245 -33.2666,13.1877 -46.8043,18.0724 -8.5764,3.0946 -24.7418,14.0673 -31.5363,21.4062 -18.4897,19.971 -23.4371,34.2232 -16.6176,47.8704 6.9421,13.8923 20.9461,20.2976 44.4245,20.3192 16.4461,0.015 23.9912,-1.5478 46.4696,-9.6262 42.1971,-15.165 59.7368,-19.101 93.5304,-20.989 17.8538,-0.9974 31.1396,-2.4704 45.5,-5.0447 26.5104,-4.7522 44.4847,-5.6169 62.50004,-3.0068 5.5,0.7969 10.3271,1.4631 10.7269,1.4806 0.3999,0.017 1.4444,1.1265 2.3211,2.4646 1.2822,1.9568 1.3641,2.8628 0.4187,4.6294 -1.1239,2.1 -1.5809,2.1666 -10.4137,1.5183 l -9.23814,-0.6782 -2.2118,5.7988 c -4.8711,12.7705 -15.8673,25.5165 -32.8319,38.0564 -11.8383,8.7506 -21.4562,14.2971 -50.7712,29.2791 -14.3,7.3082 -30.05,15.534 -35,18.2796 -4.95,2.7455 -23.175,12.2882 -40.5,21.206 -36.1429,18.6041 -47.3161,24.861 -62,34.7194 -46.8619,31.4619 -65.2809,55.444 -54.4683,70.9193 3.7509,5.3685 10.9392,10.3049 18.3444,12.5977 7.9537,2.4627 34.2321,2.3868 46.1239,-0.1332 19.8995,-4.2168 51.7391,-16.1433 90.5,-33.8995 27.1616,-12.4426 38.3167,-17.139 76.9366,-32.3911 32.3667,-12.7824 41.5751,-17.2347 52.52694,-25.3965 14.9521,-11.1431 23.6996,-20.5908 35.9944,-38.8759 7.2428,-10.7715 8.3115,-11.7164 11.5717,-10.231 4.2513,1.937 3.2291,5.5654 -4.9772,17.6685 -8.8691,13.0806 -16.7066,22.2495 -26.1305,30.5694 -15.9593,14.0897 -26.56924,20.0458 -56.92194,31.9545 -35.1979,13.8097 -57.1689,22.8996 -75.5,31.236 -45.401,20.6469 -62.4042,27.4849 -86.4283,34.7581 -7.1803,2.1738 -14.1838,4.7832 -15.5634,5.7987 -1.3795,1.0155 -3.9873,4.2846 -5.7949,7.2648 -7.0784,11.6698 -8.0524,23.4078 -2.5893,31.2036 8.0843,11.5361 31.0439,18.0262 55.5356,15.6985 15.8471,-1.506 27.4207,-4.5712 79.8403,-21.1448 33.1446,-10.4794 44.3919,-14.7826 74,-28.3126 37.47404,-17.1246 48.81764,-24.9701 73.22054,-50.6416 7.8537,-8.262 15.5211,-15.6796 17.0385,-16.4836 3.6628,-1.9405 6.7417,-0.3944 6.7392,3.3842 0,2.1742 -3.6357,6.414 -18.25,21.2911 -18.4454,18.7771 -29.7046,28.1091 -43.2966,35.8859 -7.5658,4.3288 -48.99944,23.7636 -59.95164,28.1208 -6.4228,2.5552 -24.6995,14.6429 -35.7435,23.6398 -3.709,3.0214 -10.2665,9.2152 -14.5722,13.764 -15.9873,16.8894 -21.923,30.15 -17.8132,39.7953 4.8946,11.4871 26.0022,16.4436 47.1289,11.067 z m -368.5503,-17.7956 c 1.9864,-2.1144 2.2404,-3.2344 1.8711,-8.25 -0.2412,-3.2766 -1.5377,-8.2204 -2.9776,-11.3545 -3.49,-7.5961 -29.7784,-42.0452 -35.6225,-46.6807 -0.8541,-0.6774 -9.9156,-3.9822 -20.13678,-7.344 -51.68455,-16.9991 -93.31173,-37.3695 -109.55166,-53.6094 -5.76322,-5.7633 -15.53043,-21.3998 -15.53158,-24.8649 -8.8e-4,-2.6486 1.83871,-4.45 4.54433,-4.45 2.61793,0 4.16878,1.7394 8.47021,9.5 4.9879,8.9991 8.29947,12.8071 16.51442,18.9898 14.87092,11.1922 31.46861,19.7011 63.65296,32.6322 17.60008,7.0713 46.7983,16.8375 51.5345,17.2371 1.7694,0.1493 4.0194,0.9583 5,1.7977 4.6404,3.9727 36.7734,14.0035 60.5576,18.904 16.8655,3.475 23.686,3.6741 31.0807,0.9074 12.4554,-4.6602 21.5122,-21.4438 17.6107,-32.6355 -1.0443,-2.9957 -7.732,-9.3103 -13.3913,-12.6441 -1.6911,-0.9962 -2.2237,-1.5484 -1.1834,-1.2271 1.6198,0.5003 1.7051,0.3597 0.5943,-0.9788 -2.4018,-2.8939 -17.3936,-12.1897 -29.7457,-18.444 -6.7431,-3.4142 -12.7021,-7.0336 -13.2424,-8.0431 -0.5402,-1.0095 -2.6732,-2.3754 -4.7399,-3.0355 -6.6335,-2.1184 -24.3463,-9.5419 -39.2577,-16.4529 -15.9308,-7.3834 -25.9687,-11.5106 -51.41936,-21.1414 -18.60584,-7.0406 -27.89944,-11.4745 -37.0469,-17.6747 -6.41996,-4.3515 -36.5058,-26.5028 -40.28374,-29.6596 -3.06598,-2.562 -2.97577,-6.7437 0.17646,-8.1799 3.04237,-1.3862 4.88378,-0.2949 24.56854,14.5614 27.16676,20.503 29.67803,21.8841 62.19656,34.2043 11.16964,4.2319 27.28344,10.8191 35.80844,14.6383 43.1394,19.3265 53.9905,23.3929 75.5,28.2935 9.1871,2.0931 14.8149,2.7594 24.0085,2.8424 19.9136,0.1799 23.0193,-2.4479 22.918,-19.3915 -0.1146,-19.1501 -11.2826,-37.6653 -32.8331,-54.4333 -18.8086,-14.6346 -29.9463,-20.7222 -59.6102,-32.5816 -28.7083,-11.4774 -38.3964,-14.8199 -41.3294,-14.2592 -2.0469,0.3912 -3.4831,-0.1177 -5.4652,-1.9366 -1.4787,-1.357 -5.6136,-3.4859 -9.1886,-4.731 -11.48478,-3.9996 -18.95017,-8.8222 -28.58436,-18.4654 -4.9964,-5.0011 -11.02873,-11.9835 -13.40517,-15.5165 -9.62373,-14.3074 -20.01047,-31.5788 -20.01047,-33.2741 0,-1.3311 -0.7751,-1.8023 -2.96482,-1.8023 -5.94644,0 -6.11488,-6.858 -0.22438,-9.1355 12.02047,-4.6476 47.44282,-11.4441 66.6892,-12.7956 19.2655,-1.3529 30.7973,0.059 61.1584,7.4898 29.1218,7.1271 38.8912,8.503 55.5837,7.8284 12.2857,-0.4964 14.9703,-0.9123 19.408,-3.0063 13.1796,-6.219 18.2453,-24.1433 11.9705,-42.356 -3.6566,-10.6132 -13.7353,-23.1037 -26.9892,-33.4474 -17.1178,-13.3593 -27.2126,-17.4702 -69.1314,-28.1524 -23.1674,-5.9038 -33.3837,-8.931 -34.2877,-10.16 -1.8952,-2.5762 -1.0741,-5.5734 1.9183,-7.003 1.894,-0.9048 2.9431,-2.4974 3.7463,-5.6873 0.6136,-2.4368 0.8868,-5.0268 0.6072,-5.7555 -0.761,-1.9831 6.0495,-15.4992 8.4597,-16.7891 1.6492,-0.8826 2.7031,-0.7611 4.9602,0.5722 3.3912,2.0033 1.8999,2.3034 36.3714,-7.3206 l 23.7755,-6.6377 10.6233,-17.572 c 12.2736,-20.3018 20.0495,-31.0444 25.1938,-34.8059 1.9976,-1.4607 3.9605,-2.9191 4.3621,-3.241 0.9593,-0.7691 -1.0539,-8.2407 -2.5666,-9.5251 -0.6477,-0.55 -2.6336,-3.8125 -4.4129,-7.25 -2.6121,-5.0462 -2.9272,-6.25 -1.6359,-6.25 1.0522,0 1.3902,-0.5449 0.988,-1.5929 -0.3362,-0.8761 -0.8757,-2.6465 -1.1988,-3.9342 -0.5681,-2.2634 -0.9707,-2.0925 -12.1135,5.142 -29.5489,19.1849 -44.2017,23.6138 -97.1678,29.3696 -30.94277,3.3625 -41.17717,5.7667 -58.01867,13.629 -10.01874,4.6772 -13.12289,5.2735 -15.09315,2.8995 -2.75663,-3.3215 -0.43911,-5.882 9.95092,-10.9942 5.82886,-2.8679 9.51431,-5.2133 8.78843,-5.593 -1.68137,-0.8793 -26.92998,-6.4893 -38.75013,-8.6098 -13.74568,-2.466 -35.08993,-2.24 -45.13565,0.4779 -26.34405,7.1274 -55.17345,33.612 -73.15621,67.2061 -5.77891,10.7957 -10.69632,22.4132 -21.738,51.3562 -4.85611,12.7291 -10.41678,26.9618 -12.35704,31.6282 -3.82966,9.2105 -5.2834,17.1167 -3.84996,20.9382 0.78923,2.1041 1.06887,1.5781 2.12657,-4 1.8386,-9.6963 3.03298,-12.7633 5.24374,-13.465 2.69171,-0.8543 5.86655,2.1195 5.86655,5.4951 0,1.4536 -1.15045,8.0213 -2.55657,14.595 -3.56702,16.6763 -4.17485,27.4226 -1.97884,34.9855 3.41609,11.7649 12.95395,27.4668 16.68419,27.4668 2.69448,0 4.851,3.9868 4.85339,8.9725 0.003,6.2568 6.57278,60.0472 9.00388,73.7198 1.09455,6.1557 3.17057,14.9307 4.6134,19.5 2.80942,8.8971 17.48967,39.0329 26.96635,55.3569 3.17727,5.4729 6.77296,11.9881 7.99043,14.478 2.50482,5.1229 7.75046,12.0354 17.43313,22.9728 3.6518,4.125 11.17139,13.125 16.71019,20 11.31636,14.0464 18.7552,21.4603 28.28045,28.1856 8.70801,6.1484 48.77595,30.1059 62.5,37.3702 17.91066,9.4803 40.9968,23.915 51.3408,32.1009 15.359,12.1546 24.1727,15.1512 29.1089,9.8968 z m -35.428,-388.1747 c -2.5751,-2.575 -1.7113,-13.2203 1.6658,-20.5294 3.0858,-6.6786 5.9074,-8.199 9.1669,-4.9395 2.1037,2.1038 2.1057,2.1542 0.2733,6.8547 -1.0153,2.6045 -2.2904,7.4354 -2.8335,10.7354 -0.5431,3.3 -1.3274,6.675 -1.743,7.5 -1.0972,2.1785 -4.5306,2.3777 -6.5295,0.3788 z m -134.11671,-5.4838 c -1.64375,-1.8163 -1.90499,-3.7019 -1.90499,-13.75 0,-10.8749 0.18969,-12.0087 2.86815,-17.145 4.1512,-7.9604 9.32749,-14 11.9988,-14 4.99238,0 6.14049,5.0551 2.20921,9.7271 -1.3331,1.5843 -3.61563,5.1064 -5.07228,7.8267 -2.4632,4.6002 -2.62746,5.6893 -2.34827,15.5691 0.2208,7.8139 -0.0569,11.0532 -1.05016,12.25 -1.84637,2.2248 -4.42076,2.0412 -6.70046,-0.4779 z m 96.73392,-67.2276 c -2.03417,-2.4511 -0.97147,-5.9897 2.26293,-7.5354 1.59601,-0.7627 5.65892,-1.608 9.02867,-1.8785 6.98738,-0.5609 9.25509,0.8787 8.17336,5.1887 -0.68015,2.7099 -4.20179,4.0971 -13.1382,5.1751 -3.88081,0.4682 -5.33046,0.2505 -6.32676,-0.9499 z m -128.56748,-18.2388 c -2.60316,-2.6032 -1.81222,-5.2569 3.14709,-10.5588 7.33094,-7.8373 12.77352,-9.8608 15.61424,-5.8051 1.9989,2.8538 0.98796,5.7181 -2.68936,7.6197 -1.70631,0.8824 -5.00733,3.5644 -7.33559,5.96 -4.5588,4.6906 -6.28106,5.2395 -8.73638,2.7842 z m -21,-6 c -2.49708,-2.4971 -1.88097,-5.4339 2.90009,-13.8235 5.4891,-9.6321 11.09966,-16.9949 17.54325,-23.0221 5.20351,-4.8673 6.00121,-5.18 9.05097,-3.5478 3.69871,1.9795 2.32567,5.5252 -5.38002,13.8935 -4.08484,4.4361 -9.46442,11.7742 -12.18408,16.6199 -6.69835,11.9347 -8.43625,13.3739 -11.93021,9.88 z m 403.46497,296.1412 c 19.5427,-14.5836 32.5767,-22.3608 68.4636,-40.8512 15.95,-8.2181 36.65,-19.1113 46,-24.2072 9.35,-5.0958 25.7678,-13.6505 36.4839,-19.0103 31.6879,-15.8493 44.1922,-23.304 58.5161,-34.8855 10.9461,-8.8504 20.4211,-21.0108 23.0046,-29.5243 l 0.7309,-2.4087 -13.8677,0.6569 c -7.6273,0.3613 -18.8178,1.5629 -24.8678,2.6701 -15.6446,2.8632 -30.81,4.7637 -47.2708,5.9239 l -14.2707,1.0058 -11.2293,10.0963 c -27.8212,25.0141 -57.0121,39.1889 -89.5304,43.4749 -37.8643,4.9906 -107.1551,-2.4671 -150.0088,-16.1454 -8.145,-2.5998 -11.1651,-3.9875 -10.7924,-4.959 0.344,-0.8964 -2.1856,-2.7553 -7.5408,-5.5414 -12.0996,-6.2949 -36.9019,-22.946 -41.9282,-28.1486 -4.4194,-4.5744 -4.4557,-4.5891 -17.4286,-7.0528 -15.9958,-3.0377 -26.1024,-4.1156 -26.8746,-2.8661 -0.3177,0.514 -1.6464,0.7303 -2.9526,0.4806 -1.3063,-0.2497 -4.022,7e-4 -6.035,0.5565 -2.11064,0.5828 -3.41864,0.6201 -3.08987,0.088 0.31356,-0.5074 -0.29529,-0.9225 -1.35299,-0.9225 -1.52975,0 -2.05316,0.949 -2.55902,4.6396 -2.38469,17.3982 2.04807,40.9998 11.52448,61.3604 3.3384,7.1729 4.6366,8.9153 8.3145,11.1596 2.3971,1.4628 6.9834,3.2247 10.1918,3.9153 3.2083,0.6905 6.2833,1.5748 6.8333,1.9651 0.55,0.3903 9.775,4.2032 20.5,8.4731 34.7771,13.8459 47.6628,20.9164 67.7039,37.1503 5.0622,4.1005 11.4462,9.9087 14.1866,12.9072 6.6826,7.3118 10.6494,10.5467 13.3584,10.8934 1.2381,0.1585 6.7511,1.4466 12.2511,2.8625 18.4449,4.7483 34.7514,7.2153 49.6098,7.5054 l 8.6098,0.1681 15.3168,-11.4302 z m -146.3031,-103.6939 c 0.6784,-0.6834 1.4853,-0.9907 1.7932,-0.6828 0.3078,0.3079 -0.2472,0.8671 -1.2334,1.2426 -1.4252,0.5427 -1.54,0.4278 -0.5598,-0.5598 z m 1044.17704,77.3741 c -0.7339,-0.9625 -4.1573,-4.7368 -7.6074,-8.3872 -7.3387,-7.7649 -12.4334,-17.5799 -14.9293,-28.7611 -4.0164,-17.9926 1.9788,-32.7239 26.801,-65.8549 26.1614,-34.9185 52.0813,-54.6313 93.5086,-71.1158 32.0097,-12.7372 59.1971,-14.5454 85.2268,-5.6684 9.0977,3.1027 15.7001,6.7737 26.2474,14.594 4.4593,3.3064 8.2743,5.8451 8.4778,5.6416 0.2035,-0.2035 -0.4717,-2.8165 -1.5005,-5.8066 -4.6352,-13.4726 -9.7867,-19.921 -21.6347,-27.0815 -11.0567,-6.6822 -14.4109,-7.3202 -38,-7.2279 -37.1267,0.1454 -62.7868,5.7685 -92.9757,20.3746 -14.2531,6.896 -24.2625,13.7599 -34.6056,23.7307 -10.3156,9.9443 -16.1364,17.4043 -27.4551,35.1867 -7.6729,12.0547 -8.1879,12.6258 -11.3855,12.6258 -2.5302,0 -3.5466,-0.5342 -4.1572,-2.1849 -0.6388,-1.7267 0.5772,-4.5026 5.7979,-13.2356 24.1388,-40.379 49.9534,-61.0098 95.2812,-76.148 16.9499,-5.6608 50.1118,-10.8904 69.25,-10.9208 3.7125,-0.01 6.75,-0.2938 6.75,-0.6399 0,-2.0451 -10.297,-19.5996 -15.7888,-26.9171 -10.9309,-14.5645 -22.0397,-21.9148 -52.0432,-34.4351 -31.1794,-13.0111 -37.4648,-16.6773 -62.4948,-36.4527 -17.2944,-13.6636 -52.4867,-33.0855 -78.0931,-43.0978 -21.0041,-8.2128 -35.5217,-11.207 -67.8279,-13.9895 -63.3023,-5.4521 -91.3074,-10.7862 -115.2522,-21.9519 -23.3204,-10.8746 -32.1695,-18.1503 -81.5,-67.0092 -22.825,-22.6068 -43.75,-42.7223 -46.5,-44.7011 -18.3894,-13.2325 -43.002,-21.4958 -61.3731,-20.6053 -20.2149,0.98 -30.9218,10.2919 -31.908,27.7506 -1.2703,22.4904 13.1294,44.7567 59.8331,92.52 22.5665,23.0785 52.5514,58.3556 63.4196,74.6129 8.3766,12.5304 16.7702,28.4114 18.9407,35.8369 2.1805,7.4596 2.046,19.4631 -0.2755,24.573 -5.1577,11.3533 -28.2536,24.5063 -53.6368,30.5462 -21.526,5.122 -58.3981,8.583 -81.75,7.6733 l -13.75,-0.5356 8e-4,5.1558 c 0,8.5867 1.9564,26.7829 3.5623,33.1558 2.489,9.8775 8.8614,19.9123 19.4369,30.6077 16.0625,16.2446 29.5425,24.9694 66.3875,42.9687 39.452,19.2728 53.6274,23.757 99.1125,31.3527 23.4664,3.9188 44.0605,6.2712 83.5,9.5379 20.075,1.6628 37.6983,3.2314 39.1628,3.4857 1.6044,0.2786 3.1435,-0.1169 3.8724,-0.9951 1.7227,-2.0757 5.2565,-1.8026 8.3705,0.6469 1.7546,1.3802 6.7055,2.8961 14.3849,4.4045 32.6193,6.4073 47.8828,12.1772 72.1255,27.265 15.014,9.3442 17.204,11.2321 27.8189,23.9826 9.2135,11.0673 16.0323,17.2434 19.0375,17.2434 1.244,0 1.2654,-0.2714 0.1378,-1.75 z m -93.1603,-80.2923 c -1.0247,-0.619 -1.75,-2.2653 -1.75,-3.9722 0,-3.6405 1.0603,-4.2001 13,-6.8609 14.0163,-3.1235 23.7815,-4.3119 25.9397,-3.1569 3.9466,2.1122 3.1518,7.6069 -1.2186,8.4239 -2.44,0.4562 -29.0178,5.5927 -32.2211,6.2271 -1.1,0.2179 -2.7875,-0.08 -3.75,-0.661 z m -61.1851,-9.886 c -1.0668,-1.1788 -1.5029,-2.6918 -1.1218,-3.8925 0.6785,-2.1376 2.9041,-3.2053 12.0305,-5.7715 3.2855,-0.9238 11.8108,-4.0935 18.9452,-7.0437 7.1343,-2.9502 13.9536,-5.364 15.1539,-5.364 2.9278,0 4.7844,2.4413 4.0578,5.3359 -0.7208,2.8722 -13.1366,8.853 -30.6305,14.7549 -13.0401,4.3993 -15.9623,4.7133 -18.4351,1.9809 z m -979.56494,35.6075 c 0,-0.1765 -1.76858,-5.0141 -3.93018,-10.7503 -5.93929,-15.761 -8.34795,-28.74 -8.38666,-45.1915 l -0.0324,-13.7625 -3.07538,0.5 c -13.17036,2.1412 -17.44626,2.9447 -27.57539,5.1819 -6.325,1.3969 -11.64301,2.6762 -11.81779,2.8427 -0.35045,0.3339 10.77842,18.5504 17.10608,28.0005 6.78582,10.1343 14.39786,18.9588 20.44148,23.6974 6.78846,5.3227 17.27023,11.0774 17.27023,9.4818 z m 270,-16.1221 c 19.2473,-2.9467 37.8882,-10.218 57.3254,-22.3612 10.3011,-6.4354 25.1638,-18.6005 23.2289,-19.0127 -5.2531,-1.1194 -34.4017,6.8006 -60.5181,16.4435 -24.4877,9.0414 -30.6013,10.4333 -48.5362,11.0503 -17.2309,0.5927 -25.7391,-0.7286 -36.1935,-5.6208 -8.6495,-4.0475 -17.4728,-12.6174 -21.5796,-20.9595 -2.8997,-5.8901 -3.2197,-7.4186 -3.1562,-15.0757 0.085,-10.2343 2.0609,-15.7185 9.929,-27.5555 10.1165,-15.2197 23.8401,-27.2949 41.925,-36.8891 3.7078,-1.967 7.3144,-3.5764 8.0147,-3.5764 1.6412,0 25.8813,-9.1174 44.8286,-16.8614 13.489,-5.5131 39.0616,-14.3499 49.4401,-17.0844 5.0325,-1.3259 5.4363,0.4181 -4.7589,-20.5542 -7.788,-16.0203 -18.5809,-33.9195 -27.5648,-45.7136 -7.2163,-9.4737 -30.8278,-33.1802 -39.8844,-40.045 -8.9212,-6.7622 -18.4034,-11.4923 -24.7939,-12.3682 l -4.2358,-0.5806 -1.1939,4.4639 c -3.1236,11.6786 -21.7204,18.2719 -51.2764,18.1796 -16.8977,-0.053 -24.7098,-1.4859 -32.9293,-6.041 l -4.4292,-2.4547 -3.5708,2.8596 c -1.9639,1.5728 -6.1431,6.4237 -9.2871,10.7798 -6.5382,9.0588 -22.7836,35.7953 -22.7836,37.497 0,0.6239 -1.079,2.4168 -2.3978,3.9841 -1.3188,1.5673 -5.2011,8.3823 -8.6273,15.1444 -3.4262,6.7621 -6.8076,12.9697 -7.5142,13.7947 -1.3923,1.6254 -8.7937,19.0339 -8.2761,19.4656 0.1735,0.1447 3.4654,1.2858 7.3154,2.5357 31.8695,10.3469 61.3327,35.6172 69.6708,59.7557 1.8999,5.5001 2.324,8.7706 2.3007,17.743 -0.035,13.6263 -2.1794,19.8309 -9.6953,28.0545 -6.9551,7.61 -10.9188,9.3962 -24.7144,11.1376 -13.1807,1.6637 -24.2688,1.1727 -39.4972,-1.7487 -5.4644,-1.0483 -10.0943,-1.747 -10.2887,-1.5526 -0.6844,0.6844 19.2311,13.0231 31.086,19.2594 6.5976,3.4707 12.2999,6.8026 12.6718,7.4043 1.6143,2.6121 34.3112,10.0434 60.9663,13.8565 11.7125,1.6754 17.983,2.3912 39.5,4.5086 7.9017,0.7775 40.1913,-0.4374 49.5,-1.8625 z M 296.45523,1454.5209 c 12.98778,-35.2956 21.12626,-53.2625 31.13419,-68.7333 18.79278,-29.051 46.56736,-52.1684 70.41564,-58.6085 8.0171,-2.165 33.81964,-3.0034 44.71216,-1.4529 11.81384,1.6817 53.59945,10.842 57.91578,12.6964 5.37171,2.3078 7.02468,1.6019 7.37588,-3.1499 0.53863,-7.2879 10.64755,-31.5739 24.76028,-59.4851 13.0424,-25.7941 23.7565,-49.1902 25.2252,-55.0833 0.4843,-1.9434 0.26,-2.5834 -0.9056,-2.5834 -1.8533,0 -8.5837,-3.5015 -8.5837,-4.4657 0,-0.3726 -2.1375,-1.9124 -4.75,-3.4217 -24.08465,-13.914 -34.1914,-30.0191 -37.39925,-59.5956 -1.29912,-11.9779 -0.11507,-30.5274 2.63948,-41.3503 2.50587,-9.8459 8.21409,-19.9808 15.87217,-28.181 7.8563,-8.4125 14.3743,-13.1581 26.312,-19.1573 4.4959,-2.2594 8.4524,-4.5578 8.7922,-5.1077 0.515,-0.8332 6.252,-2.8097 10.0334,-3.4566 0.55,-0.094 4.694,-1.2456 9.2089,-2.5589 9.5723,-2.7843 8.4188,-0.3186 11.2454,-24.0385 4.221,-35.42075 4.5457,-41.24245 4.5457,-81.49995 0,-46.4865 -0.4922,-51.61551 -9.0201,-94 -6.8789,-34.18823 -8.1369,-42.38768 -9.4356,-61.5 -0.8082,-11.89486 -3.0283,-58.13625 -3.042,-63.3635 0,-0.47492 -1.3523,-0.66536 -3.0023,-0.42319 -1.65,0.24217 -3,0.0597 -3,-0.40555 0,-0.46523 -1.0125,-0.61846 -2.25,-0.34052 -16.9489,3.8067 -72.04226,4.89789 -105.09721,2.08157 -61.2826,-5.22135 -121.93589,-17.19799 -174.65279,-34.48708 -12.925,-4.23889 -24.68932,-7.77785 -26.14294,-7.86434 -2.31951,-0.13802 -2.71463,0.29918 -3.22884,3.57267 -0.32226,2.05147 -0.87539,13.40494 -1.22919,25.22994 -0.77789,25.99959 0.12399,38.38668 6.04309,83 6.47726,48.82027 7.6769,62.98265 8.2831,97.78654 l 0.54494,31.28656 6.61492,-6.80431 c 3.63821,-3.74235 10.21492,-9.20889 14.61492,-12.14785 9.63225,-6.43384 27.3056,-15.12094 30.76256,-15.12094 3.08975,0 4.99496,2.1616 4.5642,5.17843 -0.26119,1.82926 -2.93718,3.59623 -13.33478,8.80504 -16.06963,8.05028 -21.20097,11.53394 -29.52446,20.04413 -13.10401,13.3979 -18.82612,29.29 -25.37425,70.4724 -9.1261,57.39555 -10.5559,126.53785 -4.11516,198.99995 6.79247,76.4193 30.03441,257.467 35.16348,273.9129 0.81748,2.6212 1.29613,1.6598 7.30858,-14.6796 z m 298.54643,-16.9744 c 2.1981,-5.6136 5.0277,-11.726 6.2879,-13.5831 2.6072,-3.8418 9.4567,-17.1758 8.8231,-17.1758 -0.2297,0 -9.1228,2.4124 -19.7626,5.3609 -10.6397,2.9485 -22.5601,6.1354 -26.4896,7.0819 l -7.1445,1.721 -2.6555,8.0347 c -1.4606,4.4191 -2.3754,8.3197 -2.033,8.6681 0.5712,0.5811 35.6867,9.8484 37.9776,10.0227 0.55,0.042 2.7985,-4.5169 4.9966,-10.1304 z m 306.2553,2.3071 c 17.4615,-4.3637 39.8481,-10.1445 49.7481,-12.8462 9.9,-2.7017 22.175,-5.969 27.2778,-7.2607 5.2088,-1.3185 8.7174,-2.6579 8,-3.054 -0.7028,-0.388 -8.23,-3.2803 -16.7272,-6.4273 -8.4972,-3.1469 -22.4472,-8.8564 -31,-12.6878 -8.5528,-3.8313 -22.7506,-10.0886 -31.5506,-13.905 -18.8693,-8.1832 -31.094,-13.9755 -65.4935,-31.032 -23.5336,-11.6687 -25.9319,-13.1017 -31.0065,-18.5265 -3.025,-3.2337 -6.4,-7.1435 -7.5,-8.6885 -2.7308,-3.8354 -14.0588,-6.5244 -30.0292,-7.1283 -12.9756,-0.4906 -17.7958,0.2261 -18.2759,2.7175 -0.2249,1.1672 0.9869,1.8605 4.6101,2.6376 13.2639,2.8446 26.2066,10.7689 42.1255,25.7918 26.9162,25.401 45.0373,51.0747 61.1201,86.5934 2.9262,6.4625 5.6877,11.75 6.1368,11.75 0.449,0 15.1031,-3.5703 32.5645,-7.934 z m 360.24814,1.4802 c 27.0678,-3.7218 41.3606,-7.6413 57.0245,-15.6378 21.7143,-11.0851 24.4623,-20.1599 13.1446,-43.4084 -11.1643,-22.9333 -39.0986,-58.3101 -76.8022,-97.2645 -38.349,-39.6212 -51.5588,-57.1822 -58.4746,-77.7355 -3.3194,-9.8651 -3.288,-24.4288 0.071,-32.9747 7.4437,-18.9375 29.2178,-27.9179 56.0366,-23.1113 16.1855,2.9008 36.7219,11.8223 50.348,21.8723 4.7221,3.4829 25.192,22.9071 48.652,46.1668 42.2642,41.9033 45.727,45.0845 58,53.2823 23.7081,15.8359 48.0973,23.0978 96.5,28.733 17.5439,2.0425 19.9062,2.0153 19.0187,-0.2184 -1.3974,-3.5168 -7.5014,-31.0742 -9.4694,-42.75 -5.2427,-31.1054 -10.3619,-81.7654 -12.2211,-120.9406 -3.0389,-64.0342 7.3519,-159.12865 24.0546,-220.14151 6.1651,-22.52042 7.2374,-25.15893 10.5643,-25.99392 3.1301,-0.78561 5.5529,0.97794 5.5529,4.04197 0,1.22156 -0.8904,4.80889 -1.9786,7.97186 -2.7794,8.07848 -10.414,37.74635 -13.4304,52.19015 -4.2888,20.5366 -9.1218,57.62035 -13.7982,105.87205 -1.6665,17.1959 -1.6524,82.3122 0.022,102 5.1477,60.5211 11.0309,101.2811 18.8694,130.7304 2.5132,9.4423 2.6821,9.7434 5.7028,10.169 1.712,0.2412 10.9878,1.3502 20.6128,2.4645 9.7049,1.1235 22.7398,3.3805 29.2634,5.067 9.9919,2.5832 16.5714,4.9523 39.9064,14.3696 2.4916,1.0055 3.4926,0.418 15,-8.8041 23.7564,-19.0385 62.2772,-60.929 64.8129,-70.4825 0.513,-1.9326 1.0359,-9.0235 1.162,-15.7575 0.1261,-6.7339 0.5438,-12.7524 0.9282,-13.3744 1.5435,-2.4974 24.462,-5.1149 60.3938,-6.8975 20.906,-1.0372 20.9755,-1.0337 23.9844,1.1909 2.4261,1.7937 4.7067,2.3118 11.6338,2.643 9.6433,0.4611 12.4389,-0.46 14.0501,-4.6292 4.3386,-11.2269 8.0913,-81.9822 6.0443,-113.9626 -1.2358,-19.306 -3.7391,-34.541 -6.5777,-40.03 -1.4026,-2.7124 -1.9429,-3.0173 -3.9762,-2.2443 -1.4937,0.5679 -6.3284,0.3613 -13.2392,-0.566 -5.9874,-0.8033 -14.4862,-1.8505 -18.8862,-2.327 -15.0394,-1.6288 -75.9393,-13.1537 -79.458,-15.0368 -2.6645,-1.426 -3.798,-6.0143 -4.3535,-17.6238 -0.5416,-11.3188 -1.8931,-14.9636 -6.9374,-18.70945 -6.846,-5.0836 -20.2037,-12.5091 -46.2511,-25.7106 -38.1972,-19.3595 -50.0065,-26.2631 -72.4936,-42.3793 -4.6715,-3.348 -12.3215,-8.11689 -17,-10.59752 l -8.5064,-4.51024 0.1139,-3.99577 c 0.063,-2.19767 0.4653,-9.86684 0.8948,-17.04258 2.5475,-42.56641 -12.3449,-58.10928 -53.7785,-56.1274 l -12.8029,0.6124 -6.7136,6.01078 c -18.2208,16.31319 -32.8717,24.32408 -57.5816,31.48472 -7.531,2.18239 -36.0864,8.70969 -74.1321,16.94538 -22.2452,4.81539 -38.562,11.26449 -46.5809,18.4108 -3.6343,3.23878 -6.5953,7.94369 -14.3286,22.76693 -10.1406,19.4376 -11.387,21.5862 -36.8047,63.4432 -17.4687,28.76685 -41.3106,65.75995 -49.626,76.99995 -20.5208,27.7378 -43.2491,37.696 -62.3317,27.3099 -19.8142,-10.7842 -24.3788,-43.3104 -11.5512,-82.3099 3.1278,-9.5094 16.8967,-37.72945 42.2042,-86.49995 14.2045,-27.37371 19.2012,-38.44946 30.086,-66.68949 3.6696,-9.52078 9.9868,-24.2265 14.038,-32.67937 4.0513,-8.45287 7.1327,-15.74643 6.8475,-16.2079 -0.9272,-1.5001 -25.0227,-8.84786 -34.6124,-10.55478 -11.0595,-1.96853 -33.5688,-2.16547 -48.3402,-0.42292 -29.0146,3.42279 -59.1999,13.82516 -77,26.53556 -7.1384,5.09725 -16.5235,14.72981 -18.9803,19.48081 -5.3003,10.24967 -18.5197,51.8185 -18.5197,58.23584 0,4.35218 -0.1401,4.47612 -18.317,16.20675 -29.21124,18.8518 -56.60104,39.1966 -72.65064,53.9639 -28.4374,26.16535 -50.9648,48.04775 -61.7661,59.99755 -7.0215,7.768 -15.0835,16.5814 -17.9156,19.5853 l -5.1492,5.4617 -18.5301,0.5561 c -10.1915,0.3059 -18.8455,0.8716 -19.2311,1.2573 -0.3856,0.3856 -0.8055,2.5519 -0.9332,4.8141 -0.1276,2.2622 -0.8564,4.7004 -1.6196,5.4184 -1.7135,1.612 -35.153,4.2366 -66.0488,5.184 l -21.6613,0.6642 -1.5665,5.5964 c -5.4511,19.4741 -8.2351,56.9847 -5.6673,76.3577 1.4274,10.7689 3.9188,22.551 4.884,23.0971 0.3698,0.2092 6.9724,-0.4975 14.6724,-1.5704 10.8987,-1.5187 19.7897,-1.9569 40.1365,-1.9783 31.0679,-0.033 31.4112,0.05 32.7429,7.8825 1.149,6.7587 2.2188,7.1984 28.5245,11.7244 13.9634,2.4024 14.5238,2.5946 18.3204,6.2809 2.154,2.0914 8.7083,10.0579 14.565,17.7033 24.5525,32.0509 50.5395,58.1589 81.0313,81.4086 11.3997,8.6922 32.0299,21.2438 59.71084,36.3285 l 20.1944,11.005 4.6758,9.4189 c 3.4975,7.0454 6.367,11.1314 11.3871,16.2147 16.6137,16.8229 59.3101,39.1311 90.2975,47.1791 13.0047,3.3776 40.9507,8.3984 58.5167,10.5132 15.3712,1.8506 57.0383,1.3269 73.3971,-0.9225 z m -236.4286,-96.1176 c -2.2137,-2.2138 -2.0242,-3.701 1.9727,-15.4821 4.2998,-12.6739 5.3074,-17.7975 10.413,-52.9465 5.326,-36.667 7.5031,-48.0721 18.0222,-94.4099 11.5659,-50.9495 16.2838,-93.1548 16.3307,-146.0901 0.027,-30.9355 -0.8531,-43.11725 -4.4086,-60.99995 -5.2584,-26.4469 -15.6855,-48.4765 -28.7866,-60.81833 -2.8132,-2.65008 -5.1148,-5.65544 -5.1148,-6.67857 0,-1.97909 2.4909,-5.0031 4.1211,-5.0031 3.9126,0 11.565,7.22636 18.544,17.5116 11.7109,17.2587 19.2198,39.2748 23.5295,68.9884 1.7698,12.20205 1.7741,82.86625 0.01,101.99995 -3.2649,35.335 -7.3964,60.2015 -17.6949,106.5 -8.5671,38.5151 -10.9697,51.7375 -16.4447,90.5 -3.44,24.3549 -4.5474,29.809 -8.5066,41.8958 -2.5035,7.6427 -5.0575,14.5052 -5.6756,15.25 -1.5037,1.8118 -4.3775,1.7129 -6.3076,-0.2172 z m 664.7495,-117.9164 c -5.0256,-3.52 -10.4116,-21.6575 -14.2554,-48.0047 -5.16,-35.3688 -4.9963,-74.0478 0.4493,-106.1933 4.5212,-26.6889 9.3983,-41.372 14.7141,-44.2985 2.5371,-1.3968 2.8823,-1.3489 4.9131,0.6818 l 2.1842,2.1843 -2.602,5.8091 c -7.9741,17.8025 -13.7242,54.9733 -13.7242,88.7184 0,32.9675 5.1306,71.6379 11.495,86.64 3.7238,8.7777 4.2737,12.9155 1.943,14.6197 -2.281,1.6679 -2.5226,1.6605 -5.1171,-0.1568 z m 111.2674,-33.7622 c -1.2813,-1.9776 -1.226,-6.6085 0.4564,-38.25 2.0037,-37.6822 3.3932,-57.9127 5.014,-73 0.7493,-6.9756 1.413,-9.3728 2.9504,-10.6573 2.1912,-1.8308 5.8474,-1.3803 6.6935,0.8247 0.2934,0.7644 -0.4186,14.0895 -1.582,29.6112 -1.1635,15.5218 -2.8353,42.1714 -3.7153,59.2214 -1.2912,25.0195 -1.9004,31.3376 -3.1576,32.75 -2.138,2.402 -4.9142,2.1935 -6.6594,-0.5 z m -989.99944,-21 c -1.3007,-2.0083 -1.2044,-3.29 0.8961,-11.932 3.6458,-14.9999 4.8427,-27.2781 4.2546,-43.6465 -0.3986,-11.0928 -1.0476,-16.3077 -2.6605,-21.3793 -1.1734,-3.6892 -2.5712,-6.9783 -3.1062,-7.309 -1.471,-0.9091 -1.1653,-5.0787 0.4721,-6.4375 2.3705,-1.9674 5.8372,-0.7675 8.2799,2.8659 5.8121,8.6451 8.2562,27.6395 6.4886,50.4269 -1.2569,16.2041 -5.1421,34.8202 -7.904,37.872 -2.2059,2.4374 -4.9663,2.2483 -6.7206,-0.4605 z m -88.6459,171.2616 c 18.0239,-3.673 20.5156,-5.7291 21.5611,-17.7916 0.5349,-6.1722 1.3205,-8.8227 3.9181,-13.22 6.9338,-11.7375 7.0721,-16.3589 0.7929,-26.5 l -3.7151,-6 v -14.5757 -14.5758 l 2.9616,-3.8849 c 2.8408,-3.7265 2.9783,-4.3872 3.3714,-16.1953 0.4029,-12.1023 0.3634,-12.3773 -2.3354,-16.2718 -1.5099,-2.1788 -3.0627,-3.7653 -3.4506,-3.5256 -0.3878,0.2398 -1.3146,2.976 -2.0594,6.0806 -1.7699,7.3778 -3.5221,9.4307 -11.7325,13.7451 -15.2635,8.0208 -37.266,11.896 -56.0038,9.8637 -14.1158,-1.531 -21.2267,-3.4116 -23.4959,-6.214 -1.5921,-1.9662 -1.6394,-2.4857 -0.3949,-4.3399 1.7041,-2.539 3.8222,-2.5767 16.5657,-0.2945 18.8975,3.3843 40.0322,1.1063 55.1747,-5.9469 6.9389,-3.2321 7.7773,-3.9465 9.6255,-8.2027 1.1135,-2.5643 2.3311,-6.0781 2.7058,-7.8086 1.1352,-5.2433 3.5178,-6.6288 10.0056,-5.8182 5.0009,0.6248 6.0192,1.1768 9.5309,5.1663 5.6224,6.3874 6.3965,9.5789 5.7809,23.8328 -0.5192,12.0228 -2.5733,20.0023 -5.6363,21.8954 -0.7152,0.442 -1.1133,4.8752 -1.1133,12.3969 0,10.9069 0.1749,11.9662 2.5533,15.4664 3.745,5.5113 5.249,10.5906 5.6182,18.974 l 0.3285,7.461 10.5,0.6546 c 5.775,0.36 13.6498,1.3211 17.4996,2.1358 3.8498,0.8147 7.0496,1.4813 7.1107,1.4813 0.061,0 0.3795,-2.2662 0.7075,-5.0359 0.7483,-6.318 4.6668,-13.6047 10.4954,-19.5168 5.2627,-5.3381 9.8116,-7.8482 18.4382,-10.1743 9.1166,-2.4582 33.4398,-2.1475 49.098,0.6272 6.5171,1.1549 12.1179,2.0998 12.4461,2.0998 0.3283,0 -0.9297,-1.575 -2.7955,-3.5 -1.8658,-1.925 -2.8322,-3.5 -2.1476,-3.5 0.6846,0 -3.1235,-4.8375 -8.4624,-10.75 -5.339,-5.9125 -14.5602,-17.05 -20.4916,-24.75 -5.9314,-7.7 -11.8226,-15.246 -13.0914,-16.7689 -2.0955,-2.5151 -3.64,-2.9935 -16.848,-5.218 -24.0466,-4.05 -32.9345,-7.7475 -32.9743,-13.7176 -0.032,-4.7271 -0.7235,-4.9269 -19.094,-5.5125 -16.6766,-0.5316 -31.6515,0.3557 -48.6407,2.882 -6.9855,1.0388 -7.25,1.1787 -7.25,3.8341 0,3.4608 -2.255,5.4047 -5.3644,4.6243 -4.204,-1.0551 -9.3754,-14.2498 -12.1983,-31.1234 -4.3082,-25.7524 -1.7927,-67.0649 5.5199,-90.6511 3.1257,-10.0816 4.5474,-11.3939 11.9465,-11.0272 3.353,0.1661 6.0963,-0.088 6.0963,-0.564 0,-1.8104 -5.8012,-9.8907 -9.3033,-12.9584 -4.2557,-3.7277 -2.4849,-3.3754 -37.1967,-7.4019 -22.9837,-2.6662 -29.1569,-3.0466 -41.5,-2.5575 -45.0605,1.7854 -89.2276,18.0242 -105.7612,38.8848 -8.55424,10.7931 -11.34536,17.826 -13.32908,33.586 -2.27779,18.0962 0.29765,40.7536 5.95542,52.393 3.77876,7.7738 11.48336,16.121 20.27096,21.9615 10.4097,6.9188 18.0706,10.8348 21.1958,10.8348 1.3191,0 3.5087,0.8734 4.8658,1.9408 3.4151,2.6864 20.3014,7.5425 33.388,9.6016 10.526,1.6563 29.0403,1.5956 36.5065,-0.1197 4.7559,-1.0926 5.8574,1.3501 5.1981,11.5277 -0.7259,11.203 0.2427,13.7017 7.4081,19.1117 3.021,2.2808 6.0657,5.5602 6.7697,7.2915 0.7037,1.7305 1.5856,8.6123 1.9599,15.2929 0.5461,9.7498 0.3531,13.4003 -0.9783,18.5 -2.1569,8.2616 -1.4612,15.4217 2.3662,24.3535 1.6498,3.85 3.744,9.7 4.6537,13 2.3394,8.4858 3.3669,10.1945 7.2339,12.0295 9.9608,4.7268 32.6199,5.869 49.2395,2.4821 z m -176.443,-9.5322 c 45.2383,-5.0201 59.3496,-9.6225 87.9462,-28.6836 13.7772,-9.1831 13.9627,-9.3564 15.3029,-14.2958 0.9595,-3.5361 1.1991,-8.5133 0.8182,-17 -0.5194,-11.5758 -0.6361,-12.0829 -3.3029,-14.3445 -10.7854,-9.1472 -12.4039,-11.8349 -13.0411,-21.6555 l -0.4541,-7 -13.6346,-0.053 c -15.4148,-0.06 -27.4311,-1.9481 -41.9087,-6.5857 -5.174,-1.6574 -9.4917,-2.8667 -9.5949,-2.6874 -0.1033,0.1793 -2.1385,5.276 -4.5228,11.326 -2.3842,6.05 -10.7506,23.825 -18.5918,39.5 -16.1499,32.2842 -19.2271,39.0602 -24.68917,54.366 l -3.87769,10.866 3.27523,-0.6001 c 1.80138,-0.3301 13.62523,-1.7487 26.27523,-3.1525 z m 617.83034,-240.2532 c 17.2807,-8.0866 32.5158,-29.4124 94.4625,-132.22615 4.1423,-6.875 11.6734,-20.4804 16.736,-30.2343 5.0625,-9.75385 10.827,-19.71426 12.81,-22.13423 9.6831,-11.817 28.3724,-19.37285 68.4794,-27.68542 45.4483,-9.41959 68.8389,-15.63126 83.071,-22.06053 22.2663,-10.05873 47.5009,-34.7867 59.0716,-57.88552 5.3623,-10.70477 7.6863,-18.5095 10.3981,-34.919 1.8035,-10.91306 2.8255,-14.74263 4.2031,-15.75 2.3588,-1.72482 2.7776,-1.68631 5.4827,0.50409 l 2.2662,1.83508 -2.2305,14.41492 c -3.4336,22.19003 -8.2873,35.13188 -19.4051,51.74205 l -5.4704,8.17286 h 3.4502 c 10.65,0 35.3909,-10.39932 53.2272,-22.37293 4.6102,-3.09489 8.9656,-5.62707 9.6786,-5.62707 2.1249,0 4.5676,3.09465 4.2423,5.37465 -0.4529,3.17479 -12.4244,11.64893 -27.1999,19.25378 l -12.9316,6.65582 5.9253,2.1455 c 11.5114,4.16817 19.111,11.0556 24.3524,22.07025 3.1638,6.64859 4.5931,13.03009 5.5953,24.98096 l 0.6692,7.98096 7.4664,-7.78747 c 18.9979,-19.81504 28.7291,-42.49959 31.2271,-72.79412 1.7102,-20.74096 3.7252,-26.04903 15.7663,-41.53264 6.7272,-8.65056 11.5931,-13.40003 16.1341,-15.74832 4.1424,-2.14207 13.9282,-4.4808 26.8588,-6.419 l 11.5189,-1.7266 -7.8428,-5.13259 c -11.1928,-7.32503 -20.9974,-16.14276 -35.5651,-31.98537 -13.4309,-14.60631 -17.4463,-19.64577 -25.8356,-32.42421 -5.0562,-7.70142 -5.1428,-7.95615 -3.5395,-10.40316 3.214,-4.90514 6.2594,-2.78881 15.5161,10.78263 7.324,10.73774 30.5689,36.64828 40.647,45.30824 6.399,5.49852 13.235,10.25809 26.1202,18.18621 l 8.1859,5.03664 7.8141,-0.94428 c 9.1459,-1.10519 14.5647,-2.66358 13.7644,-3.95847 -0.3125,-0.50568 -1.6728,-0.91941 -3.0228,-0.91941 -1.35,0 -3.2359,-0.38574 -4.191,-0.85721 -13.8459,-6.8352 -27.9151,-16.58527 -36.8331,-25.52573 -18.8415,-18.88873 -56.0124,-73.47696 -69.357,-101.85593 -5.5775,-11.86114 -13.9755,-35.67444 -17.5399,-49.736 -4.9889,-19.6811 -5.31,-38.22636 -0.9181,-53.02513 2.7841,-9.38107 4.935,-12.6896 9.1386,-14.0571 2.0752,-0.67511 4.5809,-1.78252 5.5682,-2.46091 1.6181,-1.11186 1.6347,-1.29495 0.1682,-1.85771 -3.075,-1.17998 -14.1067,-0.62238 -19.5318,0.98724 -9.5921,2.84598 -14.9582,6.29541 -39.9315,25.66868 -13.475,10.45337 -29.675,22.46633 -36,26.69546 -23.8341,15.93638 -102.3907,62.30301 -128.1493,75.63782 -14.4929,7.50274 -41.0375,21.47926 -58.988,31.05894 -32.2628,17.21774 -56.6169,29.07207 -82.8627,40.33341 -43.5625,18.69144 -57.7709,28.37714 -67.8621,46.26093 -2.3991,4.25178 -7.4699,15.26863 -11.2684,24.48188 -3.7986,9.21325 -9.8373,22.09976 -13.4193,28.63669 -3.5821,6.53693 -6.3588,12.03942 -6.1704,12.22776 0.1883,0.18833 4.1399,-0.0942 8.7813,-0.62775 11.2002,-1.28761 32.9215,-1.24581 42.4661,0.0817 4.2196,0.58689 7.8437,0.89541 8.0535,0.68561 0.2098,-0.20981 -2.0851,-4.69869 -5.0996,-9.97531 -3.0146,-5.27661 -5.4811,-10.50962 -5.4811,-11.6289 0,-1.11929 0.9696,-2.71418 2.1546,-3.54421 4.0392,-2.82919 6.3122,-0.2328 16.352,18.67858 l 5.34,10.0585 10.8267,3.8196 c 5.9547,2.10078 11.1157,3.71148 11.4689,3.57933 0.3532,-0.13215 3.3542,-4.29027 6.6688,-9.24027 3.3146,-4.95 9.1006,-12.64413 12.8578,-17.09806 3.7572,-4.45394 9.2444,-10.97894 12.1939,-14.5 9.7024,-11.58259 10.1808,-12.0369 12.3351,-11.71331 1.1402,0.17125 2.6656,1.21137 3.3899,2.31137 1.9725,2.99566 0.056,6.12456 -13.1999,21.55377 -24.6317,28.66954 -35.6672,48.46088 -54.9446,98.53902 -9.0301,23.45806 -18.8854,44.20326 -38.4798,80.99974 -24.6199,46.23365 -31.8255,63.05595 -35.5119,82.90745 -2.127,11.4538 -1.5773,30.5655 1.0919,37.9648 2.1315,5.9087 9.4024,13.5937 14.4566,15.2801 5.2743,1.7598 13.3165,0.7635 20.3303,-2.5187 z m 429.6562,-343.01678 c -4.1324,-2.05701 -10.7206,-5.98312 -14.6404,-8.72469 -11.5488,-8.07751 -28.0158,-22.11378 -28.6103,-24.38703 -0.325,-1.2427 0.1827,-3.0104 1.2394,-4.31534 2.4022,-2.96657 3.7539,-2.272 18.0248,9.26212 13.9094,11.24186 22.2818,16.76732 32.3786,21.36862 6.357,2.89696 7.6214,3.86417 7.6214,5.83006 0,5.87221 -5.4919,6.2036 -16.0135,0.96626 z m -15.4562,-129.74605 c -6.8747,-7.50539 -20.9113,-35.26317 -26.5265,-52.45694 -5.6102,-17.17823 -8.2867,-46.02312 -5.1281,-55.26406 1.3854,-4.05298 4.0198,-6.10339 6.5796,-5.12108 2.9159,1.1189 3.6218,3.9208 2.4107,9.56774 -1.36,6.34075 -0.601,21.71562 1.6606,33.63763 3.4567,18.22218 16.8342,48.37535 27.6473,62.31729 6.5115,8.39573 0.4545,15.06882 -6.6436,7.31942 z m -797.62984,451.19283 14.4006,-1.1562 1.3813,-4 c 0.7598,-2.2 2.1764,-4.7969 3.1481,-5.7708 2.4194,-2.425 15.8902,-3.9242 29.1695,-3.2464 l 10.5,0.5361 7,-8.1295 c 17.8003,-20.6726 62.8107,-64.90635 84.1832,-82.73065 5.0508,-4.2123 9.2023,-7.8837 9.2257,-8.1587 0.023,-0.275 -5.3774,-7.025 -12.0014,-15 -17.0939,-20.57996 -37.7564,-46.94233 -50.9463,-65 -14.3607,-19.66047 -20.9447,-27.68741 -30.1308,-36.73424 -7.7824,-7.66435 -10.4097,-9.31349 -23.629,-14.83199 -19.9056,-8.30974 -36.5679,-17.77985 -49.7014,-28.2481 -29.576,-23.57391 -78.1763,-69.93091 -107.1307,-102.18567 -24.9491,-27.79298 -57.3986,-67.97191 -65.0372,-80.5289 -5.1431,-8.45481 -5.1711,-8.48042 -5.8581,-5.35282 -0.3796,1.72845 -0.5291,24.12142 -0.3321,49.76217 0.3539,46.07276 0.3327,46.6745 -1.807,51.30469 -1.3716,2.96812 -3.5144,5.5335 -5.847,7 l -3.6819,2.31486 0.6343,20 c 1.6037,50.56827 3.1616,65.32498 10.9791,104 3.0017,14.85 6.1491,31.9975 6.9942,38.10557 5.392,38.97198 4.5331,93.65263 -2.3204,147.70988 l -1.7515,13.8156 2.3778,-0.5968 c 8.2791,-2.078 25.9968,-3.7794 40.2805,-3.8681 20.8509,-0.1296 67.8234,5.2022 74.7279,8.4823 5.6009,2.6608 12.5428,10.5374 16.3883,18.5949 l 3.1139,6.5246 15.6349,-0.7278 c 8.5993,-0.4004 22.1152,-1.2481 30.0355,-1.884 z m 1034.12704,-29.3703 c 1.3599,-0.9427 3.3388,-2.8552 4.3977,-4.25 1.0588,-1.3947 17.2902,-18.0609 36.0697,-37.0359 45.1108,-45.58045 57.8407,-60.46095 67.1549,-78.49995 14.1178,-27.34233 21.2583,-68.69754 20.0288,-116 -0.7619,-29.31262 -3.8701,-52.05799 -12.8452,-94 -5.505,-25.72567 -5.7171,-26.5 -7.2592,-26.5 -2.2059,0 -103.3512,19.78224 -125.8288,24.60992 -19.3401,4.1538 -42.8986,10.3944 -65.9638,17.47364 -9.6346,2.95711 -9.7135,3.00716 -9.1527,5.81112 0.8264,4.1317 -1.9773,8.73226 -6.8305,11.20816 -5.4788,2.79508 -15.7562,4.50115 -35.2984,5.85959 -27.1796,1.88934 -41.0132,4.91521 -47.165,10.3166 -6.0074,5.27455 -17.0564,20.36035 -19.2957,26.34551 -1.3819,3.69336 -2.6127,11.01611 -3.6097,21.47613 -0.8322,8.72953 -2.3478,19.14055 -3.3681,23.1356 -1.0204,3.99505 -1.7314,7.3965 -1.58,7.55878 0.1514,0.16228 5.8425,-5.90607 12.6469,-13.48522 26.1133,-29.08661 27.2169,-29.97923 42.8716,-34.67386 17.4741,-5.24027 40.8511,-8.62466 59.6276,-8.63255 8.808,-0.004 10.7958,1.00325 10.1992,5.16651 -0.5015,3.49899 -4.3601,4.79812 -14.3268,4.82353 -23.4267,0.0597 -55.9419,6.80417 -66.2816,13.74843 -2.2992,1.54415 -8.1142,7.29642 -12.9223,12.78283 -4.808,5.4864 -13.2541,14.95128 -18.769,21.03306 -14.729,16.24294 -26.4948,30.01306 -32.4195,37.94222 -2.8768,3.85 -6.5018,7.675 -8.0557,8.5 -1.5538,0.825 -5.9775,4.48365 -9.8304,8.13033 -5.6354,5.33375 -7.134,7.3922 -7.6635,10.52638 -0.6489,3.8406 -0.5935,3.92751 3.8886,6.10506 2.5007,1.21496 12.1773,7.48666 21.5036,13.93713 20.5417,14.2075 34.7683,22.4182 67.5498,38.9852 28.8704,14.5904 45.0566,23.9392 49.9912,28.8738 5.965,5.96495 6.893,8.70535 7.3251,21.63135 l 0.3908,11.6894 5.1464,1.1082 c 19.1664,4.1271 82.1911,14.5555 96.174,15.9133 0.5651,0.055 2.1401,-0.6715 3.5,-1.6143 z m -97.5906,1178.2581 c -0.8851,-1.3508 -1.3089,-2.9421 -0.9418,-3.5361 0.3672,-0.5941 1.3217,-12.6514 2.1211,-26.794 0.7995,-14.1426 1.9311,-27.4976 2.5148,-29.6776 0.604,-2.2559 2.6926,-5.5952 4.8475,-7.75 3.2382,-3.2383 4.4183,-3.7831 8.1539,-3.7643 5.2902,0.027 11.1626,2.5758 18.9684,8.2344 6.1194,4.4361 7.4471,6.4419 6.4154,9.6924 -1.2296,3.8742 -4.3533,3.5155 -11.4167,-1.3107 -3.6754,-2.5112 -8.2625,-5.2261 -10.1937,-6.033 -7.0267,-2.936 -7.8437,-0.3742 -9.4969,29.7792 -0.7574,13.8136 -1.646,26.3578 -1.9747,27.876 -1.2541,5.792 -6.1767,7.5886 -8.9973,3.2837 z M 0.97911494,1978.3883 c -1.46252,-2.2321 -1.39643,-2.8315 0.94851996,-8.6024 6.1376,-15.1048 20.6211101,-36.9285 32.5774301,-49.0877 16.45994,-16.7392 30.61709,-25.6398 84.999995,-53.4392 20.625,-10.5431 42,-21.7771 47.5,-24.9644 27.85935,-16.1447 45.81066,-31.2701 68.84459,-58.007 20.14384,-23.3822 26.43327,-30.0793 36.83896,-39.2269 5.48881,-4.8252 10.30256,-8.893 10.69722,-9.0395 0.39465,-0.1465 1.19235,2.0514 1.77266,4.8843 l 1.05509,5.1506 -4.09913,3.6158 c -11.19481,9.8746 -17.37845,16.3214 -34.64153,36.1157 -38.89986,44.6037 -50.03187,52.6696 -126.96786,91.9973 -41.492035,21.2097 -50.104435,26.1327 -63.911605,36.5335 -17.50202,13.1841 -31.29555,30.3552 -42.8126,53.296 -2.87332,5.7234 -5.7409201,11.0287 -6.3724401,11.7897 -1.7548,2.1144 -4.68131,1.652 -6.42929996,-1.0158 z M 516.50506,593.87937 c -28.02157,-4.37373 -66.92733,-17.90379 -87.31909,-30.36651 -4.4995,-2.74994 -9.98091,-5.98431 -12.18091,-7.18748 -4.22913,-2.31291 -5.59515,-5.51323 -3.45432,-8.09277 2.1608,-2.6036 6.46412,-1.54291 15.03922,3.70689 24.62178,15.07383 65.41847,29.45094 93.48298,32.94422 15.44592,1.92261 23.46232,-0.33575 42.92812,-12.09368 8.6559,-5.22838 11.4571,-5.96881 13.4583,-3.55743 3.3866,4.08062 -2.138,9.194 -19.9543,18.46892 -14.2363,7.4112 -24.4618,8.91528 -42,6.17784 z m -50.34321,-63.12746 c -19.2645,-6.52352 -43.42228,-17.93403 -68.65679,-32.42885 -37.19374,-21.36427 -55.60752,-36.34081 -76.76049,-62.43185 -9.25802,-11.41927 -10.71582,-14.63344 -7.7525,-17.09278 2.83422,-2.35219 6.31831,-0.154 13.07704,8.25059 22.43797,27.90197 38.87336,41.34467 77.93595,63.74468 24.76531,14.20139 49.30848,25.6499 67.5,31.48633 8.56809,2.74892 11.15529,6.20947 7.42857,9.93619 -2.0715,2.0715 -2.46269,2.02665 -12.77178,-1.46431 z m 61.34321,-29.90872 c -16.68258,-5.6289 -28.52136,-10.1979 -29.87965,-11.5316 -1.98122,-1.94534 -0.6268,-6.35872 2.16657,-7.05982 1.30438,-0.32737 6.04477,0.76422 11.23477,2.58708 4.93807,1.73438 14.09371,4.83278 20.34581,6.88533 12.4154,4.07594 14.3026,5.62868 11.6892,9.61724 -2.092,3.19284 -4.8822,3.10348 -15.5567,-0.49823 z m -71.48435,-43.29594 c -14.94106,-5.19936 -44.46426,-22.0748 -62.84474,-35.92201 -15.18725,-11.44153 -52.997,-45.05316 -71.24132,-63.33119 -7.77639,-7.79075 -11.05766,-10.19949 -23,-16.88398 -37.40742,-20.93806 -66.17919,-44.15625 -101.62114,-82.00604 -28.39926,-30.32864 -42.13965,-49.33968 -42.25138,-58.45849 -0.0569,-4.64506 -0.0477,-4.65789 3.35551,-4.65789 3.22058,0 3.6144,0.39609 7,7.04032 7.17119,14.07346 20.60896,30.54611 47.35739,58.05291 39.16902,40.27954 65.66389,59.48134 117.23003,84.96094 31.85835,15.74168 59.38966,25.57738 88,31.43845 13.29011,2.72259 13.40149,2.7667 14.10934,5.58702 0.85552,3.40865 -1.18781,5.42324 -5.48178,5.40469 -9.50353,-0.041 -45.44158,-9.90536 -67.39363,-18.49828 -7.82866,-3.06446 -14.90893,-5.81667 -15.73393,-6.11603 -3.9359,-1.42819 41.95881,39.57339 56.19061,50.19975 16.97718,12.67625 41.7742,26.95972 57.30939,33.0111 3.85,1.49969 7.7875,3.40224 8.75,4.2279 2.32566,1.99502 2.22598,5.86612 -0.18426,7.15605 -2.41915,1.29469 -2.33619,1.30516 -9.55009,-1.20522 z M 1692.2551,351.69938 c -3.6027,-2.08154 -1.9882,-5.4984 7.8386,-16.58948 18.1497,-20.48478 31.9776,-40.53635 42.74,-61.97636 10.9398,-21.79348 43.8501,-98.66394 55.8045,-130.34589 6.1938,-16.41509 9.5445,-31.00836 7.1169,-30.99626 -1.6501,0.008 -7.2844,4.09193 -13.3505,9.67639 -29.7529,27.39039 -66.0061,51.04277 -97.735,63.76446 -18.7679,7.52497 -27.4135,9.14776 -30.5095,5.72667 -3.7415,-4.13429 -1.0684,-8.17126 5.4106,-8.17126 7.6518,0 35.6166,-11.84057 55.5908,-23.53771 20.5449,-12.03132 41.5112,-27.40151 58.0041,-42.52216 9.6294,-8.82821 16.731,-13.6234 21.3395,-14.40913 5.1282,-0.87432 9.5752,2.17785 11.0267,7.56798 2.4514,9.10407 -1.8668,22.68745 -25.242,79.40102 -26.8403,65.12053 -41.7532,96.63973 -55.5937,117.5 -6.2915,9.4825 -22.0777,29.23326 -30.9126,38.67597 -6.0883,6.5072 -8.6554,7.89573 -11.5284,6.23576 z"
     style="fill:#000000" />
</svg>
