<?xml version="1.0" encoding="UTF-8" standalone="no"?>
<svg
   xmlns:dc="http://purl.org/dc/elements/1.1/"
   xmlns:cc="http://creativecommons.org/ns#"
   xmlns:rdf="http://www.w3.org/1999/02/22-rdf-syntax-ns#"
   xmlns:svg="http://www.w3.org/2000/svg"
   xmlns="http://www.w3.org/2000/svg"
   viewBox="0 0 3027.1309 1730.8829"
   height="1730.8829"
   width="3027.1309"
   id="svg87"
   version="1.1">
  <metadata
     id="metadata93">
    <rdf:RDF>
      <cc:Work
         rdf:about="">
        <dc:format>image/svg+xml</dc:format>
        <dc:type
           rdf:resource="http://purl.org/dc/dcmitype/StillImage" />
        <dc:title></dc:title>
      </cc:Work>
    </rdf:RDF>
  </metadata>
  <defs
     id="defs91" />
  <path
     id="path128"
     d="m 285.21504,1730.3519 c -20.8953,-0.8978 -52.08732,-3.2948 -70.63948,-5.4286 -13.10013,-1.5067 -15.50727,-2.8548 -15.02636,-8.4158 0.20117,-2.3262 1.14103,-4.0781 2.88224,-5.3723 2.54971,-1.8951 2.85915,-1.8935 23.5,0.1261 43.85024,4.2906 50.63819,4.561 114.91627,4.5768 62.3586,0.015 78.98958,-0.5518 118.5,-4.0418 49.00264,-4.3285 103.96281,-13.0708 179.10612,-28.4897 99.4906,-20.4149 145.75162,-32.9189 181.17988,-48.9717 23.98063,-10.8658 36.90311,-19.5401 46.13869,-30.9708 3.11809,-3.8592 7.04259,-8.027 8.7211,-9.2619 4.66294,-3.4305 28.51929,-35.3924 40.48859,-54.2452 12.4586,-19.6236 25.0387,-45.6871 39.3376,-81.5 37.372,-93.6015 54.16881,-189.5343 45.5232,-260 -3.322,-27.0759 -10.2953,-58.0736 -20.4714,-91 -5.7009,-18.4461 -10.0238,-34.8045 -10.0238,-37.9312 0,-1.1378 -0.4702,-2.0688 -1.045,-2.0688 -1.2381,0 -33.3015,8.0132 -33.714,8.4257 -0.1559,0.1559 1.0315,2.9364 2.6388,6.1789 7.4611,15.0522 14.4294,41.9456 17.2036,66.3954 2.0313,17.9032 0.1531,38.1094 -5.7167,61.5 -7.1659,28.5555 -23.7526,45.4375 -63.86668,65.0037 -19.27397,9.4011 -42.34802,18.7664 -66.5,26.9909 -16.8057,5.7228 -82.88617,22.5589 -121.5,30.9559 -43.12311,9.3777 -59.8626,14.4541 -96,29.1134 -9.9,4.0159 -31.95,12.9792 -49,19.9184 -17.05,6.9392 -46.75,17.9551 -66,24.4798 -47.93057,16.2459 -83.5605,28.8807 -127,45.0361 -50.67044,18.8445 -138.9575,47.3594 -173.5,56.0368 -36.37608,9.138 -77.73597,15.5645 -114.499997,17.7911 -18.32229,1.1097 -22.5,-0.186 -22.5,-6.9783 0,-4.1762 3.48292,-6.8467 8.93856,-6.8535 8.05195,-0.01 38.99033,-2.9387 58.495737,-5.5373 21.12762,-2.8147 47.16186,-7.836 66.94801,-12.9124 37.10142,-9.5188 120.03244,-36.4737 176.11769,-57.2432 41.62007,-15.4127 86.23889,-31.2237 125,-44.2946 31.53523,-10.6343 48.20836,-17.029 96.5,-37.0108 45.2626,-18.7285 67.22432,-26.0015 98.30608,-32.5558 20.35503,-4.2924 90.66646,-21.0499 109.19392,-26.0245 27.40795,-7.359 64.55206,-21.3938 91,-34.384 24.43008,-11.9991 37.45528,-21.5052 46.13718,-33.6718 5.7029,-7.9918 8.3323,-14.9985 11.9763,-31.9136 2.4742,-11.4851 2.7925,-15.0343 2.8199,-31.4463 0.025,-15.1209 -0.3831,-20.6918 -2.2354,-30.5 -3.249,-17.2045 -6.5741,-29.1324 -11.2251,-40.267 -6.1353,-14.6883 -4.9799,-13.9449 -16.8211,-10.8216 -8.1616,2.1527 -10.4259,2.4208 -12.4925,1.4792 -5.31378,-2.4211 -5.49288,-10.0823 -0.2988,-12.7836 1.1767,-0.612 8.6645,-2.9162 16.6395,-5.1205 63.6943,-17.6046 130.37641,-32.3654 212.50001,-47.0391 18.7,-3.3413 46.6,-8.7141 62,-11.9395 15.4,-3.2255 43.3,-8.61598 62,-11.97898 72.8365,-13.0986 94.3831,-17.855 154.5,-34.1062 88.2144,-23.8466 158.2434,-44.3245 186.5,-54.5364 29.4112,-10.6292 67.1902,-37.0592 75.6465,-52.9219 3.8492,-7.2204 5.1687,-14.6193 4.646,-26.0522 -0.818,-17.8955 -7.3449,-32.1398 -20.8084,-45.4122 -13.6544,-13.4606 -32.8537,-22.6371 -59.9841,-28.6699 -8.525,-1.8957 -16.6683,-4.0348 -18.0963,-4.7537 -2.1829,-1.0988 -4.2529,-1.0215 -13,0.4858 -5.722,0.986 -19.8537,2.7343 -31.4037,3.8851 -25.3062,2.5214 -46.8413,5.2924 -67,8.621 -8.25,1.3623 -26.1874,4.266 -39.8608,6.4527 -75.2165,12.0288 -122.4043,21.4143 -165.6121,32.9396 -54.9991,14.6706 -81.539,20.1851 -125.5271,26.0823 -12.65,1.6959 -33.35,4.8205 -46,6.9434 -25.6472,4.3042 -45.5837,6.6308 -65,7.5853 -12.3505,0.6072 -13.1374,0.5303 -15.75,-1.5388 -4.65911,-3.6899 -3.31301,-10.0974 2.4923,-11.8639 1.7917,-0.5452 9.4337,-1.267 16.9823,-1.6042 17.1339,-0.7652 30.8411,-2.4524 65.1976,-8.0254 14.8928,-2.4157 35.8097,-5.5706 46.4819,-7.0109 35.7392,-4.8231 65.3673,-10.9322 107.2448,-22.1134 40.7464,-10.8791 42.7152,-11.3647 62.5311,-15.4234 27.4755,-5.6274 78.9915,-14.7645 129.82,-23.0256 45.3846,-7.3762 54.3573,-8.6173 86.5428,-11.9705 41.47,-4.3204 69.1658,-9.9988 99.9572,-20.4939 28.904,-9.8518 45.2971,-18.9967 59.7898,-33.3536 12.5603,-12.4428 20.1843,-26.4945 25.6775,-47.3259 5.0925,-19.3123 5.0016,-32.1277 -0.318,-44.7886 -5.6518,-13.4518 -16.3062,-25.6109 -30.5199,-34.83 -14.3429,-9.3031 -40.9258,-20.0012 -58.6295,-23.5951 -22.4279,-4.553 -30.8491,-5.1121 -75.4999,-5.0124 -51.8476,0.1158 -85.3301,1.8782 -140.5,7.3957 -59.0638,5.9069 -58.6024,5.8675 -82,6.9998 -37.6269,1.8209 -55.6322,3.0091 -91.5,6.0384 -19.25,1.6258 -50.525,3.8547 -69.5,4.953 -52.7938,3.056 -66.3857,4.5373 -119.5269,13.0268 -17.0647,2.7262 -36.862,5.6392 -43.99381,6.4735 -15.2495,1.7838 -39.7076,1.9917 -46.0624,0.3916 -7.5741,-1.9072 -10.6342,-8.1177 -6.2948,-12.7755 1.9901,-2.1361 2.5652,-2.2256 9.25,-1.4385 17.0115,2.0029 40.5583,0.076 81.62791,-6.6809 50.3583,-8.2848 72.6317,-10.7422 122.5,-13.5152 15.4,-0.8563 41.275,-2.6726 57.5,-4.0362 44.1539,-3.7108 51.6498,-4.2602 74,-5.4238 49.2048,-2.5618 58.4043,-3.2183 92.5,-6.60178 32.5549,-3.23053 36.8134,-3.86429 44.5,-6.62252 9.7648,-3.50397 16.7768,-6.86837 22.5225,-10.80646 2.2124,-1.51636 5.608,-3.41944 7.5457,-4.22908 7.9568,-3.32458 21.4327,-18.83673 28.4464,-32.74486 12.3607,-24.51106 11.0866,-45.87508 -3.918,-65.70161 -14.6547,-19.36413 -36.5439,-27.19482 -97.0966,-34.73566 -65.0791,-8.10453 -116.974,-10.83184 -296,-15.5561 -40.1852,-1.06043 -52.8757,-1.73648 -94.00001,-5.00755 -50.9717,-4.05433 -105.07618,-5.95841 -189.99998,-6.68658 -69.05115,-0.59207 -96.02298,-0.0419 -181.5,3.70196 -24.475,1.07201 -55.65168,2.42777 -69.28151,3.0128 -29.7805,1.27827 -64.62369,0.18518 -120.21849,-3.77144 -33.74338,-2.40149 -43.71284,-2.70627 -89,-2.72085 -34.2351,-0.011 -63.16277,0.56214 -88,1.7436 -20.35,0.96801 -47.35,2.21951 -60,2.7811 -37.33424,1.65746 -54.70097,3.9948 -118.499997,15.94857 -33.13636,6.20863 -48.71022,9.71925 -55.26348,12.45738 -4.80089,2.00594 -7.01927,1.93576 -9.7923996,-0.30979 -2.80291,-2.26966 -3.03835,-7.28924 -0.47476,-10.12197 4.3438096,-4.79986 20.3812296,-8.74668 79.1692996,-19.4836 37.832357,-6.90962 62.084597,-10.48701 81.361337,-12.0014 7.66778,-0.60238 78.07282,-3.64871 131,-5.66819 38.1111,-1.45415 80.47044,-0.58619 125.5,2.57155 77.70818,5.44937 91.6418,5.52835 189.5,1.07413 79.16086,-3.60318 95.67702,-4.01113 162,-4.00147 85.99263,0.0125 154.45118,2.22482 215.99998,6.98018 37.39671,2.88933 62.60691,4.1922 96.50001,4.98715 175.905,4.1258 249.7145,8.61911 322.5,19.63284 25.5555,3.86701 45.225,10.22593 58.6141,18.9493 14.4283,9.40039 27.7072,27.2225 31.9831,42.92565 2.6515,9.73737 2.4451,26.24632 -0.456,36.48185 -6.2297,21.97956 -21.7915,45.03877 -37.5931,55.70476 l -6.0481,4.08244 11,-0.6138 c 6.05,-0.33759 27.4381,-1.12756 47.5292,-1.75548 71.9613,-2.24908 105.3729,2.21517 143.3833,19.15803 34.5604,15.405 54.7234,36.3356 61.747,64.0974 6.3056,24.9236 -5.9103,68.0212 -25.7181,90.7332 -18.4684,21.1761 -40.5875,34.0096 -79.4414,46.0919 -7.425,2.3089 -14.1541,4.4039 -14.9535,4.6556 -0.7994,0.2516 3.9176,2.2574 10.4823,4.4572 31.5376,10.5683 52.1703,26.3704 63.9076,48.9456 11.3697,21.8679 12.6556,47.2443 3.3531,66.1694 -4.3274,8.8036 -20.5616,24.7122 -36.7895,36.0516 -20.1029,14.047 -35.2901,21.0898 -69.301,32.1373 -16.0595,5.2164 -34.599,11.0534 -41.199,12.9712 -44.2317,12.8523 -59.8437,17.2582 -82,23.141 -13.75,3.6508 -37.9892,10.2133 -53.8648,14.5832 -45.4989,12.5241 -75.153,18.9611 -147.1352,31.93848 -18.7,3.3713 -45.475,8.544 -59.5,11.4949 -14.025,2.9509 -40.8,8.1131 -59.5,11.4717 -47.5636,8.5426 -112.916,21.4313 -114.3121,22.5445 -0.7786,0.6208 31.321,102.2518 35.3142,111.8089 l 1.5046,3.6008 4.6978,-2.9793 c 8.5237,-5.4055 14.8119,-7.2141 26.7955,-7.707 18.4835,-0.7603 40.1928,4.9382 64.127,16.8325 l 12.127,6.0267 16.873,-10.079 c 29.1812,-17.4313 80.6788,-42.5733 136.4774,-66.6306 45.8307,-19.7596 56.6998,-24.0662 81.9711,-32.4782 49.5464,-16.4926 87.2198,-23.9368 121.1379,-23.9368 19.5169,0 30.696,1.5549 58.0055,8.0677 34.4863,8.2244 53.5776,14.3544 106.2811,34.1252 59.9864,22.5029 80.3028,33.013 171.5,88.7205 28.7086,17.5366 50.4682,31.7278 88.0274,57.4095 16.8202,11.5011 33.4769,21.4338 74.9726,44.7072 40.1181,22.5008 46.2302,26.0817 72.5,42.4758 24.0687,15.0205 30.8132,18.8818 62.2188,35.6206 46.2151,24.6322 71.9753,39.47 118.7812,68.4177 17.05,10.5449 40.225,24.2635 51.5,30.486 11.275,6.2224 25.675,14.194 32,17.7146 19.6377,10.9306 50.3947,25.8159 62.2085,30.1068 28.0898,10.2023 39.2731,14.3239 52.7915,19.4561 26.6784,10.1282 65.7442,21.011 92,25.6289 29.0916,5.1167 67.9806,6.9717 108,5.1518 53.9781,-2.4547 75.1151,-5.9496 106.6732,-17.6377 14.332,-5.3081 40.4544,-18.2677 50.8268,-25.2156 19.0164,-12.7381 51.1176,-43.4399 65.8269,-62.9572 39.8449,-52.8691 71.1016,-124.4669 81.7555,-187.2729 1.1658,-6.8722 2.702,-13.6222 3.4138,-15 0.7118,-1.3777 1.7762,-4.305 2.3653,-6.505 1.6209,-6.053 10.2518,-55.3417 17.1607,-98 3.3849,-20.9 7.9118,-47.8655 10.0598,-59.9233 3.8262,-21.4787 3.9268,-22.6648 4.9635,-58.5 1.4539,-50.26218 0.2653,-84.83378 -4.1704,-121.28858 -2.015,-16.5609 -2.0476,-17.8758 -0.5024,-20.2341 3.1004,-4.7318 10.5267,-4.6114 12.9863,0.2105 1.2937,2.5362 3.2731,16.1373 5.7101,39.2355 1.7209,16.3116 2.2948,88.92168 1.0314,130.49998 -2.7612,90.8707 -3.6125,105.8512 -6.301,110.8746 -0.5675,1.0605 -2.0898,16.5975 -3.3828,34.5268 -8.3433,115.6932 -16.5847,179.4952 -27.72,214.5986 -1.9192,6.05 -3.7222,12.6226 -4.0068,14.6059 -0.814,5.6729 -9.137,26.0418 -16.4834,40.3396 -19.6587,38.2604 -56.3992,83.0019 -91.2065,111.0686 -16.3642,13.1952 -42.6648,29.024 -62,37.3142 -43.6848,18.7305 -92.809,27.2005 -150,25.8632 -26.2839,-0.6147 -33.2068,-1.3084 -82.5,-8.2675 -51.8406,-7.3187 -70.4665,-11.6799 -91.5,-21.4244 -125.4074,-58.0997 -148.9379,-70.0863 -202.5,-103.1549 -102.2541,-63.1306 -96.3461,-59.3469 -133.7414,-85.6538 -28.7648,-20.2355 -49.4705,-34.4231 -108.2586,-74.1793 -18.15,-12.2742 -38.85,-26.6057 -46,-31.8478 -28.1747,-20.6565 -42.0646,-30.4919 -68,-48.1505 -14.85,-10.111 -33.525,-23.0259 -41.5,-28.6999 -27.7599,-19.7504 -98.4236,-65.9338 -160.851,-105.1268 -19.5982,-12.304 -62.8692,-34.0543 -76.7814,-38.5943 -2.8228,-0.9212 -5.8838,-2.5052 -6.8022,-3.52 -4.1722,-4.6102 -57.5235,-20.5275 -94.0654,-28.0642 -9.8372,-2.0289 -29.4319,-4.4095 -30.1754,-3.666 -0.4902,0.4901 17.9599,16.1007 28.1754,23.8391 7.6453,5.7914 52.6661,37.4864 75.5,53.1525 24.0918,16.5292 29.1579,20.4476 39.3871,30.464 22.6131,22.1427 41.8479,51.874 47.7381,73.7891 2.7897,10.379 3.0159,27.1181 0.491,36.3332 -9.2977,33.9339 -43.5026,59.0758 -83.9151,61.6808 -23.1314,1.491 -47.7902,-4.6663 -77.0018,-19.2273 -16.4452,-8.1974 -71.9817,-40.2644 -99.6993,-57.5668 -43.0564,-26.8775 -58.562,-35.4992 -95.5,-53.1013 -14.3,-6.8144 -34.55,-17.0255 -45,-22.6914 -41.8671,-22.6998 -52.6408,-27.5782 -65.4066,-29.6162 -4.2958,-0.6858 -4.3899,-0.6431 -3.7433,1.6994 1.6216,5.8745 5.7993,30.2466 7.1595,41.7679 0.8204,6.9492 2.8444,30.1849 4.4978,51.6349 1.6535,21.45 3.5101,45.3 4.1259,53 1.1898,14.8772 0.5825,46.152 -1.1775,60.6418 -2.0072,16.5252 -8.585,31.5753 -21.0645,48.1961 -14.4379,19.2292 -35.3842,35.9381 -60.2803,48.0857 -22.5073,10.9821 -39.2894,15.2285 -56.1928,14.2185 l -10.0818,-0.6025 1.0123,6.2302 c 0.5567,3.4266 1.0071,18.6052 1.0009,33.7302 -0.01,24.9409 -0.2094,28.2215 -2.1405,35.2538 -2.7887,10.1553 -6.1679,15.8272 -14.1531,23.7556 -9.9891,9.9181 -24.4611,16.7663 -48.556,22.9768 -18.8665,4.8629 -31.9789,6.457 -53.00001,6.4433 -29.6889,-0.019 -50.7757,-4.0154 -78.2377,-14.8263 -7.8285,-3.0817 -15.0476,-5.6032 -16.0425,-5.6032 -1.0131,0 -3.5488,2.3094 -5.7643,5.25 -6.69648,8.888 -29.54669,31.5641 -36.94417,36.6625 -34.58622,23.8376 -85.54592,40.1173 -200.93921,64.1925 -106.37853,22.1945 -163.82352,30.6233 -238.0721,34.932 -24.12466,1.3999 -109.15695,2.0095 -133.63267,0.9579 z M 2709.3477,1628.305 c 95.7663,-8.7032 160.0578,-44.9843 219.0979,-123.6418 18.2908,-24.3683 35.7341,-57.0245 39.9786,-74.8455 0.6498,-2.7284 2.8902,-10.3607 4.9787,-16.9607 8.8545,-27.9826 15.9278,-74.6707 22.4723,-148.3308 1.3521,-15.2181 2.4275,-28.7942 2.3898,-30.1692 -0.038,-1.375 -1.3519,3.2062 -2.9205,10.1805 -1.5686,6.9743 -3.3479,13.6071 -3.954,14.7396 -0.6061,1.1325 -1.9784,6.9013 -3.0494,12.8195 -12.7068,70.2115 -50.8351,152.1194 -94.5733,203.1638 -13.2482,15.4613 -36.4554,37.2122 -51.6591,48.4175 -25.2059,18.5769 -65.8505,36.1181 -101.084,43.6253 -22.2923,4.7498 -58.6731,7.3135 -103.677,7.3059 -50.9715,-0.01 -83.7593,-4.1229 -118,-14.8071 -33.6162,-10.4893 -53.5347,-17.0822 -62.5,-20.6871 -5.5,-2.2116 -14.95,-5.6902 -21,-7.7303 -33.9316,-11.4419 -55.1057,-21.3526 -107.5,-50.3163 -35.2774,-19.5015 -40.8844,-22.7953 -76.9986,-45.2333 -29.2537,-18.1754 -61.8459,-36.9805 -93.5014,-53.9486 -42.9225,-23.0074 -55.2707,-30.0108 -78.5,-44.522 -12.925,-8.0741 -34.075,-20.6669 -47,-27.9839 -12.925,-7.3171 -33.85,-19.17 -46.5,-26.34 -29.8292,-16.9069 -42.1963,-24.6568 -69.1743,-43.3484 -27.4672,-19.0306 -70.6397,-46.5721 -66.8257,-42.6309 0.55,0.5684 5.95,4.3213 12,8.3399 6.05,4.0186 18.65,12.703 28,19.2986 9.35,6.5956 32.75,22.788 52,35.9832 28.7242,19.6894 52.3044,36.4527 79,56.1617 1.65,1.2182 25.5,17.4249 53,36.015 27.5,18.5901 63.275,43.11 79.5,54.4887 35.2178,24.6985 51.343,35.5051 71.7679,48.0965 8.3974,5.1767 25.2724,15.6383 37.5,23.2481 84.1288,52.3565 106.5166,64.236 214.2321,113.6759 32.1693,14.7653 49.3333,19.8656 85.5,25.4064 23.6014,3.6158 66.9403,9.4666 77.5,10.4626 13.1321,1.2386 56.1527,1.2802 69.5,0.067 z m -1692.9738,-34.9955 c 20.4977,-2.5337 44.018,-8.9555 57.3803,-15.6665 8.6913,-4.3651 16.8432,-12.0071 20.0585,-18.8035 3.9663,-8.3841 4.8225,-17.3026 4.2709,-44.4825 -0.706,-34.78 -3.3019,-47.5257 -13.8498,-68 -6.9661,-13.5217 -12.4958,-21.2044 -19.3861,-26.9342 -13.4131,-11.1541 -38.7519,-18.2239 -54.0081,-15.0689 -8.9529,1.8514 -14.32451,4.7725 -21.08891,11.4681 -5.8393,5.78 -6.3196,6.6478 -11.364,20.535 -20.5791,56.6537 -40.75,98.0577 -63.074,129.4689 -3.4036,4.7892 -5.8007,9.0429 -5.3267,9.4526 2.7218,2.353 31.7439,12.2964 43.8617,15.0276 16.4387,3.7053 45.5402,5.1031 62.52621,3.0034 z m 133.4738,-131.3206 c 44.581,-15.0016 81.803,-48.4573 91.9344,-82.6319 3.2654,-11.0148 4.7037,-53.1846 2.5922,-76 -0.5345,-5.775 -2.3456,-28.05 -4.0248,-49.5 -3.8761,-49.5149 -6.3106,-68.8152 -10.693,-84.7735 -1.2648,-4.6055 -1.9269,-5.6651 -3.2732,-5.2378 -2.9958,0.9508 -24.1524,12.4111 -38.282,20.7369 l -13.7465,8.1 9.803,10.0872 c 5.8265,5.9954 12.711,14.4953 16.9718,20.9541 9.3081,14.1097 21.5514,38.3577 21.5514,42.6826 0,5.3977 -5.5175,8.5279 -10.4134,5.9077 -1.0717,-0.5736 -4.9045,-6.9418 -8.5173,-14.1515 -15.2328,-30.3988 -28.3907,-47.0315 -46.9026,-59.2892 -24.1338,-15.9801 -60.1198,-27.0208 -76.791,-23.5599 -17.6934,3.6732 -36.4663,20.8031 -47.7196,43.5434 -6.4971,13.1291 -8.9791,23.5104 -9.6888,40.5245 -1.211,29.0336 4.2496,51.1582 20.7605,84.1143 9.535,19.0322 35.0945,64.2097 43.6569,77.1655 9.1343,13.821 13.4991,22.5399 17.7219,35.4001 2.6792,8.1593 2.717,8.2099 6.877,9.2011 2.3007,0.5481 9.3581,0.8687 15.6831,0.7123 10.1847,-0.2519 12.7581,-0.7077 22.5,-3.9859 z m -104.509,-83.7024 c -15.6534,-27.8412 -25.8955,-49.7604 -30.5728,-65.4295 -0.9851,-3.3 -2.0744,-6.3447 -2.4206,-6.766 -0.3463,-0.4213 -1.8103,6.1037 -3.2534,14.5 -2.662,15.4874 -9.60931,46.544 -14.24151,63.6627 -1.3984,5.1682 -2.4018,9.5375 -2.2298,9.7096 0.1721,0.172 3.8936,-0.8477 8.27001,-2.2661 11.1537,-3.6149 23.9003,-3.6069 38.8025,0.024 5.965,1.4535 11.59,3.0632 12.5,3.5769 0.91,0.5138 1.7929,0.5473 1.9618,0.075 0.169,-0.4728 -3.7983,-8.1617 -8.8162,-17.0866 z m 601.8354,-51.8762 c 31.3136,-8.987 52.3145,-31.6139 53.9115,-58.0854 1.2557,-20.8157 -11.4959,-47.3411 -36.8098,-76.5702 -10.0506,-11.6051 -19.8474,-19.7273 -42.9281,-35.5903 -60.6085,-41.6552 -89.2614,-62.6375 -105.75,-77.4398 -6.5905,-5.9164 -7.25,-6.8548 -7.25,-10.3152 v -3.8067 l -4.75,0.4369 c -46.2023,4.2494 -101.1994,19.7351 -158.25,44.5589 -11.275,4.9059 -27.25,11.7658 -35.5,15.2442 -17.4374,7.3519 -49.5315,22.1458 -50.8039,23.4182 -0.4973,0.4973 2.7158,2.0454 7.4655,3.5972 8.6833,2.8368 21.8909,9.4049 52.3384,26.0273 9.9,5.4048 30.5875,15.8362 45.9722,23.1808 38.0249,18.1531 51.7613,25.8076 97.9533,54.5838 32.4401,20.2092 89.487,52.8428 103.5745,59.2496 13.1817,5.9949 27.75,10.8556 38.8343,12.9571 10.9442,2.0749 32.2839,1.3399 41.9921,-1.4464 z m -619.082,-129.5533 c 1.9555,-2.75 5.6702,-7.475 8.2548,-10.5 l 4.6992,-5.5 -3.8642,-10.5 c -4.6672,-12.6819 -21.2001,-64.1637 -27.9393,-87 -5.4573,-18.4928 -7.7321,-24.2739 -9.31551,-23.6744 -0.5937,0.2248 -4.8009,1.2106 -9.3495,2.1906 -6.6712,1.4373 -8.1743,2.0913 -7.7746,3.3828 0.2725,0.8805 1.8439,6.776 3.4921,13.101 1.6481,6.325 5.0462,18.025 7.5514,26 5.9563,18.9618 14.96261,55.3562 17.44611,70.5 1.7864,10.8931 5.0304,36.8176 5.068,40.5 0.01,0.825 1.8514,-1.875 4.0956,-6 2.2443,-4.125 5.6804,-9.75 7.6359,-12.5 z m 1661.2556,96.8834 c -61.9545,-5.6588 -111.0609,-18.3621 -165,-42.6839 -28.9649,-13.0606 -49.8082,-22.9593 -64.5,-30.6316 -58.2201,-30.4038 -65.3079,-34.3106 -80.5,-44.3714 -21.2909,-14.0997 -42.7319,-33.2405 -51.2199,-45.7251 -3.7043,-5.4484 -8.7719,-21.1336 -8.7776,-27.1682 0,-2.8604 -5.2191,-20.0175 -30.4964,-100.3032 -8.6581,-27.49998 -18.6347,-59.22498 -22.1702,-70.49998 -3.5355,-11.275 -13.7767,-42.325 -22.7581,-69 -38.7047,-114.9537 -52.406,-162.0799 -62.0719,-213.5 -4.7981,-25.5244 -8.3162,-40.9421 -16.0123,-70.1727 l -4.7847,-18.1727 -6.6045,-1.1235 c -23.8207,-4.0525 -90.7967,-22.7201 -131.1044,-36.54167 -13.1343,-4.50375 -43.8271,-16.56965 -61,-23.98018 -12.9254,-5.57765 -48.7257,-19.61937 -65,-25.49456 -7.975,-2.87905 -18.2748,-6.98515 -22.8884,-9.12466 -4.6137,-2.13952 -8.6213,-3.89003 -8.906,-3.89003 -0.7173,0 0.6528,42.76093 1.8584,58 2.468,31.1961 9.0498,78.7125 15.0147,108.3964 5.9605,29.6619 22.3325,92.2572 42.2679,161.6036 4.6644,16.225 11.6935,41.1359 15.6203,55.3575 7.2575,26.2841 20.0379,69.7514 24.692,83.98 2.3094,7.0603 2.7757,7.7756 4.7024,7.2123 11.9156,-3.4835 61.5176,-15.2547 77.6387,-18.4246 51.1246,-10.0527 74.8675,-12.8006 88.463,-10.2382 19.2876,3.6352 32.9048,17.3522 35.801,36.0633 1.4972,9.6726 0.014,17.9057 -5.1726,28.7152 -9.2316,19.239 -26.4692,31.05578 -62.5079,42.85058 -28.4797,9.3209 -58.3443,16.8069 -87.3757,21.9021 -7.3107,1.2831 -13.4799,2.5206 -13.7093,2.75 -0.2294,0.2294 2.9555,11.1979 7.0776,24.3744 4.1222,13.1766 9.5398,30.9324 12.0393,39.4574 11.1533,38.0407 27.0737,88.2547 35.3222,111.4086 2.6994,7.5774 3.0031,9.3205 2.0322,11.6642 -2.5456,6.1458 -10.3861,5.7843 -13.4246,-0.6188 -4.1381,-8.7205 -22.589,-66.215 -40.4206,-125.954 -11.4792,-38.4573 -25.039,-80.3835 -39.5422,-122.26228 -12.2475,-35.3654 -26.1399,-79.9029 -36.5694,-117.2377 -2.8424,-10.175 -10.9473,-38.975 -18.0111,-64 -36.8385,-130.51 -43.3548,-157.6401 -51.5198,-214.5 -6.1627,-42.9163 -7.5908,-59.91952 -8.1908,-97.51745 -0.8665,-54.29905 3.0412,-105.87101 12.236,-161.48255 4.3263,-26.16566 11.6214,-52.14646 16.1552,-57.53454 3.0811,-3.66162 7.0741,-3.9179 10.1432,-0.65101 2.6775,2.85008 2.7271,5.20911 0.242,11.51387 -5.4122,13.73084 -11.5891,42.88174 -16.0344,75.67168 -4.0332,29.7506 -9.0126,88.50559 -7.7742,91.73281 0.9306,2.42524 18.2767,10.57936 36.7409,17.27133 17.2005,6.23398 38.9306,14.86962 90,35.76634 25.3558,10.37519 41.6005,15.93686 82.5,28.24555 48.5373,14.60727 76.842,21.48397 88.4286,21.48397 2.655,0 6.3539,0.6379 8.22,1.4176 6.6484,2.7779 41.5079,6.4022 83.3514,8.666 30.6647,1.659 140.709,2.3197 172,1.0327 29.2827,-1.2045 101.8653,-6.1888 126,-8.6526 37.4882,-3.827 67.3671,-8.3697 85.8776,-13.0565 11.3081,-2.8632 30.3464,-8.90584 32.5702,-10.33761 1.7944,-1.15524 0.8089,-1.38414 -15.4478,-3.58797 -16.4094,-2.22454 -36.0028,-5.86047 -54.5,-10.11348 -65.7465,-15.11696 -213.5816,-68.4208 -325.5,-117.3632 -11.55,-5.05087 -31.575,-13.46429 -44.5,-18.69649 -12.925,-5.23221 -26.65,-10.8737 -30.5,-12.53666 -20.4664,-8.8402 -86.8383,-40.85139 -110.4763,-53.28271 -9.638,-5.0687 -39.7987,-20.46291 -67.0237,-34.20935 -66.6528,-33.6543 -81.3712,-41.66938 -118,-64.2584 -65.6,-40.45556 -158.2323,-89.35106 -195.5554,-103.22295 -49.7537,-18.492006 -91.8273,-25.030986 -111.1948,-17.281656 -7.3283,2.9322 -18.7294,21.786476 -39.7886,65.799366 -6.2675,13.09884 -13.4573,26.91748 -15.9773,30.70808 -10.3276,15.53501 -20.9753,20.21962 -33.1125,14.56832 -2.8207,-1.31339 -14.9707,-8.64451 -27,-16.29137 -30.1418,-19.16079 -33.8811,-21.36287 -76.6337,-45.12944 -20.7274,-11.52256 -41.6353,-22.60564 -46.462,-24.62909 -16.0243,-6.71778 -40.1646,-12.48686 -67.8942,-16.225506 -16.6647,-2.24682 -93.6244,-2.58379 -113.3815,-0.49645 -34.9074,3.687956 -63.531,11.229186 -105.0405,27.674146 -31.3511,12.42045 -47.6646,21.29818 -85.45951,46.50649 -70.3324,46.91012 -108.59779,64.25284 -157.62832,71.44063 -12.49313,1.83148 -44.58608,2.08904 -64.92177,0.52103 -15.85672,-1.22265 -99.23497,-10.41225 -112.94989,-12.44886 -34.76096,-5.16186 -79.67847,-8.87278 -128.5,-10.6162 -36.85705,-1.31616 -153.80424,-0.63689 -181.5,1.05422 -67.20619,4.10362 -141.42853,15.17911 -204.51559,30.51789 -52.592407,12.78715 -97.464187,25.86494 -120.193617,35.03019 -9.8321096,3.96462 -13.0879796,4.29439 -16.3466696,1.65566 -2.55017999,-2.06501 -3.08778999,-7.07287 -1.02599,-9.55718 3.04589,-3.67007 36.6808696,-15.46851 71.5818696,-25.10939 90.468217,-24.9905 159.506667,-37.94787 239.499997,-44.95016 57.95454,-5.0731 184.18809,-5.81773 254.5,-1.50124 24.89984,1.52861 47.63426,3.7484 77,7.51829 14.85,1.90639 47.25,5.69787 72,8.42551 83.66294,9.22028 101.59769,9.10245 140.90377,-0.92573 19.20245,-4.89913 32.53733,-10.05934 53.09621,-20.54664 20.701,-10.5598 35.2745,-19.36605 72,-43.50706 38.84671,-25.53532 49.36711,-31.47133 74.55061,-42.06411 44.4088,-18.679386 76.6694,-28.059136 111.4494,-32.403806 11.3738,-1.4208 43.4937,-3.53248 53.75,-3.53373 3.2963,-4e-4 4.75,-0.40948 4.75,-1.33669 0,-0.73487 2.2666,-4.1604 5.037,-7.61229 6.8416,-8.52489 9.1402,-13.39058 9.7164,-20.56765 1.3302,-16.57205 -14.0751,-28.5604 -46.4618,-36.15649 -10.135,-2.37709 -36.9414,-2.3586 -57.2916,0.0395 -39.6982,4.67814 -77.6219,15.22045 -132.5,36.83334 -57.52121,22.65384 -76.20091,29.01844 -109.15711,37.19234 -45.76692,11.351246 -79.36548,14.812886 -161.34288,16.623056 -43.74795,0.96601 -52.98265,1.64058 -88.7578,6.48348 -30.19301,4.08724 -47.93935,4.89768 -77.57418,3.54265 -26.947,-1.23213 -38.06567,-0.95513 -62.66802,1.56124 -21.72924,2.2225 -97.46393,13.76824 -130.45271,19.88749 -15.97601,2.96347 -38.21254,7.00017 -49.41452,8.97044 -36.46492,6.41368 -58.11981,11.6105 -98.13277,23.55024 -94.01244,28.05301 -166.028397,58.27648 -197.274377,82.79158 -6.70429,5.26008 -10.89564,5.94036 -13.88145,2.25303 -4.56978,-5.64343 -0.78356,-10.72632 16.51648,-22.17292 35.3645,-23.39897 104.647757,-51.37687 191.513487,-77.33678 40.12243,-11.99062 58.96931,-16.47062 100.69566,-23.93585 13.71161,-2.45313 37.3052,-6.72506 52.4302,-9.49317 30.01754,-5.49369 31.98029,-5.80992 81,-13.0506 53.19988,-7.85814 57.80682,-8.18015 112.67052,-7.87541 l 47.82948,0.26567 32,-4.312106 c 30.36556,-4.09185 33.81321,-4.35531 67.5,-5.15809 98.19668,-2.34009 130.46061,-5.64716 180.69018,-18.52086 27.3953,-7.02132 46.5831,-13.80765 114.30981,-40.42896 39.2411,-15.42447 82.8477,-27.2445202 116,-31.4430602 31.8573,-4.03453 54.4809,-3.93496003 72.3478,0.31841 26.8102,6.38243 42.7877,16.4895502 50.393,31.8779402 3.4807,7.04271 3.7556,8.23971 3.7112,16.15805 -0.055,9.74056 -2.2723,16.6587 -8.0175,25.01073 -1.889,2.74611 -3.4345,5.16615 -3.4345,5.37787 0,0.21173 7.3125,0.69788 16.25,1.08034 45.3066,1.93878 85.3295,9.86476 111.25,22.031516 10.6857,5.01573 77.0801,41.86864 93.5,51.89818 6.325,3.8634 19.4569,12.0885 29.1821,18.278 26.9053,17.12365 25.8322,16.81683 32.9584,9.4235 3.6971,-3.83565 6.9467,-9.41409 14.4178,-24.75 5.3047,-10.88906 11.8884,-24.29828 14.6305,-29.79828 2.742,-5.5 6.0832,-14.21392 7.4248,-19.36426 5.0934,-19.553116 16.3143,-45.418346 25.4139,-58.581466 13.4596,-19.46993 34.344,-32.73321 61.7185,-39.19615 14.7146,-3.4740102 44.2017,-4.4116002 61.0187,-1.94019 29.0346,4.26687 59.7689,17.2842 117.2353,49.65418 42.6941,24.04899 57.4861,33.07717 81,49.437716 11.275,7.84495 26.4812,18.17044 33.7915,22.94553 14.0497,9.17726 136.1841,82.60904 164.833,99.10379 17.0665,9.82616 118.554,61.8942 154.2733,79.14981 48.6374,23.49615 108.8656,47.57816 179.6022,71.8133 116.1712,39.80151 127.4809,43.17028 167.5,49.89246 64.4137,10.81986 118.462,13.15995 161,6.97071 25.5693,-3.7203 44.9111,-8.55413 63.8352,-15.95339 6.2344,-2.43762 12.3435,-4.43204 13.5757,-4.43204 2.7478,0 6.5891,3.89405 6.5891,6.67959 0,3.94153 -3.7903,6.98569 -13.9453,11.20012 -25.4694,10.57004 -60.4998,17.60096 -100.2521,20.12146 -38.6362,2.44974 -102.1275,-3.32321 -155.3026,-14.12089 -24.8293,-5.0418 -46.5162,-11.55293 -98.1319,-29.46244 -24.6775,-8.56252 -55.2181,-19.08218 -67.8681,-23.37704 -28.6616,-9.73102 -36.0747,-12.45969 -66,-24.2938 -58.3082,-23.05827 -83.8281,-34.61677 -144.5,-65.44716 -104.5395,-53.12166 -92.7238,-46.60423 -188.5,-103.97511 -72.5166,-43.43816 -83.2427,-50.09872 -105.5,-65.51207 -39.0118,-27.01599 -44.9388,-30.70847 -90.5,-56.380856 -55.8307,-31.45894 -84.8657,-44.22302 -111.7109,-49.10919 -14.2339,-2.59076 -41.1975,-2.32632 -54.5914,0.5354 -20.5638,4.39363 -34.8688,11.24314 -46.8962,22.4548 -8.4908,7.91498 -20.0067,25.31537 -18.0494,27.27265 0.2868,0.28672 4.2651,-0.23726 8.8407,-1.1644 11.7586,-2.3826 36.7851,-1.47923 53.4072,1.9278 24.4932,5.02037 56.0131,15.10519 81,25.915966 35.4241,15.32655 126.1062,64.67866 180.7272,98.3576 33.1419,20.43503 56.2986,32.93643 123.2728,66.55001 22,11.04155 49.225,24.92655 60.5,30.85554 19.2732,10.13489 79.6227,39.36882 99.5,48.19889 4.95,2.19893 20.925,8.84989 35.5,14.7799 14.575,5.93002 37.3,15.49893 50.5,21.26424 83.1994,36.33871 194.6993,78.16597 271.3499,101.79231 42.3894,13.06584 78.9483,20.67364 125.6501,26.14741 14.5816,1.70906 71.9436,1.68995 88,-0.0293 34.1942,-3.66141 64.0418,-10.96792 99.2594,-24.29813 5.6427,-2.1358 11.0945,-3.88328 12.1152,-3.88328 3.1168,0 7.1288,3.85868 7.0936,6.82258 -0.063,5.29578 -2.2748,6.71505 -21.0689,13.51901 -37.2875,13.49906 -68.0722,20.31519 -102.3993,22.67254 -8.8,0.60433 -19.3007,1.34035 -23.335,1.63561 l -7.335,0.53683 0.6626,2.65674 c 0.3644,1.4612 3.9611,9.8567 7.9926,18.6567 14.8509,32.4166 17.5487,38.5588 23.3344,53.1263 6.466,16.2805 13.5174,37.2748 29.6823,88.3737 12.8277,40.5499 18.4416,56.8651 30.7957,89.5 13.684,36.1481 18.709,51.1813 26.6286,79.6648 15.0392,54.0901 24.1025,104.1812 27.1331,149.95908 1.6025,24.2074 0.7331,84.9296 -1.4731,102.8761 -5.1043,41.5225 -14.467,78.3345 -25.2176,99.1496 -20.699,40.0769 -65.1824,70.2418 -117.8686,79.9284 -10.73,1.9728 -37.9673,3.2675 -48.5,2.3054 z m 49.394,-17.365 c 15.0583,-3.224 27.8706,-7.5941 41.106,-14.0206 25.849,-12.5511 47.0838,-30.7245 58.705,-50.2416 8.7855,-14.7546 16.4787,-37.6093 22.3027,-66.2562 9.4952,-46.7045 10.8312,-112.7486 3.4453,-170.31218 -8.3463,-65.0481 -23.7509,-123.1158 -53.3071,-200.9409 -5.2749,-13.8892 -13.6866,-37.9642 -18.6927,-53.5 -35.8993,-111.4072 -35.6625,-110.7502 -56.004,-155.3828 -7.2352,-15.8753 -13.6651,-31.0016 -14.2887,-33.6141 l -1.1338,-4.75 h -7.0416 c -6.4913,0 -8.5635,0.6192 -26.5134,7.9232 -30.757,12.5151 -49.2765,17.2765 -89.4717,23.0032 -41.4161,5.9006 -121.5669,12.2096 -180.5,14.2079 -39.6102,1.3431 -122.2825,0.5604 -163,-1.5432 -34.3557,-1.775 -38.0602,-2.0641 -59.8942,-4.6754 -9.0168,-1.0783 -16.596,-1.7589 -16.8425,-1.5123 -0.2466,0.2465 2.0909,10.1371 5.1944,21.979 6.1523,23.4751 9.5798,38.9764 15.0618,68.1176 8.2362,43.7826 22.2427,91.3112 60.1178,204 7.9489,23.65 18.5017,55.825 23.4507,71.5 46.6571,147.77828 52.8703,167.91678 52.9116,171.49998 0.078,6.7829 3.7882,17.5402 7.8768,22.8398 12.9664,16.8068 38.8492,36.6859 70.1236,53.8577 65.3,35.8543 128.4861,65.6622 163.5,77.1306 37.604,12.3169 66.8628,18.4454 110,23.0406 2.2,0.2344 12.775,0.2781 23.5,0.097 15.1218,-0.2552 21.7214,-0.8047 29.394,-2.4474 z m -724.894,-254.0768 c 17.177,-3.0134 45.8196,-9.5088 59.9082,-13.5856 53.2306,-15.40348 70.0478,-24.44268 79.2204,-42.58068 9.2219,-18.2356 3.2733,-36.1299 -14.2098,-42.7447 -5.4544,-2.0637 -7.0958,-2.1988 -20.9188,-1.7221 -15.843,0.5465 -35.3092,3.5828 -74.5,11.6205 -18.8245,3.8608 -69.5336,16.2713 -70.5218,17.2594 -0.266,0.266 5.2551,17.1855 12.2691,37.5989 11.5155,33.51428 12.9467,37.07358 14.7527,36.68728 1.1,-0.2353 7.4,-1.3752 14,-2.533 z m -233.5,-46.59758 c -13.5315,-1.7909 -28.0995,-7.7044 -38.6129,-15.6737 -19.7572,-14.9764 -35.3592,-46.0017 -35.3801,-70.3549 -0.022,-25.939 14.8083,-55.1529 35.4226,-69.7771 13.7004,-9.7194 30.0736,-16.1041 44.0538,-17.1787 9.348,-0.7186 17.1296,1.1198 30.1767,7.1293 32.4913,14.9653 52.4168,40.4403 56.3429,72.035 3.6396,29.2895 -13.0207,65.3581 -37.3899,80.9469 -14.1182,9.0313 -39.1177,14.9241 -54.6131,12.8732 z m 27.8154,-17.3006 c 23.7678,-6.7797 38.1125,-21.5222 46.7469,-48.0434 3.8131,-11.7121 4.0514,-26.9283 0.5952,-38 -6.4407,-20.6324 -20.9739,-36.8915 -42.6575,-47.7236 -19.5287,-9.7556 -29.6026,-9.6694 -50.5,0.4322 -9.8882,4.7798 -12.5631,6.6264 -19.085,13.1752 -13.0785,13.1323 -20.7856,30.0979 -21.6601,47.68 -0.567,11.4018 0.3641,16.9197 4.7936,28.4058 8.8266,22.888 26.0533,39.3522 47.167,45.0791 9.2108,2.4983 23.8038,2.0743 34.5999,-1.0053 z m -671.5198,-14.9827 c -1.863,-1.7355 -2.1481,-3.495 -2.7149,-16.75 -0.7439,-17.4008 -3.4063,-35.2332 -7.1381,-47.8107 -1.4687,-4.95 -2.8716,-9.6919 -3.1175,-10.5375 -0.7391,-2.5411 3.4602,-6.9625 6.6126,-6.9625 4.5115,0 7.802,3.4175 9.9328,10.3162 5.2558,17.0162 8.1295,37.1547 8.1295,56.9701 0,11.6321 -0.1372,12.494 -2.3145,14.5394 -2.8673,2.6937 -6.6492,2.7884 -9.3899,0.235 z m -27.0019,-13.4145 c -1.1121,-1.4138 -3.1943,-8.6309 -5.214,-18.0722 l -3.3624,-15.7184 1.9973,-2.6778 c 2.2037,-2.9544 4.2207,-3.6618 7.8463,-2.7519 3.3149,0.832 4.8117,4.2128 7.8341,17.6945 3.1333,13.9769 3.3403,19.9042 0.7763,22.2246 -2.724,2.4652 -7.6637,2.1157 -9.8776,-0.6988 z m -291.50731,-21.8962 c -0.87773,-0.6875 -5.17966,-8.225 -9.55983,-16.75 -4.38018,-8.525 -9.24952,-17.821 -10.82077,-20.6577 -2.38229,-4.301 -2.69258,-5.6246 -1.86809,-7.969 0.54379,-1.5463 2.22027,-3.5004 3.72551,-4.3424 5.74041,-3.2111 9.92491,1.7392 22.27173,26.3478 4.10579,8.1833 7.46507,16.1708 7.46507,17.75 0,5.4746 -6.95178,8.9595 -11.21362,5.6213 z m 20.53659,-35 c -1.11411,-1.2375 -5.30008,-11.025 -9.30216,-21.75 -15.17548,-40.6681 -32.5246,-77.9362 -53.06953,-114 -13.39834,-23.5189 -30.3238,-49.3853 -36.89314,-56.382 -5.51899,-5.8781 -6.66299,-8.6045 -4.96384,-11.8302 1.61735,-3.0704 2.81777,-3.7544 6.6209,-3.7725 4.38417,-0.021 8.68515,3.9574 17.69303,16.3655 23.3679,32.1887 52.1331,85.3665 72.24406,133.5566 10.35225,24.8061 19.34771,49.5915 19.34771,53.3091 0,6.3901 -7.4068,9.2467 -11.67703,4.5035 z m 692.55212,-24.6501 c -3.0914,-2.5032 -2.909,-7.459 0.5927,-16.0999 1.4488,-3.575 4.395,-12.2966 6.5471,-19.3814 2.1521,-7.0848 4.6739,-13.7223 5.604,-14.75 2.0888,-2.3081 6.1683,-2.4064 9.2844,-0.2238 2.1178,1.4834 2.2969,2.1948 1.8253,7.25 -0.5582,5.9832 -6.0464,24.0208 -10.8652,35.7096 -2.0621,5.0021 -3.6728,7.4434 -5.4431,8.25 -3.4708,1.5813 -4.8282,1.4456 -7.5452,-0.7545 z m -348.2402,-118.1725 c -3.0611,-2.4078 -3.382,-5.8944 -1.2032,-13.0734 0.7755,-2.5553 2.1454,-9.3053 3.0441,-15 2.2791,-14.4416 2.3409,-14.6707 4.5496,-16.8794 2.8996,-2.8996 7.3734,-2.5526 9.9989,0.7754 2.5076,3.1785 2.3104,7.6509 -1.069,24.25 -2.8271,13.8862 -3.8535,16.9891 -6.4921,19.6277 -2.9185,2.9185 -5.3923,3.0025 -8.8283,0.2997 z m 38.4927,-53.7998 c -1.5488,-1.5488 -1.9924,-4.0977 -2.5675,-14.75 -0.9239,-17.1144 -2.8923,-30.263 -7.0897,-47.3574 -1.9087,-7.7733 -3.4704,-15.4404 -3.4704,-17.0378 0,-3.5792 3.4188,-6.9824 7.0142,-6.9824 4.7377,0 6.656,3.5003 10.4261,19.0244 5.22,21.4939 6.6218,30.795 7.2723,48.2512 0.5784,15.5208 0.5503,15.8156 -1.7367,18.25 -2.7984,2.9788 -7.2023,3.248 -9.8483,0.602 z m -357.91541,-5.8025 c -0.7083,-0.2843 -5.94771,-7.5613 -11.64314,-16.171 -8.54092,-12.9113 -20.75089,-30.7959 -36.21327,-53.0436 -1.29567,-1.8643 -2.35577,-4.2473 -2.35577,-5.2955 0,-2.6793 4.442,-6.815 7.31969,-6.815 4.91904,0 7.40478,3.2008 39.04436,50.2764 15.48967,23.0466 16.63017,25.7294 12.63595,29.7236 -1.88138,1.8814 -5.8947,2.4865 -8.78782,1.3251 z m 284.42341,-19.502 c -2.3573,-2.0698 -2.7561,-3.4107 -3.6566,-12.2977 -1.2528,-12.3643 -3.7688,-23.0587 -8.4754,-36.0254 -5.1257,-14.1211 -5.1085,-13.986 -2.1542,-16.9403 3.4292,-3.4292 7.1513,-3.3058 10.5666,0.3504 5.6156,6.0115 15.084,41.5264 15.084,56.5785 0,5.9526 -1.8808,9.044 -6.1093,10.0418 -1.9042,0.4494 -3.3242,-0.012 -5.2551,-1.7073 z m -205.37051,-18.0731 c -2.7986,-3.0221 -24.4593,-39.181 -46.499,-77.622 C 876.2291,520.8026 835.31507,452.6955 826.3683,439.3839 c -6.70935,-9.98262 -7.55276,-12.1514 -5.92629,-15.23911 1.60376,-3.04456 2.81886,-3.7542 6.45953,-3.77246 3.78222,-0.019 7.3834,3.57956 13.99501,13.98469 11.593,18.24465 49.21326,81.13799 65.19944,109 9.6249,16.775 24.386,41.9904 32.8025,56.0342 8.4165,14.0438 15.5862,26.6633 15.9325,28.0433 1.5947,6.3538 -7.624,10.6337 -12.2182,5.6725 z m -54.42658,-14.6624 c -2.3432,-1.8431 -26.74839,-40.959 -68.37399,-109.5876 -8.67345,-14.3 -23.0543,-37.7 -31.95745,-52 -27.0641,-43.46961 -27.86048,-45.14658 -23.50706,-49.5 4.76478,-4.76478 9.50738,-1.89633 16.53369,10 2.1115,3.575 11.25815,18.425 20.32589,33 9.06774,14.575 26.46009,42.925 38.64967,63 12.18957,20.075 30.42663,49.9791 40.5268,66.4535 18.96083,30.9271 20.53063,34.4533 16.91393,37.995 -2.6256,2.5711 -6.32548,2.8306 -9.11148,0.6391 z M 1215.656,472.3381 c -1.2054,-0.48042 -2.929,-1.99873 -3.8301,-3.37401 -2.2756,-3.47306 -0.4427,-6.95083 6.0218,-11.42594 10.1104,-6.99897 19.3708,-15.08871 37.1242,-32.43113 19.704,-19.24782 21.1284,-20.08831 25.9213,-15.29545 4.904,4.90408 3.373,7.43976 -15.8155,26.19305 -22.2365,21.73221 -38.4426,34.87334 -45.23,36.67585 -1.1,0.29213 -2.9863,0.13806 -4.1917,-0.34237 z m 1067.6917,-2.06981 c -35.5576,-2.48321 -70.9664,-8.92198 -129.4605,-23.54121 -44.4637,-11.11268 -61.6743,-17.14342 -99.8822,-34.99965 -19.497,-9.11181 -31.7822,-15.8501 -59.6573,-32.72148 -32.0971,-19.42673 -42.1566,-25.87466 -52.5228,-33.66607 -11.24,-8.44815 -15.4772,-13.24264 -15.4772,-17.51271 0,-4.12102 6.7404,-11.29714 18.5,-19.69593 12.628,-9.01899 28.7684,-21.72869 30.2267,-23.80179 1.6646,-2.36655 5.8305,-3.27299 8.5438,-1.85903 1.2262,0.63899 4.4795,3.26111 7.2295,5.82694 10.4942,9.79136 44.2,34.19863 59.5,43.08551 20.0188,11.62774 109.9606,54.65462 140,66.97399 22.8749,9.38116 93.7532,32.9423 115.5,38.39416 9.9,2.4819 26.1,5.89269 36,7.57953 9.9,1.68684 19.2216,3.74892 20.7147,4.58239 1.6142,0.90111 7.1169,1.83352 13.5746,2.30018 7.5214,0.54352 11.597,1.3011 13.2578,2.46434 1.3189,0.92376 3.1874,1.67956 4.1524,1.67956 2.4037,0 5.0153,4.28553 4.6232,7.58647 -0.6134,5.1628 -3.7223,6.21156 -21.8227,7.36173 -18.751,1.19151 -75.7337,1.16888 -93,-0.0369 z m 43.5,-13.44645 c -0.55,-0.20751 -6.4,-1.56378 -13,-3.01394 -32.3925,-7.11729 -111.4118,-33.31037 -141.1411,-46.78499 -65.6696,-29.76438 -124.065,-58.75867 -142.0188,-70.51461 -11.0935,-7.26395 -32.1675,-22.7326 -44.9242,-32.97516 l -5.0842,-4.08212 -9.9158,7.71501 c -5.4538,4.24326 -13.9203,10.60109 -18.8147,14.12851 l -8.8987,6.41351 2.8987,2.3705 c 9.9629,8.14723 59.4021,39.16195 87.0452,54.606 25.9734,14.51125 65.5857,31.4237 91.3536,39.00336 52.8103,15.53422 120.4169,29.12656 157.5,31.66544 23.0916,1.58096 47.4007,2.37424 45,1.46849 z m -1049.0455,2.08063 c -1.35,-1.35 -2.4545,-3.30361 -2.4545,-4.34137 0,-4.08563 23.7258,-35.84616 27.4821,-36.78894 5.2698,-1.32263 10.3341,3.19669 9.0986,8.11941 -0.663,2.64163 -21.2411,30.62838 -24.7903,33.71545 -2.8194,2.45228 -6.4533,2.17805 -9.3359,-0.70455 z"
     style="fill:#000000" />
</svg>
