<?xml version="1.0" encoding="UTF-8" standalone="no"?>
<svg
   xmlns:dc="http://purl.org/dc/elements/1.1/"
   xmlns:cc="http://creativecommons.org/ns#"
   xmlns:rdf="http://www.w3.org/1999/02/22-rdf-syntax-ns#"
   xmlns:svg="http://www.w3.org/2000/svg"
   xmlns="http://www.w3.org/2000/svg"
   viewBox="0 0 3514.2339 2391.9619"
   height="2391.9619"
   width="3514.2339"
   id="svg6172"
   version="1.1">
  <metadata
     id="metadata6178">
    <rdf:RDF>
      <cc:Work
         rdf:about="">
        <dc:format>image/svg+xml</dc:format>
        <dc:type
           rdf:resource="http://purl.org/dc/dcmitype/StillImage" />
        <dc:title></dc:title>
      </cc:Work>
    </rdf:RDF>
  </metadata>
  <defs
     id="defs6176" />
  <path
     id="path6725"
     d="m 2446.9978,2390.1478 c -9.8036,-2.8028 -20.4441,-8.5117 -24.9248,-13.3727 -5.2468,-5.6921 -8.025,-13.4137 -9.9318,-27.6044 -1.3135,-9.7748 -1.4684,-20.1525 -0.994,-66.5797 0.3091,-30.25 1.2311,-69.4 2.0488,-87 0.8178,-17.6 1.7667,-39.65 2.1088,-49 l 0.6218,-17 -9.5557,-8 c -15.1158,-12.6549 -19.9413,-20.739 -22.9809,-38.5 -3.0511,-17.8281 -3.7953,-36.5619 -2.6218,-66 1.2173,-30.5375 4.3057,-79.2197 6.5343,-103 5.7323,-61.1671 15.9273,-184.8139 17.4798,-212 1.2951,-22.6774 1.9753,-32.3804 7.0105,-100 5.7533,-77.2648 7.0037,-100.1025 7.0037,-127.9224 0,-13.6219 0.4875,-31.8109 1.0834,-40.4198 l 1.0834,-15.6526 -5.5416,-5.0648 c -11.0999,-10.1446 -22.1198,-27.1728 -30.7231,-47.4739 -17.7187,-41.8101 -23.1236,-71.2964 -19.8821,-108.4665 2.1166,-24.2715 6.7468,-43.5177 15.8604,-65.9255 10.9853,-27.0099 34.2837,-61.2212 58.0571,-85.2508 l 10.5625,-10.6763 -9.6065,-9.3237 c -5.9838,-5.8076 -10.4239,-11.0642 -11.7741,-13.9392 -9.161,-19.5069 -9.1897,-68.2246 -0.1,-169.38452 5.5134,-61.3579 11.9298,-141.7675 14.9618,-187.5 1.6591,-25.02505 4.1248,-60.12505 5.4793,-78.00005 4.1313,-54.51919 4.5957,-63.29875 5.449,-103.01136 l 0.8239,-38.34192 -2.8461,-2.39484 c -13.9121,-11.70629 -31.7884,-49.28995 -39.447,-82.93465 -5.7377,-25.20644 -4.1956,-58.23392 4.0473,-86.67823 9.4507,-32.61246 29.9319,-66.35193 55.9321,-92.139 l 9.0743,-9 0.6636,-34.5 c 0.365,-18.975 1.1765,-61.05 1.8034,-93.500005 0.6269,-32.45 1.5606,-62.00332 2.0749,-65.67404 1.928,-13.7602 7.3966,-23.2999896 15.4553,-26.9609696 5.8653,-2.66455002 22.4894,-2.59240002 29.7634,0.12917 7.3878,2.76413 16.7277,10.4505396 19.4496,16.0063496 l 2.2045,4.49949 -1.3937,39.5 c -0.7665,21.725 -2.0951,61.325005 -2.9524,88.000005 -0.8572,26.675 -1.7413,51.08179 -1.9646,54.2373 l -0.406,5.7373 4.154,1.10531 c 9.9677,2.65222 17.7823,7.94078 30.4859,20.63125 l 12.3319,12.31919 19.6681,-2.54926 c 35.3166,-4.57753 52.6599,-9.82699 95.6681,-28.95677 7.15,-3.18028 13.5183,-6.28677 14.1517,-6.90332 0.6335,-0.61655 3.0012,-7.68018 5.2616,-15.69696 4.1677,-14.78157 11.6249,-37.53678 14.3944,-43.92404 3.1919,-7.36115 9.3341,-10.73995 22.0036,-12.10409 10.9959,-1.18394 21.6711,-3.93804 30.8075,-7.94803 3.694,-1.62133 7.0282,-2.94788 7.4092,-2.94788 0.381,0 6.1581,-2.65314 12.838,-5.89587 22.3243,-10.8372 34.9867,-13.66796 57.134,-12.77262 20.5275,0.82986 30.4466,3.50152 54.3653,14.64307 19.7879,9.21738 26.2112,10.9327 44.8842,11.98616 22.7252,1.28208 24.2976,2.32869 33.8631,22.53926 2.3428,4.95 6.7163,15.04293 9.7189,22.42873 l 5.4593,13.42872 13.3546,7.86037 c 29.6289,17.43924 52.2965,26.72063 81.2731,33.27776 l 10.9185,2.47074 3.4921,-4.23316 c 9.9541,-12.06654 25.6097,-24.37921 33.4132,-26.27863 2.1562,-0.52483 2.6416,-1.12563 2.2709,-2.81101 -1.1867,-5.39579 -20.7433,-150.323305 -22.0899,-163.701275 -0.8228,-8.1739 0.8982,-11.98304 9.0609,-20.05497 9.3425,-9.2385396 19.4346,-12.7715096 32.4891,-11.3734896 13.5766,1.45393 20.0886,8.1114096 24.5014,25.0487996 0.8508,3.26558 5.1414,36.76241 9.5347,74.437415 4.3933,37.675 9.108,77.26223 10.4772,87.97163 l 2.4894,19.47163 10.3413,10.52837 c 14.4426,14.70388 23.7858,26.8458 36.188,47.02837 7.58,12.33519 11.3593,20.67428 16.3152,36 7.1019,21.96249 10.1337,41.06375 10.1581,64 0.026,24.44696 -7.3216,54.79364 -19.6294,81.07144 l -4.483,9.57143 2.0016,7.92857 c 6.3477,25.14441 10.2723,50.29858 12.1585,77.92856 1.3678,20.03619 5.4123,52.40015 11.8719,95 2.7521,18.15 7.7596,52.8 11.1277,77.00005 7.0201,50.4401 14.2809,98.1596 22.8993,150.5 6.6454,40.3575 15.8114,103.4073 19.19,132.00002 2.5665,21.7206 3.0654,52.6829 1.0141,62.9456 -1.4347,7.1783 -4.069,12.9887 -7.2194,15.9237 l -2.0884,1.9457 11.7111,11.3425 c 22.7632,22.0468 48.6129,58.5647 58.9773,83.3174 13.9333,33.2758 19.4735,63.1308 18.1751,97.9423 -1.0633,28.5125 -10.1588,61.0833 -25.7125,92.0759 l -6.5274,13.0069 2.2458,9.5 c 7.6086,32.1841 11.2877,55.8027 13.3185,85.5 1.7114,25.0269 5.3045,53.5133 14.5541,115.3839 4.8612,32.5173 16.6539,114.4586 19.877,138.1161 3.3688,24.726 9.4672,63.5721 19.5452,124.5 21.6533,130.9073 29.3906,195.079 27.0361,224.2296 -1.1226,13.8994 -2.8521,22.0573 -5.9732,28.1751 -1.8307,3.5884 -6.5745,8.4373 -9.0676,9.2683 -0.7395,0.2465 1.1854,16.3654 5.9524,49.8456 14.3489,100.7763 18.3969,136.7673 18.4998,164.4814 0.083,22.4441 -1.0634,27.114 -8.6195,35.1035 -5.6808,6.0066 -21.1467,14.2911 -30.705,16.4475 -8.7081,1.9646 -18.5483,0.7305 -27.6289,-3.465 -16.8318,-7.7767 -21.9357,-14.2542 -26.6014,-33.7602 -7.2789,-30.4311 -11.6151,-62.7265 -26.26,-195.581 -4.5625,-41.3904 -8.5247,-75.4845 -8.8049,-75.7646 -0.2801,-0.2802 -2.5665,0.6404 -5.0808,2.0456 -10.6548,5.9551 -28.1813,10.9654 -49.1874,14.0612 -15.9689,2.3535 -100.708,4.3342 -187.1994,4.3756 -71.1295,0.034 -80.3872,-0.1519 -103,-2.0684 -23.5595,-1.9968 -40.1586,-2.1063 -48.9831,-0.3232 -3.0259,0.6114 -3.1524,0.8438 -3.5648,6.5449 -0.2709,3.7454 -1.1529,6.9136 -2.4075,8.6475 -2.6846,3.7107 -11.3487,7.8773 -20.2059,9.7171 -12.9227,2.6843 -20.4402,1.6129 -27.7376,-3.9531 -3.5132,-2.6797 -3.5852,-2.6897 -7.1519,-0.9972 -2.9551,1.4023 -5.598,1.6236 -14.699,1.2308 -11.5121,-0.4967 -19.9122,-2.7671 -24.759,-6.6918 -2.154,-1.7442 -8.4162,-1.7974 -154.791,-1.3156 -167.2105,0.5505 -158.5174,0.8099 -177.5461,-5.2973 -10.1496,-3.2575 -27.7688,-11.8056 -37.5917,-18.238 l -7.5916,-4.9712 -0.6565,29.1264 c -0.3611,16.0196 -0.6713,46.4515 -0.6895,67.6265 -0.047,55.4111 -1.6863,128.2096 -3.4218,152 -2.7428,37.5993 -5.4056,48.0307 -14.1986,55.6225 -6.3552,5.487 -15.9618,11.1846 -21.7621,12.9072 -6.6028,1.9608 -18.628,1.7453 -26.3869,-0.4729 z m 18.4211,-20.6079 c 4.3327,-1.403 10.2788,-4.1333 13.2136,-6.0673 6.3534,-4.1866 9.1681,-9.5638 9.9219,-18.9543 1.4811,-18.4517 -7.7569,-27.4273 -28.2293,-27.4273 -14.8302,0 -24.9889,4.2096 -29.6043,12.2676 -2.1036,3.6725 -2.4219,5.4891 -2.4062,13.7324 0.015,8.1197 0.3974,10.3146 2.6292,15.107 5.9199,12.712 17.986,16.6817 34.4751,11.3419 z m 1016.7616,-11.665 c 2.5864,-0.7642 6.0106,-3.0991 9.2142,-6.283 6.2349,-6.1966 7.9653,-11.867 7.1026,-23.2743 -1.2955,-17.1293 -9.6269,-23.8216 -29.3302,-23.5599 -15.5694,0.2068 -24.9695,4.18 -29.1979,12.3414 -2.0507,3.9583 -2.2741,5.5212 -1.8804,13.1568 0.5579,10.8171 3.123,16.6728 9.0566,20.6749 9.8388,6.6361 25.5428,9.7487 35.0351,6.9441 z m -981.7571,-145.558 c 0.685,-57.0492 1.2741,-113.2827 1.3093,-124.9633 l 0.064,-21.2375 -6.75,-3.3844 c -24.9157,-12.4929 -48.0438,-12.6448 -60.9346,-0.4001 -3.8939,3.6987 -3.9499,4.1653 -5.3121,44.2594 -1.0669,31.4023 -2.1271,60.2532 -4.5569,124 -2.6821,70.3649 -3.0506,80.9899 -2.821,81.3409 0.1227,0.1875 3.2552,-1.9545 6.9611,-4.7599 14.2263,-10.7696 39.4237,-14.0954 53.8568,-7.1085 5.0171,2.4288 12.9293,10.0987 14.6145,14.1669 0.6663,1.6086 1.4617,2.6745 1.7675,2.3686 0.3059,-0.3059 1.1166,-47.2328 1.8016,-104.2821 z m 933.8318,82.5092 c 8.2654,-8.4872 21.4215,-11.9435 37.7231,-9.9103 12.5146,1.5609 15.4544,2.4942 22.789,7.2347 3.442,2.2247 6.4521,3.8509 6.6891,3.6139 0.4318,-0.4318 -4.7332,-38.5429 -17.6416,-130.1734 -3.7966,-26.95 -8.0975,-58 -9.5576,-69 -3.0508,-22.9852 -4.3888,-26.4918 -13.1716,-34.5188 -6.9576,-6.3588 -14.1855,-9.0779 -25.7891,-9.7015 -10.8938,-0.5856 -19.0801,1.1216 -30.5746,6.3758 l -8.0449,3.6775 0.5486,3.5835 c 0.3017,1.9709 1.2408,10.1085 2.0868,18.0835 0.846,7.975 3.3138,29.575 5.4839,48 6.6795,56.7112 19.8002,172.3268 20.0483,176.66 0.026,0.462 1.3297,-1.635 2.8961,-4.66 1.5664,-3.025 4.4979,-7.1942 6.5145,-9.2649 z m -466.7674,-194.6819 c 4.7503,-2.1566 7.6235,-6.7529 8.785,-14.0532 0.3937,-2.475 1.3464,-5.4948 2.1171,-6.7107 3.6081,-5.6926 16.7747,-6.2885 139.0787,-6.2944 120.5393,-0.01 140.659,-0.6719 185.3279,-6.1352 26.7892,-3.2764 42.8292,-6.9368 61.4918,-14.0325 15.5793,-5.9234 25.3172,-11.9229 37.1289,-22.8749 4.792,-4.4432 8.8536,-7.2666 11.9911,-8.3357 6.101,-2.0788 18.4223,-2.088 25.4567,-0.019 9.9219,2.9182 24.8128,11.6548 38.8238,22.7782 1.6419,1.3035 1.667,1.612 -3.498,-42.8757 -4.2007,-36.1811 -6.8021,-55.074 -13.9069,-101 -11.864,-76.6904 -21.2105,-142.9933 -33.4796,-237.5 -3.3202,-25.575 -8.9343,-66.75 -12.4758,-91.5 -7.7659,-54.2735 -8.6386,-61.0734 -12.5128,-97.5 -2.1066,-19.806 -4.0763,-33.0758 -6.4572,-43.5 -1.8842,-8.25 -3.9819,-17.475 -4.6615,-20.5 -0.6796,-3.025 -1.5252,-5.8425 -1.8791,-6.261 -0.3539,-0.4186 -3.316,1.3285 -6.5824,3.8824 -13.5601,10.6021 -29.3677,15.815 -46.1627,15.2231 -8.4624,-0.2982 -10.6498,-0.7618 -16.2763,-3.4495 -7.6282,-3.6439 -16.6567,-10.8491 -20.4456,-16.3165 -2.1973,-3.1708 -2.5612,-4.5255 -2.0077,-7.4755 0.5749,-3.0648 1.07,-3.5996 3.3146,-3.5803 1.4513,0.013 5.5637,1.6546 9.1387,3.6492 17.8154,9.9395 23.5537,11.8632 32.4015,10.8622 32.1417,-3.6364 56.7577,-29.9908 71.4858,-76.5341 12.5674,-39.7149 15.2355,-73.5115 8.4825,-107.4454 -4.7176,-23.7059 -20.4648,-57.5222 -40.7709,-87.5533 -6.2722,-9.276 -28.2169,-33.7167 -29.3005,-32.633 -0.2205,0.2205 1.1869,11.8154 3.1277,25.7663 1.9408,13.951 6.0223,44.4904 9.07,67.8654 3.0477,23.375 5.6865,42.95 5.8641,43.5 0.5999,1.8588 1.5644,-7.8989 3.1629,-32 1.5547,-23.441 2.35,-28.5 4.4802,-28.5 1.7728,0 2.9859,4.7494 4.4837,17.5534 2.5734,21.9996 3.0104,47.1928 1.0802,62.2815 -2.0086,15.7015 -8.2622,41.7513 -16.242,67.6573 -0.5603,1.8188 -0.4562,1.8623 1.1973,0.5 0.996,-0.8207 3.134,-3.2922 4.7511,-5.4922 l 2.9402,-4 -0.6533,4.5 c -1.9148,13.1908 -3.9197,18.5642 -8.1754,21.9117 -2.201,1.7313 -4.0537,2.0883 -10.8385,2.0883 -14.5479,0 -24.8026,-4.4994 -37.2906,-16.3618 -16.2703,-15.4552 -30.1301,-43.1114 -41.8328,-83.474 -9.6793,-33.3844 -12.2846,-54.1767 -10.5019,-83.8154 1.2229,-20.3321 3.5431,-38.5013 5.3373,-41.7959 1.0712,-1.967 1.1044,-8.5106 0.048,-9.5529 -0.877,-0.8657 -8.338,8.1998 -12.3342,14.9868 -2.1092,3.5823 -6.7583,13.7132 -10.3314,22.5132 -3.5731,8.8 -7.8103,18.925 -9.416,22.5 -11.7083,26.0675 -14.2255,28.0319 -14.2255,11.1019 0,-14.0334 3.4386,-27.7052 11.02,-43.8155 8.7458,-18.5845 19.5697,-33.3435 29.5579,-40.3039 l 4.0779,-2.8417 -0.9334,-7.3204 c -0.5133,-4.0262 -1.0792,-7.4763 -1.2576,-7.6668 -1.142,-1.22 -22.2945,15.8874 -31.5612,25.5256 -12.2322,12.7227 -23.5073,29.8669 -34.0247,51.7357 l -4.8501,10.0851 -0.011,-8.5 c -0.012,-9.9174 2.0595,-23.8568 4.3665,-29.3782 0.8884,-2.1263 1.6153,-4.0011 1.6153,-4.1663 0,-0.4726 -18.1966,-5.9581 -32.8106,-9.891 -17.4365,-4.6926 -28.5761,-9.0679 -45.9394,-18.0436 -7.8375,-4.0516 -14.25,-7.0528 -14.25,-6.6695 0,0.3834 2.0353,4.2685 4.5229,8.6337 7.6472,13.4191 19.7378,28.2296 44.5034,54.5149 7.5139,7.975 14.1819,15.4829 14.8177,16.6843 1.6291,3.0781 1.4359,13.8063 -0.3756,20.8556 -5.6862,22.1274 -27.8964,51.5836 -62.7764,83.2569 -19.3964,17.6132 -35.8613,31.2032 -37.8041,31.2032 -1.9425,0 -8.2151,-6.6209 -16.646,-17.5705 -3.4177,-4.4387 -8.1328,-9.4474 -10.478,-11.1304 -6.2622,-4.4941 -14.8726,-9.4307 -15.8599,-9.093 -2.052,0.7019 -18.3714,24.2388 -24.7725,35.7287 -18.6897,33.5474 -30.1228,67.3246 -36.0707,106.5652 -5.5728,36.7652 -7.691,45.5835 -12.1806,50.709 l -2.0068,2.291 0.6128,-10 c 1.572,-25.6524 7.3137,-71.1886 11.1493,-88.4226 3.7515,-16.8559 20.022,-62.4804 27.8712,-78.1543 4.7179,-9.4212 13.3149,-21.5773 18.6555,-26.379 6.4104,-5.7635 16.1371,-11.5441 19.4246,-11.5441 6.0635,0 22.428,11.3255 36.138,25.0104 l 8.2249,8.2097 3.2751,-2.7099 c 9.1146,-7.5414 38.6307,-35.9426 44.1791,-42.5102 12.8917,-15.26 19.7198,-27.9984 26.3557,-49.1689 l 3.9711,-12.6688 -5.1154,-3.2545 c -6.7677,-4.3059 -18.7119,-16.5983 -25.9312,-26.6873 -18.69,-26.1193 -42.2776,-74.8831 -51.6218,-106.7205 -4.2537,-14.4934 -8.9163,-24.052 -14.7773,-30.2947 -7.1324,-7.5969 -11.7993,-9.26812 -28.688,-10.27322 -21.2152,-1.2626 -30.4717,-3.5027 -59.8086,-14.4742 -27.6309,-10.3334 -36.6176,-12.4845 -55.0452,-13.1762 -22.943,-0.8612 -34.7531,1.7176 -59.1403,12.9137 -18.7501,8.6081 -34.2377,13.5495 -49.48,15.7866 -14.2096,2.08552 -17.9749,3.32542 -23.023,7.58162 -7.9522,6.7048 -12.673,17.459 -16.5271,37.6496 -7.4657,39.1104 -27.6361,91.7377 -45.669,119.1565 -4.9935,7.5925 -17.5577,21.4333 -21.1497,23.2986 -1.5847,0.8229 -1.2365,2.1014 3.7725,13.8489 13.1059,30.737 24.9645,43.8817 69.3091,76.8257 14.5466,10.8068 13.2608,10.4855 17.4781,4.3678 8.6705,-12.5776 29.9932,-31.7107 35.3395,-31.7107 1.199,0 2.3537,-0.5211 2.566,-1.1579 0.7501,-2.2503 5.6866,0.1763 11.7172,5.7596 11.287,10.4498 18.0097,22.8652 33.9114,62.6275 9.7796,24.4537 12.6587,32.9676 17.0927,50.5451 10.7674,42.6852 13.2648,87.7745 5.9299,107.0662 -1.7325,4.5568 -2.7069,0.6681 -4.3742,-17.4577 -4.3353,-47.1304 -17.6886,-100.7182 -35.9781,-144.3828 -4.471,-10.6741 -14.4282,-29.9693 -19.7351,-38.2428 l -4.9665,-7.7429 -7.6583,5.9256 c -9.8893,7.6518 -11.4918,9.4731 -19.4108,22.0601 -3.6332,5.775 -7.9316,11.7679 -9.5518,13.3175 l -2.946,2.8174 -5.7424,-3.6734 c -3.1583,-2.0203 -11.202,-7.5195 -17.8748,-12.2203 -56.4627,-39.7764 -83.9399,-69.6692 -89.3688,-97.2254 -2.0556,-10.4341 -1.1416,-13.4888 7.0873,-23.6859 8.7138,-10.798 24.3961,-32.3486 32.1349,-44.1597 6.2598,-9.5539 14.815,-25.2026 14.1448,-25.8728 -0.1823,-0.1824 -6.347,2.4316 -13.6992,5.8089 -15.549,7.1425 -35.551,14.8539 -46.0653,17.7598 -4.0514,1.1196 -14.7912,3.2115 -23.8662,4.6486 -15.8658,2.5125 -42.2905,7.2323 -44.6242,7.9704 -0.8173,0.2585 -0.7688,1.7255 0.1777,5.3743 1.7369,6.6961 3.7511,27.6056 2.9134,30.2449 -0.5355,1.6871 -1.4007,0.4596 -4.4072,-6.2526 -8.619,-19.2421 -23.5264,-41.8991 -36.0263,-54.7544 -7.4839,-7.6968 -32.386,-27.0973 -34.7815,-27.0973 -0.8951,0 -1.2519,2.215 -1.2519,7.7726 v 7.7726 l 3.682,1.9774 c 10.1034,5.4259 22.9882,22.1937 32.8154,42.7047 8.3834,17.4977 10.7292,26.6082 10.8786,42.2501 0.1057,11.0582 -0.1082,13.0235 -1.4459,13.2887 -1.9148,0.3795 -9.1496,-14.3961 -20.9185,-42.7212 -9.2519,-22.2676 -11.4868,-26.4444 -19.0489,-35.6007 l -5.4627,-6.6144 -0.3052,5.1699 c -0.2346,3.9741 0.1124,5.5551 1.5,6.8351 0.9929,0.9159 1.8617,2.7902 1.9308,4.1652 0.069,1.375 0.9068,8.575 1.8617,16 1.1199,8.7082 1.779,21.1314 1.8568,35 0.1031,18.3795 -0.2116,23.3516 -2.1684,34.2572 -7.8287,43.6309 -23.6465,87.0136 -39.5031,108.343 -14.5276,19.5417 -29.6169,28.3998 -48.3779,28.3998 -8.287,0 -8.5759,-0.081 -11.8143,-3.3196 -3.5657,-3.5657 -5.892,-10.192 -6.8572,-19.532 l -0.553,-5.3516 2.7982,3.8516 c 2.8532,3.9274 6.1316,7.1117 6.1316,5.9557 0,-0.3524 -2.4909,-9.295 -5.5354,-19.8724 -12.2672,-42.62 -14.3476,-64.0642 -10.3274,-106.4506 1.4191,-14.9617 2.9607,-21.6763 5.0702,-22.0825 2.0744,-0.3995 3.7785,5.1341 3.7882,12.3014 0.015,10.8247 3.1846,45.5658 5.064,55.5 3.3569,17.7441 8.136,36.4076 8.9365,34.899 0.4082,-0.7695 1.0354,-14.899 1.3937,-31.399 0.3583,-16.5 1.3008,-48.675 2.0946,-71.5 2.8968,-83.3018 2.8157,-74.231 0.6535,-73.0738 -3.1027,1.6605 -17.2146,17.2359 -23.2999,25.7161 -12.2416,17.0596 -27.4922,45.2385 -35.2393,65.1122 -11.0117,28.2487 -14.2637,64.0199 -8.6719,95.3908 12.3411,69.2366 41.6524,110.8448 80.6886,114.5399 8.634,0.8173 14.199,-0.8314 27.9164,-8.2705 14.4085,-7.814 16.8161,-8.0326 17.2804,-1.5695 0.3035,4.2257 0.1084,4.5432 -7.0892,11.5336 -4.8061,4.6678 -9.8244,8.3905 -14.3121,10.6172 -6.2201,3.0861 -7.9305,3.4688 -17.1107,3.828 -7.2113,0.2822 -12.4354,-0.098 -17.8305,-1.2986 -4.1969,-0.9337 -7.8486,-1.4798 -8.1149,-1.2135 -0.4611,0.461 -0.8589,8.1114 -3.3638,64.6881 -0.5966,13.475 -2.1741,39.8 -3.5055,58.5 -1.3314,18.7 -2.8835,42.1 -3.449,52 -8.4746,148.3447 -12.9321,216.4474 -19.2761,294.5 -3.0762,37.848 -3.2115,41.7445 -3.2354,93.1669 -0.014,29.5167 0.3077,53.9995 0.7144,54.406 0.4067,0.4066 2.8817,-0.5923 5.5,-2.2198 14.3334,-8.909 30.1871,-12.788 49.6196,-12.1406 12.0376,0.401 13.9069,0.7306 22.2629,3.9254 10.8842,4.1615 23.5239,11.2376 34.1328,19.1086 14.3397,10.6391 31.9722,18.5684 50.2453,22.5953 21.7946,4.8029 27.458,4.9043 169,3.0243 65.6165,-0.8715 96.4742,-0.8885 119.3397,-0.066 l 30.8397,1.11 4.2415,3.9097 c 5.1738,4.769 13.8254,8.149 22.7802,8.8998 7.0244,0.5889 13.0094,-0.906 12.2658,-3.0636 -0.9293,-2.6965 -4.7591,-94.3307 -6.9861,-167.1565 -0.8242,-26.95 -1.9533,-61.375 -2.5092,-76.5 -2.6739,-72.7547 -3.0963,-91.9841 -3.6562,-166.4519 l -0.6011,-79.9519 -3.4353,-3.2398 -3.4352,-3.2399 0.7217,-34.8576 c 0.397,-19.1717 0.3992,-37.0085 0,-39.6375 -0.5924,-3.9506 -1.6051,-5.6769 -5.8368,-9.9506 l -5.12,-5.1708 -0.3997,-8.011 c -0.4802,-9.6258 0.144,-10.4597 10.4439,-13.9525 l 6.8421,-2.3202 -0.1943,-11.3582 c -0.3142,-18.3693 -6.2166,-96.2053 -8.8995,-117.3581 -5.0161,-39.549 -16.1378,-77.336 -35.9077,-122 -7.5735,-17.1099 -20.249,-42.4102 -27.8055,-55.5 -15.5818,-26.9912 -29.2435,-56.6989 -38.3993,-83.5 -12.2537,-35.8689 -17.1359,-55.4938 -15.7042,-63.1254 0.6124,-3.2646 0.7343,-3.3573 2.0136,-1.5308 2.6189,3.739 16.1573,31.7938 22.9974,47.6562 l 6.8995,16 0.7489,-10.5 c 1.8303,-25.6615 10.6442,-45.3162 27.3147,-60.9106 17.1036,-15.9996 35.1707,-22.91892 62.2828,-23.85292 24.9411,-0.8592 45.0108,3.08002 64.694,12.69782 24.7185,12.0782 46.1011,32.3279 54.5303,51.641 l 2.1494,4.9247 1.4288,-5 c 3.575,-12.5097 9.5767,-30.8422 11.5253,-35.2047 l 2.142,-4.7953 0.7842,4 c 2.0403,10.4056 0.078,43.3483 -4.1319,69.374 -5.2583,32.5046 -15.4368,64.7241 -31.4671,99.607 -30.3403,66.0224 -51.4063,137.3701 -63.9292,216.519 -3.1602,19.9738 -9.5722,67.8115 -9.5722,71.415 0,0.7813 2.8356,2.3665 6.6276,3.7052 8.5468,3.0173 9.8724,4.9865 9.8724,14.666 0,6.8281 -0.1966,7.5173 -2.6548,9.308 -1.4601,1.0636 -4.1232,4.2224 -5.9181,7.0194 l -3.2634,5.0856 1.7793,36.3893 c 0.9787,20.0142 1.4972,37.5137 1.1523,38.8878 -0.771,3.072 -4.567,5.6721 -9.4314,6.46 l -3.6639,0.5935 -0.7209,19.4851 c -1.3005,35.1528 -1.2775,183.4369 0.034,220.9851 0.6821,19.525 2.1318,61.825 3.2216,94 2.1855,64.5309 3.433,94.128 5.0154,119 2.0919,32.8788 3.4339,40.4424 7.6058,42.8675 2.9884,1.7371 12.4069,1.2869 17.035,-0.8143 z m -76.701,-31.8032 c -0.01,-0.9625 -0.4496,-9.175 -0.9873,-18.25 -2.0706,-34.9434 -4.0356,-90.7681 -5.1216,-145.5 -1.7656,-88.985 -0.092,-294.2427 2.9725,-364.5 0.3958,-9.075 0.5264,32.1 0.2902,91.5 -0.4706,118.3471 1.5348,302.7215 4.4948,413.25 0.5047,18.847 0.3826,25.25 -0.4814,25.25 -0.6366,0 -1.1619,-0.7875 -1.1672,-1.75 z m 85.6079,-9 c -5.286,-34.3191 -12.3441,-118.9577 -15.5733,-186.75 -2.6548,-55.7353 -3.163,-79.3825 -3.6967,-172 -0.5319,-92.3143 0.5411,-178.8338 2.5175,-203 0.3599,-4.4 0.4915,41.6671 0.2924,102.3713 -0.3602,109.8582 0.3156,156.3344 3.397,233.6287 4.1435,103.9337 8.5762,173.3539 13.5371,212 2.2182,17.2801 2.231,17.5 1.0157,17.5 -0.5017,0 -1.172,-1.6875 -1.4897,-3.75 z m -431.3814,-132 c -4.835,-6.9274 -6.9985,-17.5691 -7.8842,-38.781 -0.5658,-13.5507 -0.4534,-15.2053 1.1413,-16.8 0.9728,-0.9729 2.5017,-1.6233 3.3975,-1.4454 1.1575,0.2299 6.7066,-7.2042 19.1835,-25.7001 34.1913,-50.6854 79.2453,-111.8814 99.3789,-134.9844 19.399,-22.2602 30.5699,-32.9573 38.783,-37.1381 6.0268,-3.0679 8.3268,-3.0272 10.4313,0.1846 1.5137,2.3103 1.7025,6.6502 1.773,40.75 0.078,37.622 0.047,38.2342 -2.1858,43.0749 l -2.2648,4.9104 -2.4044,-2.2588 c -5.9002,-5.5429 -8.5471,-17.4239 -8.5585,-38.4155 l -0.01,-13.8534 -16.1556,20.8534 c -45.268,58.431 -84.3737,104.5654 -116.1601,137.0381 l -15.8426,16.1847 1.5404,7.8153 c 4.2001,21.3088 4.4821,32.3508 0.9779,38.2831 -2.2004,3.7248 -2.7205,3.7534 -5.1432,0.2822 z m 798.5098,-5.9996 c -4.4125,-4.8758 -7.3079,-20.8165 -6.2104,-34.1924 l 0.6201,-7.558 -15.3804,-15.5771 c -35.9799,-36.4401 -87.8131,-98.0892 -124.1166,-147.6213 -6.1266,-8.3591 -11.4768,-15.2216 -11.8893,-15.25 -0.4125,-0.028 -0.75,4.6408 -0.75,10.376 0,13.9208 -1.6013,24.8988 -4.5959,31.5073 -2.2533,4.9727 -2.5983,5.2994 -4.0562,3.8416 -4.1547,-4.1548 -6.8054,-25.482 -6.0622,-48.7765 0.7108,-22.2815 2.5773,-28.0105 9.1193,-27.9906 5.5174,0.017 13.5889,5.742 26.6052,18.8715 26.9893,27.224 71.1014,84.9998 119.2897,156.2395 14.2161,21.0166 17.0817,24.7059 19.5771,25.205 2.368,0.4736 3.2746,1.4953 4.7731,5.3796 1.5467,4.0092 1.8499,7.6631 1.8499,22.295 0,15.8522 -0.1934,17.8292 -2.0541,20.9967 -2.4098,4.1022 -4.4325,4.7806 -6.7193,2.2537 z M 2889.1393,1515.591 c 0,-4.4 0.1795,-6.0756 0.3907,-3.7236 0.2112,2.3521 0.2083,5.9521 -0.01,8 -0.2149,2.048 -0.3877,0.1236 -0.3841,-4.2764 z m 84.8425,-51.2238 c 0.4011,-2.0824 2.6616,-2.5078 24.8147,-4.6699 27.1355,-2.6484 47.8713,-3.5962 79,-3.6111 45.6748,-0.022 93.5556,-3.7443 129.5,-10.0678 24.1353,-4.2459 58.6666,-12.2473 79.8608,-18.5049 11.2509,-3.3218 11.9279,-3.4099 13.1682,-1.7137 0.7191,0.9834 1.2033,1.8922 1.076,2.0195 -0.6308,0.6308 -33.8287,9.8049 -46.105,12.7409 -52.8613,12.6423 -77.6443,15.106 -186,18.4905 -30.7181,0.9595 -56.6936,2.7682 -80.1632,5.582 -15.3925,1.8455 -15.5575,1.8426 -15.1515,-0.2655 z m -117.1853,-0.8144 c -31.0381,-2.2201 -68.6478,-3.4677 -105,-3.4829 -39.4958,-0.017 -90.6349,-1.41 -110.5,-3.011 -28.7154,-2.3142 -67.8797,-8.5659 -99.07,-15.8144 -26.3921,-6.1333 -25.6209,-5.8708 -24.1666,-8.2271 0.9228,-1.4952 1.871,-1.8423 3.7366,-1.3675 51.8759,13.2013 113.2586,22.5416 167,25.4116 10.7451,0.5738 48.6829,0.9264 84.5,0.7854 61.5712,-0.2424 76.2307,0.174 101.75,2.8904 4.7329,0.5038 5.75,0.943 5.75,2.4829 0,2.1651 1.3555,2.1463 -24,0.3326 z m -393.25,-86.0921 c -2.2019,-0.6497 -2.5319,-7.3697 -0.3619,-7.3697 3.475,0 19.9906,-5.5392 28.4634,-9.5465 19.0298,-9.0002 29.4333,-18.856 44.021,-41.7034 9.3527,-14.6483 20.9377,-27.8195 21.9083,-24.9078 1.3142,3.9426 -10.5677,30.0704 -20.4939,45.065 -6.8007,10.2732 -21.6016,25.3024 -29.459,29.9135 -10.2501,6.0152 -18.9911,8.4657 -31.3279,8.7827 -6.05,0.1554 -11.7875,0.05 -12.75,-0.2338 z m 852.4586,-11.8948 c -22.758,-4.9418 -43.3695,-24.6145 -58.646,-55.9749 -4.6904,-9.6288 -10.9308,-26.4652 -10.1125,-27.2834 0.8104,-0.8104 7.1581,4.4659 10.8672,9.0329 1.8986,2.3378 7.3824,10.4702 12.1863,18.0721 9.8009,15.5091 16.5036,23.2828 26.3104,30.5141 10.9375,8.0651 27.2853,15.4 40.3323,18.0962 4.4428,0.9181 5.7739,1.6359 6.2451,3.3675 0.415,1.5251 -0.048,2.7378 -1.5071,3.9506 -2.622,2.1789 -16.1318,2.2973 -25.6757,0.2249 z m -375.6078,230.192 2.7124,-2.3331 -1.1696,-26.4169 c -1.3762,-31.0842 -1.4753,-48.887 -0.29,-52.1018 0.4694,-1.2733 1.153,-3.5526 1.519,-5.0651 0.6298,-2.6023 0.4778,-2.75 -2.8285,-2.75 -3.4241,0 -3.4796,0.065 -2.7691,3.25 1.226,5.4957 0.8702,27.508 -0.4661,28.8427 -1.6469,1.6447 -10.234,2.3052 -13.5085,1.039 -3.8503,-1.4888 -5.0312,-6.9177 -4.6306,-21.2878 l 0.3302,-11.8466 h -3.25 c -1.7875,8e-4 -3.25,0.156 -3.25,0.3448 0,0.1889 0.9,2.9594 2,6.1566 1.8561,5.395 2,8.4175 2,42.0217 0,44.3083 -0.8005,42.0015 14.6942,42.3421 5.1653,0.1136 6.6448,-0.2514 8.9066,-2.1969 z m -21.1585,-1.9567 c -0.2871,-0.7481 -0.3916,-5.6015 -0.2321,-10.7852 l 0.2898,-9.425 9.599,-0.2844 c 7.3806,-0.2187 9.874,0.047 10.7889,1.1493 0.7832,0.9437 1.0911,4.6291 0.901,10.7844 l -0.2889,9.3507 -10.2679,0.2852 c -7.9366,0.2204 -10.3864,-0.024 -10.7898,-1.075 z m 11.8659,-65.6373 c 3.4873,-1.3258 3.8428,-4.1448 2.6207,-20.7786 -1.1724,-15.956 -2.2075,-19.6174 -5.6867,-20.1136 -3.4825,-0.4967 -4.4405,3.5347 -5.0011,21.0447 -0.4326,13.5126 -0.2706,16.0806 1.1508,18.25 1.7867,2.7267 3.1301,3.037 6.9163,1.5975 z m 18.1253,-24.5729 c -1.3709,-10.1437 -2.3023,-11.3681 -11.2161,-14.7432 l -4.2827,-1.6215 0.6381,3.401 c 0.3509,1.8705 0.9281,5.7776 1.2826,8.6823 l 0.6446,5.2814 4.3045,0.3102 c 4.9731,0.3583 5.8938,1.7461 4.264,6.4273 l -1.1359,3.2625 3.0208,-3.5 c 2.5895,-3.0003 2.9436,-4.071 2.4801,-7.5 z m -38.1175,5.0597 -0.5583,-3.4402 4.8712,-0.3098 4.8711,-0.3097 0.5,-8.252 c 0.3136,-5.1755 0.1272,-8.243 -0.5,-8.228 -2.4071,0.058 -9.3769,3.9662 -10.8675,6.0943 -2.2977,3.2804 -2.2236,13.2383 0.1175,15.8024 0.9625,1.0541 1.8342,1.9541 1.9371,2 0.103,0.046 -0.064,-1.4648 -0.3711,-3.357 z m 22.0869,-111.1107 c 1.9698,-8.828 5.1735,-21.878 7.1193,-29 6.9986,-25.6154 28.7213,-94.8701 44.5243,-141.949 22.9087,-68.2474 26.3541,-79.9997 30.9074,-105.4249 5.0619,-28.265 0.698,-48.2088 -14.9287,-68.2258 -10.6095,-13.5902 -25.469,-22.4756 -45.3294,-27.1053 -7.9446,-1.852 -12.3253,-2.1505 -32.1958,-2.1938 -21.0335,-0.046 -23.7695,0.1511 -32,2.3042 -19.1267,5.0036 -30.7036,14.0357 -38.8649,30.3219 -6.7905,13.5508 -8.9205,22.5609 -8.9412,37.8237 -0.031,22.9021 8.0768,50.5424 26.9253,91.7898 9.5984,21.0049 16.5623,38.3111 25.2339,62.7102 23.3137,65.5975 31.4857,102.0933 32.8639,146.7687 0.3184,10.3228 0.6972,18.6478 0.8417,18.5 0.1445,-0.1478 1.8743,-7.4916 3.8442,-16.3197 z m -464.7345,-71.699 c 16.067,-17.0115 35.7242,-51.1749 43.7811,-76.0895 l 3.609,-11.1605 2.3975,-98.5 c 1.3187,-54.175 2.093,-98.7734 1.7208,-99.1076 -2.1915,-1.9676 -18.8369,-8.012 -24.951,-9.0604 -8.957,-1.536 -18.2244,-0.1949 -24.6414,3.5657 l -4.3899,2.5726 -0.5769,10.2649 c -0.3172,5.6456 -1.0524,28.2648 -1.6337,50.2648 -0.5813,22 -1.6962,60.7 -2.4775,86 -0.7813,25.3 -1.9686,67.0072 -2.6385,92.6827 l -1.2179,46.6827 2.425,3.5605 c 1.3337,1.9582 2.6972,3.5635 3.0299,3.5673 0.3328,0 2.8363,-2.3557 5.5635,-5.2432 z m 879.2032,-13.5544 c 5.3977,-8.2217 8.4959,-15.2411 12.1296,-27.4811 l 2.2035,-7.4227 -3.6444,-27.8959 c -2.0045,-15.3427 -8.5689,-66.5959 -14.5876,-113.8959 -6.0187,-47.3 -11.1961,-87.0631 -11.5052,-88.3625 -0.9972,-4.1916 -10.467,-12.6375 -16.4995,-14.7156 -7.8617,-2.7083 -20.3989,-2.5726 -29.5976,0.3203 -12.2211,3.8435 -11.6532,1.6233 -7.8679,30.7578 1.7865,13.75 8.0326,63.025 13.8804,109.5 5.8478,46.475 11.0077,86.8367 11.4663,89.6927 1.5102,9.4029 19.4025,37.8608 32.1012,51.0573 3.3078,3.4375 6.1905,6.25 6.4059,6.25 0.2153,0 2.6972,-3.512 5.5153,-7.8044 z m -709.0314,-199.2437 c 20.1791,-4.0844 42.6478,-11.3581 64.1598,-20.7701 6.325,-2.7674 17.5736,-7.6774 24.9968,-10.9113 22.4505,-9.7802 26.7929,-9.1577 -66.18,-9.4865 l -80.3168,-0.284 -9.309,-3.2398 c -11.2667,-3.9212 -24.6807,-10.481 -33.039,-16.157 -4.491,-3.0497 -6.3203,-3.8282 -6.696,-2.8492 -0.2842,0.7408 -0.3906,7.3642 -0.2364,14.7187 l 0.2804,13.3719 5.8551,1.3284 c 13.0919,2.9702 29.1835,14.3417 43.8899,31.0157 l 8.7451,9.9151 18.7549,-2.2795 c 10.3153,-1.2537 23.4081,-3.2213 29.0952,-4.3724 z m 584.1375,-14.4261 c 7.0258,-8.1173 14.6759,-15.162 22.5223,-20.7398 5.7659,-4.0989 16.7569,-9.786 18.9125,-9.786 0.8082,0 1.7469,-0.4489 2.086,-0.9976 0.5581,-0.903 -1.3769,-20.9864 -2.1079,-21.8776 -0.1692,-0.2064 -4.0796,1.4675 -8.6897,3.7198 -9.6932,4.7356 -24.331,8.6843 -39.5421,10.6668 -6.0499,0.7885 -29.9008,1.8613 -55.1588,2.481 -24.475,0.6005 -45.85,1.1853 -47.5,1.2997 -2.7187,0.1884 -2.2138,0.6631 5.3846,5.0624 11.06,6.4035 29.423,15.5251 40.6154,20.1751 17.4239,7.239 32.0191,11.7216 56.5042,17.3544 0.2774,0.064 3.4154,-3.2474 6.9735,-7.3582 z m -509.1522,-42.1873 33.152,-0.6615 2.5661,-8.5885 c 4.99,-16.7005 10.7644,-33.6686 13.6415,-40.085 5.2799,-11.77512 10.6998,-15.30372 26.1466,-17.02292 17.3771,-1.934 26.3279,-4.2348 39.6882,-10.2018 3.0359,-1.3559 7.9382,-3.2685 10.8939,-4.2502 l 5.3741,-1.785 -0.6588,-19.1218 c -2.0356,-59.0856 -2.6496,-139.3052 -1.6819,-219.7338 0.8644,-71.83561 2.5021,-145.09392 3.3731,-150.88805 0.1241,-0.825 0.2152,57.45 0.2026,129.50005 -0.021,120.8573 1.1504,257.5 2.2078,257.5 0.2452,0 3.4436,-1.4227 7.1076,-3.1616 3.6639,-1.7388 10.0367,-4.3855 14.1617,-5.8814 l 7.5,-2.72 -0.2674,-9.3685 c -0.778,-27.2528 -3.4176,-106.8547 -4.3231,-130.3685 -0.5719,-14.85 -1.2971,-58.6935 -1.6116,-97.4299 l -0.5719,-70.42983 -2.9098,-2.44846 -2.9099,-2.44847 0.6753,-30.12169 c 0.769,-34.30028 0.5234,-36.16032 -5.5598,-42.10037 -3.8979,-3.80624 -4.0218,-4.13185 -4.0218,-10.56929 0,-7.81736 0.924,-9.01961 9.0835,-11.81887 l 5.4165,-1.85822 -0.2492,-11.88748 c -0.2613,-12.46019 -4.6314,-75.41187 -6.3095,-90.88747 -5.2011,-47.96629 -23.0587,-99.26509 -54.1308,-155.5 -15.5546,-28.15101 -22.0318,-42.33309 -31.5132,-69 -9.7475,-27.41517 -16.09,-53.60726 -13.5873,-56.11005 1.2309,-1.23086 11.6882,18.90255 20.3138,39.11005 2.9346,6.875 5.7048,12.9275 6.1559,13.45 0.4512,0.5225 0.8262,-2.1775 0.8334,-6 0.053,-28.14394 15.1444,-52.98469 39.4869,-64.99699 12.1403,-5.99087 18.6541,-7.55555 34.0311,-8.17452 21.6602,-0.87189 38.4203,2.24536 55.0545,10.23968 18.2123,8.75272 36.5539,25.41595 43.8943,39.87763 l 3.8921,7.66802 3.7549,-12.78191 c 2.0652,-7.03005 4.8514,-15.44761 6.1915,-18.70569 2.2437,-5.45502 2.5043,-5.73198 3.2931,-3.5 1.3069,3.6982 0.7164,26.75292 -1.0866,42.42378 -4.049,35.19145 -14.3609,70.71869 -30.3314,104.5 -16.4823,34.8639 -34.2417,89.31631 -43.5745,133.60417 -3.9254,18.62791 -11.3599,63.96959 -13.5921,82.89583 -1.1027,9.35 -2.2308,18.62869 -2.5068,20.61932 l -0.5019,3.61932 5.9829,2.18148 c 3.2906,1.19982 6.4365,3.02904 6.9909,4.06494 0.5544,1.0359 1.008,4.62804 1.008,7.98253 0,5.67293 -0.2523,6.35142 -3.6116,9.71065 -5.2256,5.22565 -6.4583,8.88842 -5.896,17.51966 0.2616,4.01615 0.9976,17.9951 1.6356,31.06433 1.3205,27.05373 1.373,26.82741 -6.6935,28.85859 l -4.1978,1.05702 -0.7615,56.66111 c -0.7681,57.1569 -0.1792,122.6319 1.5168,168.6611 0.5067,13.75 1.1933,36.025 1.526,49.5 0.3326,13.475 0.7958,25.4532 1.0294,26.6182 0.3856,1.924 0.8157,2.0427 4.6886,1.2936 2.3452,-0.4536 7.2749,-0.8443 10.955,-0.8683 3.68,-0.024 6.8712,-0.381 7.0915,-0.7935 0.2204,-0.4125 0.047,-5.25 -0.3858,-10.75 -2.1146,-26.8914 -4.9412,-86.5574 -5.9877,-126.3953 -1.199,-45.645 -0.535,-233.29665 0.8903,-251.60475 0.3854,-4.95 0.7105,40.95 0.7225,102 0.021,109.00555 0.5819,138.54305 3.9663,209.00005 0.7926,16.5 1.9461,40.575 2.5632,53.5 0.6172,12.925 1.276,23.6554 1.4641,23.8453 0.1881,0.19 5.3895,0.7511 11.5586,1.247 14.9802,1.2042 31.418,5.0866 42.926,10.1386 2.475,1.0865 10.575,4.812 18,8.2789 21.4033,9.9936 30.6607,12.2719 54.5,13.4126 17.8611,0.8546 21.5977,2.0079 27.2081,8.3979 3.6099,4.1114 11.963,21.14382 19.3943,39.54562 l 5.3976,13.3659 30,-0.596 c 31.302,-0.6219 52.3314,-2.1819 76.5643,-5.6798 18.7952,-2.7129 28.8239,-5.1116 41.7739,-9.9916 13.9544,-5.2586 23.9039,-11.0418 32.2085,-18.7214 8.6185,-7.9699 13.4366,-10.1925 22.1578,-10.221 10.9239,-0.036 21.9532,4.7798 37.3414,16.3038 3.6045,2.6994 6.7289,4.7328 6.943,4.5186 1.0613,-1.0613 -7.2387,-67.91102 -14.0728,-113.34442 -11.0021,-73.1425 -14.793,-99.3862 -19.5009,-135 -2.7629,-20.9 -7.4869,-56.675 -10.4978,-79.50005 -3.0109,-22.825 -7.9163,-58.825 -10.9008,-80 -2.9845,-21.175 -7.0128,-52.675 -8.9517,-70 -2.5396,-22.69251 -4.5117,-35.69405 -7.0532,-46.5 -1.9403,-8.25 -3.7444,-15.58681 -4.0091,-16.30402 -0.3233,-0.87603 -2.5361,0.36926 -6.7419,3.79416 -6.916,5.63182 -15.9271,10.3494 -22.7885,11.93045 -2.4597,0.56679 -8.4376,1.04152 -13.2841,1.05496 -11.3243,0.0314 -17.5294,-2.68202 -26.4381,-11.56114 -5.371,-5.35313 -6.25,-6.73891 -6.25,-9.8532 0,-2.20268 0.5552,-3.83701 1.4155,-4.16716 0.7785,-0.29875 6.5838,2.1616 12.9007,5.46744 13.4525,7.04018 16.7497,7.84018 25.5994,6.21119 23.8531,-4.39072 42.4416,-26.14861 53.5842,-62.72029 6.2329,-20.45753 8.8417,-37.90689 8.8735,-59.35239 0.015,-10.175 -0.5372,-22.55 -1.2274,-27.5 -3.8676,-27.73724 -28.3709,-76.4248 -49.2983,-97.95457 -7.1068,-7.31132 -7.7744,-7.77169 -7.317,-5.04543 0.2768,1.65 3.2126,24.825 6.524,51.5 3.3113,26.675 6.2929,50.65064 6.6258,53.27921 0.6694,5.28727 2.3226,7.45157 2.3143,3.02981 0,-1.54496 0.5219,-12.03402 1.1662,-23.30902 1.1247,-19.67987 2.1624,-25 4.8766,-25 1.3242,0 2.7872,5.93007 3.8238,15.5 1.3913,12.84252 0.594,48.46475 -1.3367,59.73012 -1.2657,7.38449 -8.5366,37.1179 -12.1422,49.65376 -1.0668,3.70897 1.6944,2.17671 4.4359,-2.46162 l 2.3183,-3.92226 -0.6329,5 c -1.6158,12.76491 -4.5069,17.98684 -10.5207,19.00288 -14.9139,2.51968 -31.9155,-7.1029 -43.5978,-24.67549 -14.4436,-21.72635 -29.2877,-68.48178 -32.4061,-102.07162 -1.2481,-13.44479 0.1531,-43.07613 2.6354,-55.72975 2.4638,-12.55968 2.6401,-14.02602 1.686,-14.02602 -4.1761,0 -11.6707,12.82915 -19.8313,33.94671 -10.5677,27.34689 -13.6459,34.01162 -15.7192,34.03422 -1.5435,0.0168 -1.75,-1.08661 -1.75,-9.35271 0,-22.48304 13.1064,-52.32726 29.7452,-67.73182 l 5.9701,-5.5273 -0.784,-5.77759 c -0.4312,-3.17767 -0.9847,-5.97826 -1.23,-6.22354 -1.6448,-1.64485 -24.1615,19.44806 -32.1659,30.1321 -6.003,8.0126 -15.5146,24.51447 -20.4619,35.49993 -1.8577,4.125 -3.5949,7.725 -3.8606,8 -1.4727,1.52464 0.8794,-23.24744 2.7864,-29.34664 1.1774,-3.76565 1.9482,-7.03921 1.7128,-7.27457 -0.2353,-0.23536 -8.2544,-2.69901 -17.82,-5.47477 -30.3762,-8.81456 -33.9325,-10.09604 -48.7422,-17.56382 -7.9793,-4.02359 -14.6624,-7.16104 -14.8513,-6.97212 -0.7421,0.74204 5.9026,12.04836 11.279,19.19184 6.6708,8.8635 18.8016,22.9091 28.8813,33.44008 13.3187,13.91499 13.5426,14.26734 13.5292,21.2848 -0.028,14.52264 -7.1804,29.7091 -23.3925,49.66647 -11.3584,13.98228 -33.5942,35.39808 -54.42,52.41305 -7.0341,5.74703 -7.2273,5.8318 -9.6591,4.23845 -1.3648,-0.89424 -5.8376,-5.97845 -9.9395,-11.29825 -6.1737,-8.00659 -8.8768,-10.57936 -15.6955,-14.93885 l -8.2374,-5.26649 -4.8618,6.20041 c -7.4924,9.55557 -15.5182,22.91526 -22.3478,37.20041 -15.1229,31.63141 -18.6163,44.2728 -26.8227,97.06144 -1.844,11.8611 -4.0145,19.06367 -6.7719,22.47112 l -1.9967,2.46744 0.6031,-10 c 0.7252,-12.02445 4.9869,-48.47044 7.1328,-61 2.5261,-14.74896 6.1982,-27.95464 13.0694,-47 7.7914,-21.59593 15.4259,-37.85596 21.5981,-46 7.1573,-9.44372 17.0094,-16.5 23.0377,-16.5 4.8798,0 16.7353,8.0562 28.0354,19.05101 l 8.8198,8.58142 11.6802,-10.67008 c 32.6825,-29.85589 43.2562,-44.48681 50.071,-69.28356 1.0851,-3.94834 2.2357,-7.85947 2.557,-8.69141 0.4015,-1.0397 -1.3468,-2.9156 -5.5918,-6 -11.9691,-8.69663 -24.6967,-26.01016 -38.2171,-51.98738 -10.7512,-20.65669 -15.8864,-32.78797 -23.2814,-55 -10.7085,-32.16438 -15.5448,-37.11817 -37.4514,-38.36089 -17.2332,-0.97762 -25.5329,-3.08201 -54.2216,-13.748 -20.0582,-7.45728 -31.7371,-9.89111 -47.4633,-9.89111 -15.4632,0 -26.0284,2.62679 -44.2211,10.99457 -15.8958,7.31135 -27.6447,11.31024 -38,12.93384 -14.2341,2.23176 -17.733,3.16128 -21.0154,5.58294 -7.3015,5.3869 -12.5506,16.06366 -14.9893,30.48865 -6.6351,39.24655 -30.8717,96.78163 -48.668,115.53258 -2.105,2.21791 -5.0842,4.99797 -6.6205,6.17789 l -2.7932,2.14532 4.6269,11.02917 c 9.0121,21.48264 17.5315,32.36709 38.5784,49.28801 15.0291,12.08287 29.551,22.82703 30.8533,22.82703 0.4191,0 1.9899,-1.85538 3.4906,-4.12308 4.0633,-6.1402 18.0731,-20.37359 23.3855,-23.75878 2.5584,-1.63031 6.3472,-3.27541 8.4194,-3.65578 3.6565,-0.67116 3.9665,-0.48719 10.5,6.2317 3.7028,3.80781 8.2856,9.54358 10.1841,12.74617 4.0642,6.85605 14.7942,31.70294 22.0374,51.03093 15.5742,41.55901 22.0982,93.47836 14.9403,118.89873 -0.6621,2.3512 -1.4502,3.50942 -2.0083,2.95133 -0.5052,-0.50521 -1.609,-8.32166 -2.4529,-17.36989 -3.5995,-38.59519 -13.137,-78.11158 -27.9854,-115.95133 -7.5018,-19.11752 -21.4768,-43.9832 -23.767,-42.28863 -10.6228,7.85987 -15.0655,12.26775 -18.845,18.69721 -6.267,10.66126 -10.8392,16.59142 -12.7922,16.59142 -0.963,0 -6.2542,-3.0943 -11.7583,-6.87623 -43.766,-30.07247 -69.3698,-54.60894 -79.1212,-75.82278 -4.8705,-10.59579 -6.0467,-21.01038 -2.8728,-25.43828 0.6455,-0.90051 6.0901,-8.10051 12.0992,-16 13.4954,-17.74074 23.7861,-33.18184 28.1891,-42.29723 1.8423,-3.81399 3.199,-7.08512 3.0149,-7.26918 -0.184,-0.18406 -4.3385,1.63951 -9.2321,4.05237 -23.9558,11.81168 -37.8628,16.00866 -73.3975,22.15055 -25.5134,4.40978 -30.1463,5.45507 -29.4159,6.63686 1.1898,1.92517 3.4069,18.61279 3.3698,25.36392 l -0.038,7 -2.3025,-5.5 c -10.6297,-25.39112 -26.6597,-46.85557 -46.928,-62.8371 -12.0931,-9.53539 -11.6963,-9.48595 -11.6239,-1.44808 0.061,6.77279 0.069,6.79066 4.1829,9.78518 6.6055,4.80768 17.0449,18.59328 22.5601,29.79125 8.2504,16.75158 11.1501,27.63556 11.1785,41.95875 0.015,7.28776 -0.2447,8.75 -1.5509,8.75 -1.7782,0 -7.0493,-10.75271 -15.9336,-32.50347 -8.7966,-21.53621 -12.9305,-29.5912 -17.4232,-33.94948 l -4.0753,-3.95295 v 4.70295 c 0,2.58662 0.45,4.70295 1,4.70295 0.55,0 1,-0.45 1,-1 0,-0.55 0.3375,-1.00021 0.75,-1.00046 0.4125,-2.6e-4 0.761,2.58724 0.7745,5.75 0.014,3.16275 0.5714,11.15046 1.2397,17.75046 1.8867,18.6314 1.5786,40.27649 -0.7706,54.15063 -4.396,25.96109 -12.626,52.64704 -22.467,72.84937 -13.2835,27.26938 -27.8391,40.21206 -46.434,41.28849 -9.1133,0.52757 -11.3275,-0.35583 -13.9661,-5.57193 -1.7523,-3.46388 -4.1265,-12.51271 -4.1265,-15.72706 0,-0.77663 1.7836,0.48302 3.9635,2.79922 l 3.9634,4.21128 -1.9819,-6.5 c -4.9291,-16.1659 -9.9368,-36.49748 -11.3751,-46.18382 -3.5009,-23.57752 -0.7334,-74.81618 4.041,-74.81618 1.8619,0 2.1556,1.94282 3.4009,22.5 0.5997,9.9 1.5255,21.35374 2.0574,25.45275 1.1309,8.71567 6.0147,30.92599 8.6959,39.54725 l 1.866,6 0.6953,-18 c 0.3824,-9.9 1.1277,-37.575 1.6563,-61.5 0.5286,-23.925 1.25,-50.5875 1.6031,-59.25 0.4204,-10.31206 0.295,-15.75 -0.363,-15.75 -2.1418,0 -17.2647,17.33368 -24.1267,27.65379 -8.3417,12.54558 -22.6036,40.85257 -27.0344,53.6578 -11.8077,34.12487 -10.1796,75.87569 4.498,115.35162 12.1279,32.61814 27.9304,50.81057 48.5182,55.85588 10.4743,2.56687 15.1379,1.75174 27.9087,-4.87809 12.1758,-6.32092 15.6385,-6.98278 16.595,-3.1719 1.2311,4.90509 -7.8145,14.52707 -19.0816,20.29758 -6.4247,3.29042 -17.2465,4.06997 -26.4895,1.90819 -4.5352,-1.06071 -6.6896,-1.19416 -7.1537,-0.44313 -0.3653,0.59106 -0.9334,7.41822 -1.2624,15.17146 -1.9949,47.00896 -2.8771,63.97368 -4.6069,88.5968 -1.7629,25.09455 -5.2519,82.63477 -8.0037,132.00005 -1.5611,28.004 -6.4767,99.8845 -10.0526,147 -3.3413,44.0234 -4.7566,93.5768 -3.4614,121.19952 l 0.736,15.6995 8.1471,-4.386 c 11.2158,-6.038 21.3128,-8.513 34.7301,-8.513 17.0624,0 27.0443,3.8119 48.417,18.4894 19.3961,13.3201 30.563,18.0153 52.094,21.9035 9.036,1.6317 66.6793,2.074 123.2315,0.9456 z M 2558.3261,924.77638 c -2.8294,-4.3181 -5.3385,-17.1161 -6.073,-30.9761 -0.7604,-14.3499 -0.2653,-16.7093 3.5065,-16.7093 1.1318,0 6.9774,-7.9129 17.1276,-23.1846 41.1109,-61.8546 85.1755,-119.1235 105.0212,-136.4916 10.2101,-8.93547 16.6458,-11.51362 18.7811,-7.5237 1.1515,2.1515 1.599,14.2083 1.6036,43.1999 0,18.4567 -0.256,22.1723 -1.8293,26.25 -1.008,2.6125 -2.2128,4.75 -2.6774,4.75 -1.6292,0 -5.0094,-5.3241 -6.595,-10.3876 -0.9601,-3.0661 -1.8599,-10.8936 -2.2479,-19.5558 l -0.647,-14.4434 -7.9711,10.4434 c -42.1678,55.2467 -73.0973,92.2097 -101.3324,121.0996 l -14.3241,14.6563 1.0729,3.9843 c 1.9071,7.0825 4.0502,24.9709 3.4006,28.3845 -0.7901,4.1519 -3.0913,8.8187 -4.3485,8.8187 -0.5232,0 -1.6337,-1.0416 -2.4678,-2.3146 z m 668.5222,-5.3467 c -3.3195,-4.2201 -4.3115,-9.1571 -4.547,-22.6302 l -0.2236,-12.7915 -14.9093,-15.2085 c -27.6915,-28.2472 -67.2093,-75.6582 -99.3623,-119.2085 -5.6848,-7.7 -10.639,-14.3539 -11.0093,-14.7865 -0.3703,-0.4325 -1.1731,5.6425 -1.7841,13.5 -1.0513,13.5204 -2.7797,21.3506 -5.4131,24.5237 -1.7877,2.154 -3.4894,-1.9188 -5.3806,-12.8773 -2.1667,-12.5555 -1.6564,-42.5013 0.8198,-48.1099 1.4081,-3.1893 2.1267,-3.75005 4.8055,-3.75005 4.9312,0 9.4713,2.70375 17.978,10.70615 21.964,20.6622 63.7108,75.5403 108.8163,143.0439 7.3542,11.0062 10.7349,15.25 12.1482,15.25 1.1825,0 2.6542,1.2876 3.7147,3.25 2.5903,4.7932 3.1789,30.1469 0.842,36.2662 -2.0464,5.3582 -3.8754,6.153 -6.4952,2.8225 z M 2847.0285,574.09093 c 0,-1.925 0.2058,-2.7125 0.4573,-1.75 0.2516,0.9625 0.2516,2.5375 0,3.5 -0.2515,0.9625 -0.4573,0.175 -0.4573,-1.75 z m 70.768,-39.43563 c 0,-1.77024 1.3307,-2.11913 13.5,-3.53955 21.1639,-2.47029 34.4847,-3.16214 77.5,-4.02521 52.9453,-1.0623 72.7359,-2.73827 108,-9.14598 20.1183,-3.65563 40.9446,-8.45548 59.2491,-13.65517 11.5108,-3.26985 13.9352,-3.68136 14.8925,-2.52789 0.6289,0.75777 0.9668,1.51743 0.7509,1.68813 -0.843,0.66656 -26.0685,7.65973 -38.3925,10.64341 -41.947,10.15546 -67.7234,12.94678 -143.0925,15.4954 -44.1728,1.49372 -71.4166,3.35519 -89.1575,6.09179 -2.4661,0.3804 -3.25,0.13317 -3.25,-1.02493 z m -96.5,-1.17164 c -8.25,-0.71223 -44.7,-1.75273 -81,-2.31223 -63.7541,-0.98265 -89.7803,-1.94254 -113,-4.16758 -12.2536,-1.17422 -45.9889,-6.69169 -60.543,-9.90194 -19.867,-4.38214 -30.957,-7.21159 -30.957,-7.89821 0,-2.30937 2.3991,-2.75483 7.8058,-1.44933 33.7754,8.15555 68.7332,14.29929 98.1942,17.25739 36.3115,3.64593 53.7876,4.24046 103.5,3.52102 39.1961,-0.56725 50.6529,-0.40297 69,0.98943 24.1738,1.8346 25.5,2.0497 25.5,4.13611 0,0.78793 -0.7875,1.36234 -1.75,1.27645 -0.9625,-0.0859 -8.5,-0.73889 -16.75,-1.45111 z m -332.9427,-72.29995 c -1.8169,-2.93985 0.5619,-4.82135 8.871,-7.01637 15.2659,-4.03283 30.0498,-12.93614 39.0352,-23.50815 2.3692,-2.78754 8.563,-11.60589 13.764,-19.59633 9.4622,-14.53713 15.9571,-21.87249 16.5763,-18.72117 0.167,0.8504 -1.2464,5.56007 -3.1411,10.46594 -10.4156,26.96956 -25.2338,46.0093 -42.447,54.53969 -8.3754,4.15058 -8.8197,4.25132 -20.2675,4.59534 -7.8568,0.2361 -11.9301,-0.0134 -12.3909,-0.75895 z m 712.2144,-10.41995 c -15.5788,-5.34977 -29.8948,-20.07417 -41.0344,-42.20491 -3.9552,-7.85776 -9.971,-24.26684 -9.4593,-25.80191 0.8197,-2.45921 9.3365,7.62899 17.2421,20.42342 4.7382,7.66828 11.1221,16.65045 14.1865,19.96038 9.4368,10.19288 23.012,17.91066 39.6013,22.51412 5.3725,1.49084 5.7849,1.81129 5.5,4.27387 -0.3071,2.65491 -0.3339,2.66286 -9.8079,2.90387 -7.7514,0.19718 -10.7384,-0.18362 -16.2283,-2.06884 z m -310.2934,194.35116 c 1.6798,-1.85615 1.7191,-3.35734 0.6488,-24.75 -1.4838,-29.65732 -1.4298,-38.95047 0.2591,-44.56218 0.7624,-2.53332 1.1374,-4.85484 0.8333,-5.15893 -0.304,-0.30408 -1.8829,-0.55288 -3.5086,-0.55288 -2.4168,0 -2.7444,0.25467 -1.7966,1.39671 0.6985,0.84166 1.2439,5.94343 1.3724,12.83768 0.2636,14.14067 -0.2091,14.98301 -8.1719,14.56074 -7.5886,-0.40242 -8.2257,-1.78073 -7.8805,-17.04702 l 0.2657,-11.75189 -2.75,0.002 c -3.1886,0.002 -3.2547,0.31985 -1.25,6.00189 1.2086,3.42553 1.5,10.22314 1.5,34.99087 0,29.58404 0.078,30.83845 2.0726,33.37427 1.8996,2.41495 2.6795,2.63486 9.345,2.63486 5.973,0 7.5919,-0.35307 9.0607,-1.97601 z m -17.8451,-0.8085 c -1.0324,-1.67038 -1.0185,-16.2302 0.016,-17.26512 0.599,-0.59894 4.3931,-0.91502 8.9453,-0.74523 l 7.9051,0.29486 v 9 9 l -8.1668,0.2891 c -4.4918,0.159 -8.4068,-0.0991 -8.7,-0.57361 z m 11.5915,-57.54477 c 1.5534,-2.44215 -0.2483,-27.97782 -2.2362,-31.69218 -1.3981,-2.61232 -3.6334,-2.51057 -5.1013,0.23221 -1.824,3.40811 -1.7921,29.96508 0.039,32.1872 1.5444,1.8746 5.9212,1.43851 7.2989,-0.72723 z m 13.0902,-19.66171 c -1.0546,-7.69247 -3.1533,-10.08754 -10.8676,-12.40255 -1.9819,-0.59474 -2.021,-0.40011 -1.133,5.63877 1.3054,8.8774 1.2317,8.75477 5.2637,8.75477 3.5755,0 3.6334,0.0631 3.2302,3.51709 l -0.4106,3.5171 2.1992,-2.75808 c 1.6378,-2.05398 2.0764,-3.65389 1.7181,-6.2671 z m -32.0701,4.49099 c -0.4195,-2.194 -0.1271,-2.50187 2.3886,-2.51531 4.6473,-0.0248 5.5367,-1.23503 6.1043,-8.30574 l 0.5276,-6.57318 -3.62,1.11102 c -5.3887,1.65384 -7.3516,4.012 -8.1457,9.78627 -0.5705,4.14788 -0.3714,5.48108 1.0535,7.0556 2.226,2.45969 2.2661,2.44643 1.6917,-0.55866 z m 23.1629,-113.18111 c 4.4608,-17.52001 26.1027,-87.01369 40.6221,-130.44064 15.5945,-46.64238 19.6891,-60.87745 23.552,-81.87825 3.0686,-16.68286 2.9342,-27.0694 -0.4916,-38 -4.7941,-15.29605 -17.7354,-30.84217 -31.0902,-37.3479 -14.0211,-6.83034 -20.7145,-8.04927 -44.5,-8.10388 -19.3148,-0.0443 -21.599,0.13988 -28.4648,2.29579 -15.9966,5.02311 -25.0045,11.72208 -30.8403,22.93526 -14.7196,28.28289 -11.0201,55.84015 15.3302,114.19336 10.2715,22.74642 19.3718,46.54808 27.921,73.02737 13.3391,41.31468 16.5901,58.66398 20.2375,108 l 0.5545,7.5 2.2887,-11 c 1.2587,-6.05 3.4552,-15.5815 4.8809,-21.18111 z m -385.9248,-49.81889 c 10.5288,-14.7093 22.2586,-37.5137 26.9158,-52.3281 1.4399,-4.58046 3.7393,-13.80546 5.1098,-20.5 2.4653,-12.04233 2.5184,-13.39609 4.9904,-127.1719 1.3742,-63.25 2.6116,-129.400005 2.7498,-147.000005 l 0.2513,-32 -2.743,-4.66604 c -8.6817,-14.76862 -27.0692,-18.5217496 -37.8627,-7.72829 -6.4869,6.48693 -6.6054,7.45021 -8.3534,67.89433 -0.8668,29.975005 -2.2333,75.875005 -3.0367,102.000005 -0.8034,26.125 -1.9274,63.475 -2.4977,83 -0.5704,19.525 -1.4787,50.125 -2.0186,68 -0.5399,17.875 -1.2561,42.175 -1.5915,54 l -0.6099,21.5 3.244,4.31896 3.2439,4.31895 3.9569,-3.81895 c 2.1763,-2.10043 5.8895,-6.51896 8.2516,-9.81896 z m 727.7479,-1.75 c 1.9598,-2.8875 4.5014,-7.12842 5.6479,-9.42428 2.7962,-5.59907 8.122,-24.78657 8.1185,-29.24915 0,-1.96711 -1.581,-15.27657 -3.5101,-29.57657 -3.6698,-27.20369 -14.0455,-106.71103 -30.015,-230 -5.2007,-40.150005 -9.9889,-74.987575 -10.6406,-77.416825 -1.6256,-6.05981 -7.9658,-12.52107 -13.8315,-14.09551 -13.0043,-3.49058 -24.8853,2.84134 -30.4537,16.23022 -2.5932,6.23505 -3.0881,0.79288 10.4384,114.782115 2.7738,23.375 6.3897,53.075 8.0353,66 1.6457,12.925 4.3191,34.525 5.941,48 1.6218,13.475 4.9978,41.375 7.5021,62 l 4.5532,37.5 4.9852,10.06431 c 2.7419,5.53537 7.6438,14.08537 10.8931,19 5.6934,8.61138 16.4761,21.43569 18.0231,21.43569 0.4124,0 2.3533,-2.3625 4.3131,-5.25 z m -51.3753,-104.2926 c -0.6885,-5.92277 -1.4347,-10.21984 -1.6583,-9.54905 -0.4998,1.49947 1.8685,21.35927 2.4748,20.75294 0.2394,-0.23938 -0.128,-5.28113 -0.8165,-11.20389 z M 1280.7965,2022.4321 c -14.9799,-0.6304 -60.9271,-4.9295 -84.5,-7.9064 -40.0775,-5.0612 -58.4212,-9.9991 -74.1919,-19.9717 -16.0858,-10.1718 -19.6447,-16.7792 -36.7405,-68.213 l -5.7337,-17.25 h -13.292 -13.2919 l -0.625,3.125 c -0.3437,1.7187 -0.6357,7.0063 -0.6487,11.75 -0.028,10.3167 -1.631,32.1131 -2.4193,32.9013 -0.3076,0.3076 -2.9834,0.7604 -5.9461,1.0061 -6.0462,0.5014 -10.8564,-0.7811 -15.9862,-4.2623 -2.3107,-1.5682 -8.7718,-3.5325 -19.2992,-5.8676 -23.11583,-5.1273 -50.17801,-7.1604 -94.82548,-7.124 -33.24615,0.027 -35.80175,0.1629 -50.99999,2.7097 -8.8,1.4746 -28.825,5.8209 -44.5,9.6586 -94.56827,23.1527 -137.56384,30.5707 -201,34.6782 -41.18581,2.6668 -120.40926,0.6192 -155.59413,-4.0215 -24.87513,-3.2808 -54.2213,-12.0469 -78.90587,-23.5701 -6.46768,-3.0192 -9.20798,-5.4998 -12.13303,-10.9834 -2.61292,-4.8984 -2.54844,-25.289 0.11385,-36 1.02529,-4.125 2.00089,-11.325 2.16798,-16 1.06447,-29.7818 2.67983,-64.5536 3.87909,-83.5 2.16175,-34.1521 10.24021,-144.3991 12.45692,-170 1.09534,-12.65 2.69494,-32.225 3.55467,-43.5 1.75585,-23.027 7.68703,-91.3677 9.98067,-115 1.44275,-14.8653 5.07812,-56.9219 11.4965,-133 1.64724,-19.525 3.66708,-43.15 4.48854,-52.5 0.82146,-9.35 2.83321,-34.1 4.47055,-55 1.63734,-20.9 4.12996,-52.4 5.53916,-70 4.05279,-50.6169 8.42898,-111.887 8.46239,-118.4802 l 0.0227,-4.4803 -9.58684,9.4803 c -11.39818,11.2714 -21.51269,22.9924 -31.04877,35.9802 -7.60286,10.3548 -49.46162,68.7296 -50.51262,70.4431 -0.6276,1.0233 1.55666,18.5997 4.60514,37.0569 1.71561,10.3873 11.48927,89.9367 14.49781,118 2.43678,22.7301 6.459,68.8716 8.23769,94.5 1.75529,25.2913 1.77478,141.2948 0.0276,164.5 -5.22308,69.3719 -14.13331,120.5513 -31.85563,182.9756 -4.92743,17.3561 -5.30754,18.3058 -9.43556,23.5754 -5.20462,6.644 -10.5371,8.5934 -35.59932,13.0143 -38.17355,6.7338 -41.03498,7.0392 -71.55642,7.6383 -29.90007,0.5869 -42.91864,-0.088 -73.27312,-3.7966 -74.204853,-9.0668 -106.385263,-23.2799 -106.478043,-47.0282 -0.0124,-3.1691 -2.8238,-18.2186 -6.44502,-34.5 -10.72305,-48.2123 -21.23896,-105.5263 -27.49957,-149.8788 -8.9104505,-63.125 -11.81121047,-125.5435 -10.61905047,-228.5 0.3853,-33.275 0.62579,-69.275 0.53442,-80 -0.3525,-41.3747 3.07631997,-105.2026 8.08482997,-150.5 10.9716205,-99.2283 36.5862205,-197.47462 72.5302605,-278.19382 13.70819,-30.7844 19.210133,-40.6312 66.383353,-118.8062 108.42933,-179.6881 147.67159,-244.15387 152.04983,-249.78205 3.12284,-4.01437 9.18725,-6.7541 16.80969,-7.59415 5.97176,-0.65813 8.63647,-1.83726 26.14935,-11.57105 51.65848,-28.71217 95.66928,-49.65025 182.5,-86.82412 56.52396,-24.19898 106.94967,-44.81325 146.5,-59.88991 15.675,-5.97534 29.87574,-11.48486 31.5572,-12.24339 2.80967,-1.26748 3.23092,-2.13681 5.20298,-10.73726 2.36143,-10.29854 3.25894,-15.84888 6.28348,-38.85812 4.29568,-32.67939 10.72982,-57.76343 18.27499,-71.24656 8.51763,-15.2209 23.80001,-32.54739 32.02184,-36.30496 8.69725,-3.97484 20.6404,-5.44959 44.0405,-5.43816 36.57472,0.0179 64.25525,3.29476 129.619,15.34464 21.7569,4.0109 35.15011,4.99481 59,4.33434 11.82498,-0.32747 26.67498,-1.09416 32.99998,-1.70376 17.6869,-1.70464 58.4335,-7.62942 79,-11.48705 23.4167,-4.39223 41.9578,-7.26106 58.5,-9.0516 15.5286,-1.68083 44.4142,-1.876 49.9556,-0.33754 6.9074,1.91772 22.5344,16.00844 33.2136,29.94846 11.0406,14.41185 24.315,39.26814 37.3523,69.94219 6.6648,15.68076 9.5322,21.25585 20.1562,39.18938 6.1265,10.34157 7.3514,11.82755 10.6236,12.88767 2.0343,0.65905 20.1237,7.59281 40.1987,15.40835 49.3767,19.22318 85.8247,34.16652 141.2868,57.92622 27.7393,11.88337 82.4347,35.1533 117.7132,50.08063 6.875,2.909 14.075,5.61749 16,6.01886 7.4372,1.55069 12.1198,5.41424 16.2839,13.43566 1.3001,2.50427 5.0886,9.27823 8.4189,15.05323 7.334,12.71749 62.4351,111.57952 107.5692,193 18.1406,32.725 42.9956,77.51434 55.2334,99.53185 26.74,48.1091 33.6194,63.0913 51.0925,111.2712 28.651,79.0013 47.1127,163.96882 56.8615,261.69702 4.9214,49.3354 6.2748,85.4054 6.9977,186.5 0.7087,99.1198 -1.3097,185.4101 -5.4971,235 -5.9619,70.6059 -17.9551,143.315 -40.8699,247.7767 -8.6188,39.2901 -9.4546,41.6175 -17.6647,49.1853 -7.5459,6.9556 -11.8957,8.3517 -27.4695,8.8163 -7.7555,0.2315 -21.3653,-0.2759 -31.8442,-1.1871 -32.2258,-2.8021 -54.0311,-1.8326 -77.1117,3.4284 -18.8977,4.3075 -21.692,4.8356 -33.8479,6.3965 -36.8064,4.7261 -65.2665,2.4777 -73.0131,-5.7681 -2.66,-2.8315 -8.651,-15.8106 -10.2405,-22.1855 -0.6806,-2.7294 -3.5697,-11.2625 -6.4203,-18.9625 -2.8506,-7.7 -6.6125,-18.6125 -8.3597,-24.25 -1.7472,-5.6375 -3.3561,-10.25 -3.5754,-10.25 -0.2192,0 -0.1938,2.3625 0.056,5.25 0.2504,2.8875 1.8072,24.6 3.4596,48.25 1.6524,23.65 4.1136,55.15 5.4692,70 1.3556,14.85 2.4663,30.4525 2.4682,34.6722 0,7.0587 -0.3365,8.3371 -4.2466,15.986 -6.3681,12.4572 -13.3581,19.0241 -28.25,26.5398 -24.2325,12.2298 -77.3202,31.7071 -119.5,43.8431 -61.8742,17.8026 -124.8011,26.1229 -180,23.8 z m 48,-34.8777 c 71.3943,-4.8801 129.619,-15.3043 167.7179,-30.0272 18.9512,-7.3235 70.7765,-33.7711 76.0157,-38.7925 1.2684,-1.2157 1.181,-5.0473 -1.7482,-76.6437 -1.2846,-31.3968 -6.5894,-131.4273 -7.9813,-150.5 -0.562,-7.7 -1.9021,-28.4 -2.9782,-46 -3.0223,-49.4337 -4.9043,-78.2141 -6.5063,-99.5 -0.8072,-10.725 -1.931,-26.475 -2.4972,-35 -3.1673,-47.684 -6.3363,-92.1105 -8.5241,-119.5 -1.3619,-17.05 -4.0558,-53.725 -5.9865,-81.5 -1.9307,-27.775 -4.4143,-63.325 -5.5191,-79 -2.0805,-29.5161 -6.9685,-108.3353 -9.2095,-148.5 -0.8011,-14.3584 -1.2832,-48.008 -1.2832,-89.55962 v -66.5596 l 3.2808,-3.9404 c 1.8044,-2.1673 6.9475,-8.5474 11.4291,-14.178 4.4815,-5.6307 8.304,-10.0819 8.4944,-9.8915 0.1904,0.1904 -0.17,7.7223 -0.8009,16.7376 -0.6309,9.0153 -1.1474,33.4079 -1.148,54.2059 l -9e-4,37.81442 3.1364,3.6856 c 22.5554,26.5051 40.9502,55.8628 54.3152,86.6856 l 3.9024,9 -0.563,-21 c -0.3097,-11.55 -1.1663,-25.275 -1.9035,-30.5 -0.7371,-5.225 -1.2369,-9.6337 -1.1106,-9.7972 0.1263,-0.1635 2.0191,2.5365 4.2061,6 12.4535,19.7215 16.1251,32.6213 18.2897,64.2585 1.2831,18.7531 1.0904,21.8188 -3.0522,48.5387 -8.3671,53.9695 -15.8126,111.7625 -22.4165,174 -9.369,88.2976 -9.8742,173.6454 -1.5093,255 4.8151,46.8309 11.2072,85.6681 24.9346,151.5 3.2113,15.4 6.802,33.85 7.9794,41 1.1774,7.15 2.8504,15.2032 3.7177,17.8961 l 1.5769,4.8961 1.3193,-2.8961 c 2.9163,-6.4019 11.0894,-12.8137 18.9402,-14.8586 7.6351,-1.9887 28.6276,-2.0102 45.9827,-0.047 16.7335,1.8928 38.6473,1.9031 54.6965,0.026 25.3861,-2.9695 66.5796,-9.6461 77.8035,-12.6101 15.6844,-4.1421 39.593,-13.8205 41.4122,-16.7641 0.6932,-1.1216 16.8446,-78.9127 20.068,-96.6547 11.1805,-61.5393 18.6741,-138.229 20.0299,-204.9873 0.3239,-15.95 1.3542,-44.525 2.2894,-63.5 1.9914,-40.4026 2.1549,-127.4203 0.3212,-171 -3.8573,-91.6756 -11.6715,-157.834 -26.6345,-225.50002 -19.6048,-88.6572 -42.0915,-164.6178 -59.5024,-201 -3.4217,-7.15 -12.7505,-26.725 -20.7308,-43.5 -46.8215,-98.42169 -105.8708,-210.8943 -155.521,-296.22476 l -12.0588,-20.72472 -7.0866,-2.92488 c -30.3714,-12.53538 -139.8331,-57.44415 -155.0866,-63.6273 -22.5758,-9.15131 -104.9597,-43.21232 -121.93,-50.41105 -6.5615,-2.78337 -12.0616,-4.92908 -12.2224,-4.76825 -0.1609,0.16084 8.9304,12.19234 20.2028,26.73667 19.5779,25.26051 50.8248,66.51235 58.8742,77.72504 4.7025,6.55053 7.5728,13.92332 7.5838,19.47993 0.01,4.05657 -0.4181,4.65327 -9.8875,13.84545 -27.6974,26.88681 -114.3944,96.79438 -137.4094,110.7992 -3.4065,2.07289 -4.1057,2.17399 -6.9337,1.00259 -6.0579,-2.50925 -27.4649,-26.46192 -33.9297,-37.96446 -1.219,-2.16893 -2.471,-3.94144 -2.7822,-3.93891 -0.3113,0.003 -6.017,7.31503 -12.6794,16.25 -10.8961,14.61266 -19.7402,27.14302 -52.6599,74.60885 -29.9568,43.1937 -54.5235,84.5665 -67.773,114.1366 -19.7969,44.1824 -37.5464,104.0135 -50.4323,170 -6.1016,31.2456 -6.6011,32.5646 -5.9815,15.7971 0.6097,-16.5032 2.7337,-35.402 5.5248,-49.1585 11.743,-57.8782 43.66,-150.1912 67.6416,-195.63865 15.0227,-28.46936 38.9026,-65.78332 65.2532,-101.96234 30.7295,-42.19133 50.2198,-63.41077 55.409,-60.32487 2.0837,1.23917 6.8067,7.0609 13.2131,16.28721 11.4345,16.4676 17.2705,20.15682 25.3586,16.03058 11.4843,-5.85887 96.7986,-74.25824 122.7433,-98.40746 l 5.6558,-5.26446 -22.465,-28.92933 c -46.8464,-60.32631 -71.4302,-93.10329 -82.9158,-110.54978 -7.7035,-11.70159 -15.69,-28.12069 -24.9917,-51.37955 -9.1635,-22.91302 -16.1436,-37.63897 -23.2261,-49 -11.8171,-18.95558 -27.6855,-35.7625 -43.7707,-46.35927 -11.9236,-7.85521 -20.7957,-9.65285 -43.723,-8.85912 -8.6608,0.29983 -17.3219,1.01923 -19.2469,1.59866 -5.631,1.69497 -31.6575,5.82708 -57,9.04967 -65.2197,8.2934 -106.33033,10.65944 -140.49998,8.0862 -7.15,-0.53845 -19.3,-1.44833 -27,-2.02197 -17.06251,-1.27111 -72.42474,-7.42963 -85.49999,-9.51105 -15.6294,-2.48801 -37.93178,-2.99617 -48.70747,-1.1098 -14.95822,2.61856 -21.34459,5.51432 -28.31622,12.83933 -23.11002,24.28149 -35.9119,59.94804 -38.50889,107.28735 -1.38554,25.25628 -5.68355,51.14343 -11.08688,66.77687 -7.29358,21.10249 -24.02109,61.7683 -60.99948,148.29427 -1.2739,2.9808 130.56485,62.41523 152.76977,68.87038 6.78322,1.97193 9.34023,1.21244 13.6918,-4.06677 2.88467,-3.49961 4.58184,-7.48635 12.2393,-28.75078 4.87816,-13.54646 7.80691,-14.67067 16.60516,-6.37397 21.80746,20.5643 53.08926,72.62456 81.44206,135.53865 19.67003,43.64726 25.44564,61.42811 43.76722,134.742 10.16217,40.664 12.3552,55.1718 13.97792,92.4694 0.84895,19.5128 0.20157,45.1969 -1.05863,42 -0.32521,-0.825 -1.57126,-10.9061 -2.76899,-22.4024 -5.61873,-53.9304 -12.10619,-85.4572 -28.56765,-138.8288 -12.91384,-41.8698 -23.91085,-70.09011 -44.72357,-114.76915 -18.99988,-40.78741 -26.61459,-55.06791 -40.25842,-75.5 -9.08734,-13.60858 -24.70975,-33.5 -26.31039,-33.5 -0.43627,0 -2.29174,3.7125 -4.12327,8.25 -5.00728,12.40519 -13.64465,28.93239 -17.37705,33.25014 l -3.31209,3.83152 -4.88204,-1.22931 c -11.29087,-2.84307 -74.35638,-29.32821 -113.99219,-47.87242 -41.65258,-19.48779 -62.79044,-30.95711 -65.0279,-35.28388 -1.92925,-3.73076 -1.87247,-12.22325 0.12713,-19.01455 3.14707,-10.6885 14.92694,-41.03005 29.86806,-76.9315 16.56923,-39.81358 29.21733,-72.64871 28.32719,-73.53885 -0.5222,-0.5222 -14.02221,4.65324 -41.29448,15.83089 -6.05,2.47962 -20,8.20091 -31,12.71399 -27.51285,11.28796 -69.65867,30.20353 -102.5,46.00329 -15.125,7.27654 -30.425,14.55309 -34,16.17011 -11.30629,5.11397 -74.4263,36.19226 -134,65.97734 l -57.5,28.74829 -4.94058,7.79747 c -56.04712,88.45631 -114.26056,191.0028 -165.37098,291.31102 -23.13053,45.3954 -32.045673,67.9285 -49.648403,125.4865 -15.66209,51.2124 -31.667,118.04542 -38.48628,160.71012 -12.05366,75.4137 -18.81239,199.6472 -15.03111,276.2899 0.5427,11 1.20651,38.675 1.47514,61.5 1.22462,104.0562 8.92321,170.7299 31.5224,273 3.22072,14.575 6.66737,31.6585 7.65923,37.9632 l 1.80339,11.4633 8.00859,8.108 c 6.01594,6.0907 9.99912,9.1205 16.0086,12.177 19.849453,10.0959 46.437393,16.1341 87.500003,19.8717 29.04112,2.6434 53.95618,1.038 87.22632,-5.6203 15.98889,-3.1998 41.40858,-11.191 51.77077,-16.2751 l 6.49709,-3.1878 7.69041,-38.5 c 12.53985,-62.7775 18.73484,-106.6969 23.27386,-165 3.60499,-46.3058 3.61614,-119.9492 0.0253,-167 -4.19733,-54.9973 -14.50203,-140.5888 -27.63043,-229.5 -2.85018,-19.3027 -3.05274,-22.374 -2.50611,-38 1.19941,-34.2866 6.0115,-52.2721 19.47001,-72.7703 1.36152,-2.0737 2.66927,-3.5766 2.90612,-3.3397 0.23686,0.2368 -0.37105,6.2085 -1.35089,13.2703 -1.3903,10.02 -1.75801,18.9886 -1.6744,40.8397 0.0589,15.4 0.49151,30.475 0.96132,33.5 l 0.8542,5.5 3.37322,-11.5 c 9.04572,-30.8388 22.9102,-59.4619 40.89777,-84.4333 15.61741,-21.6809 35.33657,-42.8767 47.04394,-50.5667 l 5.32846,-3.50002 -0.53497,-35.5 c -0.31281,-20.7575 -1.36413,-46.2823 -2.53158,-61.4636 -1.09813,-14.28 -1.85612,-26.104 -1.68441,-26.2757 0.88325,-0.8833 18.0381,33.8108 21.62732,43.7393 l 4.15736,11.5 0.15467,71.00002 c 0.1459,66.9698 -0.003,73.6111 -2.62449,117 -3.18496,52.7167 -10.26053,160.2088 -11.71667,178 -0.54019,6.6 -2.78688,37.65 -4.99265,69 -2.20577,31.35 -4.90945,68.25 -6.00817,82 -2.56697,32.1247 -7.91258,108.3071 -13.99787,199.4896 -5.94312,89.0522 -10.67478,183.1794 -13.52559,269.0654 l -0.61589,18.555 9.63354,5.3368 c 7.62578,4.2246 11.86032,5.8251 20.318,7.6794 22.49207,4.9315 49.12718,7.5901 94.78606,9.4612 68.55378,2.8094 148.56069,-4.7557 233.89841,-22.1165 60.25632,-12.2582 99.72021,-19.8857 114,-22.0334 3.3,-0.4963 20.17499,-1.1857 37.49999,-1.532 34.64529,-0.6924 67.04436,0.8541 96.39845,4.6013 8.7442,1.1163 16.1692,1.7588 16.5,1.428 1.1415,-1.1417 0.5621,-117.7554 -0.7052,-141.9348 -2.9663,-56.5966 -4.2815,-73.1891 -7.1732,-90.5 -5.7119,-34.1936 -8.6978,-59.7505 -11.6833,-100 -1.4408,-19.4237 -1.7262,-35.989 -1.6458,-95.5 0.054,-39.6 0.6104,-90.9 1.2374,-114 1.829,-67.3872 2.5291,-265.3055 1.1018,-311.5 -0.6712,-21.725 -1.395,-66.50002 -1.6084,-99.50002 -0.5082,-78.5836 -2.2216,-112.7378 -7.9602,-158.6789 -6.10694,-48.889 -13.67548,-81.4483 -28.31783,-121.82115 -16.93543,-46.6955 -33.1435,-80.25193 -60.87553,-126.0339 -15.27778,-25.22164 -22.46757,-38.21916 -34.78063,-62.87557 -28.11926,-56.3077 -48.43639,-109.30138 -71.34487,-186.09053 -3.85591,-12.925 -12.21544,-40.94431 -18.57673,-62.26513 -6.36129,-21.32083 -11.56598,-39.43333 -11.56598,-40.25 0,-0.81668 0.4083,-1.48487 0.90733,-1.48487 1.96198,0 10.08445,10.37837 13.4987,17.24777 4.20647,8.46333 19.54826,49.74126 28.89822,77.75223 6.09076,18.24692 19.34736,52.55643 25.11489,65 l 2.54922,5.5 -0.73418,-6.5 c -0.4038,-3.575 -0.67781,-13.25 -0.60892,-21.5 0.0978,-11.71425 0.57755,-16.6813 2.19002,-22.67543 9.94445,-36.96708 42.89293,-72.34287 87.39775,-93.83636 23.41841,-11.30986 47.30688,-17.57551 77.91054,-20.43498 53.9622,-5.04198 98.9881,4.21369 131.3764,27.00613 6.8253,4.80313 18.649,16.75819 23.1831,23.44064 3.8394,5.6586 9.9207,17.70641 12.7927,25.3438 l 2.1974,5.84381 0.6694,-36.84381 c 0.7479,-41.17307 1.5638,-58.3438 2.772,-58.3438 1.7284,0 6.0461,7.84625 8.3981,15.26123 3.7536,11.83386 5.5648,28.55139 6.3098,58.23877 1.4193,56.56143 0.3003,81.88336 -5.4315,122.90998 -8.0159,57.37611 -19.2782,91.35548 -83.5537,252.09002 -44.5536,111.41565 -62.8169,168.95105 -73.326,231.00005 -6.9174,40.8431 -8.0471,64.4044 -6.5206,136.00002 0.8885,41.6772 0.8719,66.0946 -0.073,107 -1.0142,43.9114 -2.2607,267.496 -2.2385,401.5 0.01,55.9864 3.5767,96.7777 14.43,165 9.2165,57.934 21.3568,112.0714 34.474,153.7305 5.9467,18.8865 21.5697,61.5455 36.7216,100.2695 9.1172,23.3013 9.2468,23.5517 15.3183,29.6175 6.9336,6.9269 13.2837,10.304 24.8944,13.2393 15.6271,3.9506 55.7861,9.4284 81.4823,11.1143 17.4156,1.1427 64.5188,0.3707 92,-1.5077 z m -68,-156.1459 c -16.9637,-1.7564 -21,-3.3614 -21,-8.35 0,-4.9447 1.7478,-5.4231 14.7922,-4.0494 13.8713,1.4609 16.2872,1.9029 17.9522,3.2847 2.0686,1.7169 1.5065,6.5081 -0.9669,8.2405 -2.164,1.5157 -3.5198,1.6257 -10.7775,0.8742 z m 26.655,-2.1462 c -2.0072,-2.218 -2.0981,-4.1831 -0.3069,-6.6327 1.0447,-1.4287 3.8023,-2.1337 12.25,-3.1319 16.1852,-1.9125 19.1134,-1.8142 20.4517,0.6864 1.4011,2.6179 0.4813,6.5582 -1.8116,7.761 -2.2532,1.1819 -17.0753,3.1459 -23.7422,3.1459 -3.7541,0 -5.643,-0.5049 -6.841,-1.8287 z m 46.345,-7.1713 c -2.286,-2.286 -2.5637,-4.9307 -0.75,-7.1413 0.6875,-0.8379 7.0572,-3.4394 14.1549,-5.781 14.0556,-4.6371 16.9263,-4.5905 18.1525,0.2952 1.2037,4.7958 -0.848,6.3265 -14.2034,10.5962 -6.9348,2.217 -13.2265,4.0309 -13.9814,4.0309 -0.7549,0 -2.2726,-0.9 -3.3726,-2 z m -123,-2.877 c -13.4207,-5.4006 -14.8851,-6.1856 -15.5711,-8.3469 -1.0538,-3.3205 0.4075,-6.6969 3.202,-7.3983 2.9138,-0.7313 25.9008,7.8616 28.1191,10.5114 2.8353,3.3866 0.091,9.1459 -4.3287,9.0838 -1.0567,-0.015 -6.1963,-1.7474 -11.4213,-3.85 z m 166.4128,-13.6157 c -2.0043,-3.0589 -1.1975,-7.1235 1.5895,-8.008 1.0987,-0.3488 2.0011,-0.9413 2.0053,-1.3167 0.011,-1.006 1.9405,-13.2391 2.5934,-16.4429 1.2021,-5.8996 7.0104,-7.7886 9.9857,-3.2477 1.5132,2.3094 1.5049,3.3535 -0.1134,14.25 -0.9605,6.4669 -2.2115,12.3465 -2.7802,13.0658 -1.2796,1.6185 -7.2912,4.1922 -9.7922,4.1922 -1.0201,0 -2.5898,-1.1217 -3.4881,-2.4927 z m -658.91277,-0.2456 c -1.65,-0.2413 -3.5625,-0.904 -4.25,-1.4726 -1.53539,-1.2701 -1.6212,-5.227 -0.17208,-7.9347 1.03259,-1.9294 1.69486,-1.9847 15.75,-1.3142 15.63589,0.7458 18.17208,1.5776 18.17208,5.9598 0,4.5528 -2.7048,5.5125 -15.07874,5.3502 -6.28169,-0.082 -12.77126,-0.3473 -14.42126,-0.5885 z m 44.83794,-1.276 c -4.73495,-1.8751 -3.59836,-9.4391 1.55536,-10.3509 1.43369,-0.2537 7.88016,-1.4827 14.3255,-2.7312 11.38853,-2.2061 11.77605,-2.2182 13.75,-0.4318 2.52753,2.2873 2.61064,5.6938 0.19231,7.8824 -3.10749,2.8122 -26.01795,7.1384 -29.82317,5.6315 z m -82.26931,-5.0546 c -6.28726,-1.643 -12.02476,-3.4797 -12.75,-4.0816 -2.2155,-1.8387 -1.6024,-6.6175 1.07399,-8.3711 2.21027,-1.4482 3.15771,-1.3738 12.43122,0.9769 5.52123,1.3996 10.90887,2.5447 11.97252,2.5447 2.72624,0 7.20364,3.7744 7.20364,6.0726 0,2.6321 -3.50824,5.9363 -6.25,5.8866 -1.2375,-0.023 -7.39412,-1.3851 -13.68137,-3.0281 z m 492.41344,0.4189 c -16.559,-11.0195 -19.9482,-14.7421 -17.5319,-19.2569 1.945,-3.6343 6.3562,-2.6854 14.6761,3.1569 4.112,2.8875 9.2533,6.4903 11.4251,8.0063 4.0732,2.8432 4.8497,5.1914 2.9134,8.8094 -1.501,2.8048 -6.6773,2.4822 -11.4827,-0.7157 z m -365.92537,-8.5725 c -2.03079,-2.8994 -1.96967,-5.1089 0.1933,-6.9873 1.68941,-1.4671 14.24568,-7.2761 23.00279,-10.6419 5.36711,-2.0628 7.62266,-0.9026 8.05398,4.1427 0.37198,4.3512 -0.46976,4.9953 -14.72883,11.2707 -11.40702,5.0202 -14.28644,5.4064 -16.52124,2.2158 z m -172.5567,-6.5646 c -11.17907,-4.5814 -11.50888,-4.8054 -11.81823,-8.0282 -0.37131,-3.8683 1.1902,-6.1785 4.19067,-6.1999 1.17016,-0.01 7.68846,2.1017 14.48511,4.689 13.78628,5.2481 15.81623,7.1227 12.76125,11.7852 -2.4158,3.687 -6.19767,3.254 -19.6188,-2.2461 z m 504.77777,-12.4629 c -4.2374,-3.3012 -18.7778,-20.2519 -18.7778,-21.8905 0,-2.4217 3.4718,-5.8595 5.9176,-5.8595 1.1108,0 6.1506,4.312 11.98,10.25 7.48,7.6194 10.0676,10.916 10.0824,12.845 0.037,4.7475 -5.4931,7.5447 -9.2022,4.655 z m -289.72356,-2.1847 c -0.65487,-0.789 -1.04747,-2.7457 -0.87244,-4.348 0.26168,-2.3957 2.24502,-4.3618 11.16203,-11.0653 10.88213,-8.1808 14.70494,-9.7033 17.4562,-6.952 0.66,0.66 1.2,2.6097 1.2,4.3326 0,3.4641 -2.25894,5.6227 -15.24767,14.5705 -7.31034,5.036 -11.51088,6.0977 -13.69812,3.4622 z m 539.51716,-9.1367 c -1.9865,-1.9865 -1.9774,-5.763 0.045,-18.6385 1.9936,-12.695 2.5272,-13.7901 6.7192,-13.7901 6.2325,0 6.6951,2.2561 4.0624,19.8135 -1.2178,8.1213 -2.0845,11.1066 -3.6108,12.4365 -2.4908,2.1703 -5.1576,2.2363 -7.2154,0.1786 z m -773.25881,-3.2143 c -1.8454,-1.1734 -2.86901,-4.796 -4.80517,-17.0059 -2.1564,-13.5987 -1.53672,-16.2084 3.84873,-16.2084 1.86944,0 3.89507,0.5977 4.5014,1.3283 0.60632,0.7306 2.10218,7.4574 3.32414,14.9484 2.16648,13.2813 2.17556,13.6711 0.36505,15.6717 -1.88355,2.0813 -5.07385,2.6396 -7.23415,1.2659 z m 270.24414,-18.4368 c -2.17693,-3.108 -1.97795,-4.2281 1.4433,-8.1247 2.69329,-3.0675 3,-4.1002 3,-10.1006 0,-8.699 1.01767,-10.5522 5.79464,-10.5522 5.48065,0 6.31726,1.9848 5.57307,13.2221 -0.60766,9.1756 -0.65946,9.3247 -4.69927,13.5279 -4.7261,4.9172 -8.59347,5.6228 -11.11174,2.0275 z m 234.87397,-10.2429 c -1.4036,-2.1422 -1.505,-4.3384 -0.7731,-16.75 l 0.8424,-14.2846 3.9601,-0.3229 c 5.9726,-0.487 6.5399,0.9261 6.5399,16.2915 0,10.2257 -0.3403,13.5722 -1.5567,15.3089 -2.1823,3.1156 -6.8952,2.9886 -9.0126,-0.2429 z m 274.4712,-15.8505 c -1.5568,-3.4168 2.4014,-28.7015 4.7635,-30.4287 2.5126,-1.8373 5.772,-1.5345 7.8179,0.7261 1.7254,1.9066 1.7166,2.4937 -0.2305,15.5096 -1.113,7.4404 -2.5804,14.1987 -3.2607,15.0184 -0.6803,0.8198 -2.7665,1.4905 -4.636,1.4905 -2.5831,0 -3.6523,-0.5559 -4.4542,-2.3159 z m -787.78128,-2.5884 c -2.01741,-1.2778 -6.47116,-26.9194 -5.17917,-29.8181 1.98433,-4.452 9.46128,-3.7418 10.54024,1.0013 0.2779,1.2216 1.39532,7.2907 2.48316,13.4869 2.34002,13.3285 1.73323,16.2442 -3.37534,16.2189 -1.69921,-0.01 -3.71021,-0.4085 -4.46889,-0.889 z m 285.07941,-14.2957 c -0.82852,-0.8285 -1.2,-5.9255 -1.2,-16.4648 0,-14.0684 0.1516,-15.346 1.93426,-16.3 2.8839,-1.5434 5.55463,-1.2574 7.41074,0.7935 1.37429,1.5186 1.65499,4.2061 1.65499,15.8451 0,12.3087 -0.22279,14.2178 -1.82874,15.6712 -2.13913,1.9359 -6.2554,2.1709 -7.97125,0.455 z m 229.48487,-13.8395 c -1.1332,-1.6179 -1.3263,-4.8739 -0.9338,-15.75 0.54,-14.9648 1.3495,-17.2105 6.2039,-17.2105 4.6439,0 5.045,1.3276 5.045,16.7 0,12.9667 -0.1865,14.4865 -2,16.3 -2.5775,2.5775 -6.4952,2.5589 -8.3151,-0.04 z m 281.8865,-14.5319 c -1.9865,-1.9865 -1.9774,-5.763 0.045,-18.6385 1.9936,-12.695 2.5272,-13.7901 6.7192,-13.7901 6.2325,0 6.6951,2.2561 4.0624,19.8135 -1.2178,8.1213 -2.0845,11.1066 -3.6108,12.4365 -2.4908,2.1703 -5.1576,2.2363 -7.2154,0.1786 z m -803.99994,-4 c -0.86429,-0.8643 -1.57143,-1.7017 -1.57143,-1.8609 0,-0.1592 -0.88802,-6.0743 -1.97337,-13.1447 -1.76592,-11.5039 -1.81606,-13.0954 -0.47695,-15.1392 1.82051,-2.7784 6.47508,-3.0664 8.62795,-0.5338 1.3179,1.5504 4.82237,21.131 4.82237,26.9442 0,2.8419 -2.55414,5.3058 -5.5,5.3058 -1.29643,0 -3.06429,-0.7071 -3.92857,-1.5714 z M 893.5577,1648.341 c -1.13974,-1.2878 -1.73843,-5.2508 -2.2668,-15.0049 -0.61728,-11.3957 -0.48868,-13.6048 0.91687,-15.75 2.13648,-3.2607 6.83969,-3.4026 9.03205,-0.2726 1.21918,1.7406 1.5567,5.1013 1.5567,15.5 0,11.9442 -0.20084,13.4783 -2,15.2775 -2.46519,2.4652 -5.19488,2.5595 -7.23882,0.25 z m 230.2138,-13.7801 c -1.5522,-1.8703 -0.5014,-29.1307 1.202,-31.1832 1.7931,-2.1605 7.5839,-1.602 8.9007,0.8584 1.3896,2.5965 0.2786,28.6611 -1.3045,30.6049 -1.4238,1.7481 -7.2694,1.562 -8.7982,-0.2801 z m 286.9269,-14.7858 c -1.2441,-2.7306 2.228,-27.9308 4.1709,-30.2718 2.651,-3.1943 9.9459,-0.6859 9.9142,3.4091 -0.035,4.5821 -4.0334,26.5296 -5.0575,27.7635 -0.6459,0.7783 -2.7039,1.4151 -4.5734,1.4151 -2.5831,0 -3.6523,-0.5559 -4.4542,-2.3159 z m -816.87353,-2.4601 c -1.83319,-1.4844 -2.53072,-4.0319 -4.24906,-15.5184 -1.97815,-13.2232 -1.98807,-13.8174 -0.26257,-15.7241 0.9863,-1.0898 2.76251,-1.9815 3.94715,-1.9815 4.54353,0 5.49163,1.9308 7.55796,15.3917 2.42029,15.7667 2.42103,15.1654 -0.0218,17.6083 -2.46564,2.4656 -4.13706,2.5194 -6.97166,0.224 z m 298.22965,-16.474 c -1.39944,-1.7725 -2.42735,-28.565 -1.18497,-30.8864 1.42203,-2.6571 8.45884,-2.6068 9.89179,0.071 1.49678,2.7967 1.35501,29.3459 -0.16482,30.8657 -1.5759,1.5759 -7.2847,1.5425 -8.542,-0.05 z m 234.36138,-13.6181 c -1.4699,-1.6242 -1.6125,-3.4845 -1.0927,-14.25 0.3288,-6.81 0.8002,-13.3814 1.0474,-14.603 0.897,-4.4322 8.1655,-5.5025 10.2987,-1.5166 1.3087,2.4454 -0.3086,28.8529 -1.8833,30.7504 -1.7173,2.0692 -6.3434,1.8587 -8.3701,-0.3808 z m 292.3631,-13.1494 c -1.5486,-1.5486 -2.0394,-2.9665 -1.6742,-4.8367 0.2841,-1.4552 1.3266,-7.7605 2.3165,-14.0119 1.5248,-9.6288 2.1484,-11.5944 4.0803,-12.8602 3.1975,-2.0951 7.0941,-0.9221 7.9242,2.3855 0.806,3.2113 -2.4922,26.7997 -4.0264,28.7961 -2.0543,2.6733 -6.2196,2.928 -8.6204,0.5272 z m -832.83294,-3.833 c -2.61719,-2.6172 -6.13966,-28.2515 -4.20279,-30.5853 1.57119,-1.8932 7.39016,-2.0681 8.88487,-0.2671 0.59207,0.7134 1.99883,7.3149 3.12613,14.6699 1.85278,12.0884 1.903,13.5966 0.52289,15.7029 -1.85754,2.835 -5.75157,3.0592 -8.3311,0.4796 z m 305.41078,-16.6802 c -1.7251,-1.3049 -1.98851,-3.09 -2.38099,-16.1359 -0.4012,-13.3355 -0.27571,-14.7897 1.38082,-16.001 1.00216,-0.7328 2.79137,-1.3324 3.976,-1.3324 4.25643,0 5.16675,2.6367 5.86914,17 0.56027,11.4571 0.41965,13.8405 -0.92926,15.75 -1.81384,2.5677 -5.07961,2.8644 -7.91571,0.7193 z m 237.96516,-13.4412 c -1.6454,-1.8181 -1.7024,-3.07 -0.7315,-16.0554 0.5916,-7.9122 1.5784,-14.7165 2.252,-15.5281 1.6966,-2.0443 6.3299,-1.7917 8.3639,0.4559 1.5669,1.7313 1.6239,3.1331 0.6401,15.75 -0.9417,12.0779 -1.348,14.0734 -3.1757,15.5995 -2.7393,2.2873 -5.1438,2.2147 -7.3488,-0.2219 z m 297.0459,-12.5995 c -0.8643,-0.8643 -1.5713,-2.5518 -1.5712,-3.75 5e-4,-4.72 3.9232,-25.8814 5.0491,-27.2381 2.6702,-3.2173 9.9603,-0.7387 9.9441,3.3809 0,0.9232 -0.9007,6.8536 -1.9934,13.1786 -1.0927,6.325 -1.9897,11.8054 -1.9934,12.1786 -0.015,1.5362 -3.308,3.8214 -5.5066,3.8214 -1.2964,0 -3.0643,-0.7071 -3.9286,-1.5714 z m -847.76569,-4.1786 c -1.7973,-2.0909 -5.32091,-25.061 -4.40447,-28.7124 1.07721,-4.2919 8.78622,-4.6731 10.11074,-0.5 0.33783,1.0645 1.47209,7.4414 2.52056,14.1711 1.70248,10.9273 1.74673,12.4793 0.41385,14.5135 -1.81677,2.7728 -6.46677,3.0568 -8.64068,0.5278 z m 310.54204,-17.1407 c -1.77995,-1.6582 -2.10577,-3.5802 -2.65072,-15.6364 -0.71071,-15.7234 -0.23853,-17.4729 4.71574,-17.4729 5.58201,0 5.50287,-0.2608 7.04896,23.2249 0.4609,7.0012 0.30489,7.9146 -1.66514,9.75 -2.71197,2.5266 -4.83993,2.565 -7.44884,0.1344 z m 244.17735,-13.0815 c -1.606,-1.7747 -1.7136,-3.3026 -1.0735,-15.25 0.8034,-14.9942 1.8287,-17.7778 6.5484,-17.7778 5.0763,0 6.0011,2.7901 4.9721,15 -0.4867,5.775 -0.9045,11.7375 -0.9285,13.25 -0.05,3.1601 -3.1819,6.75 -5.8886,6.75 -1.0148,0 -2.6482,-0.8875 -3.6299,-1.9722 z m 299.51,-12.9622 c -1.6841,-3.1468 2.559,-28.0651 5.1622,-30.3156 4.1616,-3.5977 8.8097,-0.7812 8.7938,5.3287 -0.017,6.3943 -3.6939,25.1191 -5.1091,26.0154 -2.579,1.6334 -7.7436,1.0329 -8.8469,-1.0285 z m -860.46474,-2.3905 c -1.30457,-0.9539 -2.33563,-4.384 -3.68225,-12.25 -3.04332,-17.7768 -2.54629,-20.4251 3.83336,-20.4251 4.22607,0 4.6723,1.0297 7.30674,16.8606 1.88132,11.3052 1.92327,12.5645 0.49133,14.75 -1.74209,2.6587 -5.1456,3.1145 -7.94918,1.0645 z m 313.08607,-19.9251 c -0.79979,-1.2949 -1.85252,-7.7552 -2.47997,-15.2189 -0.96784,-11.5125 -0.90926,-13.1688 0.52164,-14.75 2.01742,-2.2292 6.61843,-2.3096 8.41324,-0.147 0.83421,1.0052 1.81461,6.8748 2.5472,15.25 1.0578,12.0932 1.01433,13.8116 -0.38875,15.3659 -2.2757,2.521 -6.91376,2.2517 -8.61336,-0.5 z m 252.09357,-10.8301 c -1.2591,-0.7334 -1.75,-2.29 -1.75,-5.5492 0,-6.6843 2.0989,-23.5928 3.1874,-25.6772 1.2043,-2.306 7.6261,-1.9664 9.1608,0.4846 1.566,2.5007 -1.0343,27.7647 -3.0951,30.0719 -1.7371,1.9448 -4.8387,2.2218 -7.5031,0.6699 z m 303.8206,-12.8419 c -1.8459,-2.0397 -1.8399,-2.3423 0.2978,-15.1917 2.6149,-15.7173 3.1318,-16.8863 7.4668,-16.8863 4.2027,0 5.6685,1.5437 5.6496,5.95 -0.02,4.6228 -3.7691,25.2343 -4.7728,26.238 -0.426,0.426 -2.1208,1.0438 -3.7662,1.3728 -2.2645,0.4529 -3.4496,0.092 -4.8752,-1.4828 z m -876.82492,-3.828 c -0.92401,-1.0337 -2.21543,-6.1627 -3.15499,-12.5303 -2.54443,-17.2442 -2.1003,-19.7197 3.53791,-19.7197 4.13775,0 5.49979,2.1454 6.78725,10.6911 2.1676,14.3877 2.45972,20.1515 1.1041,21.7849 -1.70631,2.056 -6.34774,1.9292 -8.27427,-0.226 z m 317.80564,-17.7873 c -1.60217,-1.2117 -2.16815,-3.6512 -3.18268,-13.7182 -0.67868,-6.7345 -1.26426,-13.2466 -1.30129,-14.4714 -0.0879,-2.9094 4.10648,-5.6973 7.34769,-4.8838 3.0248,0.7592 4.22272,4.3499 5.04113,15.1107 0.33465,4.4 0.85053,9.6405 1.14641,11.6456 0.43124,2.9223 0.0898,4.0631 -1.72085,5.75 -2.63805,2.4577 -4.62698,2.6116 -7.33041,0.5671 z m 259.64868,-12.6627 c -1.507,-1.507 -1.5169,-5.5473 -0.046,-18.8 0.7058,-6.3592 1.7551,-11.1901 2.6607,-12.25 2.1788,-2.5501 6.8156,-2.2437 8.6607,0.5723 1.3682,2.0882 1.3395,3.7085 -0.2849,16.0723 -1.2221,9.3023 -2.273,14.0451 -3.2485,14.6624 -2.0517,1.2981 -6.329,1.1561 -7.7421,-0.257 z m 307.3714,-12.3714 c -1.9898,-1.9899 -1.9887,-2.0237 0.5599,-16.6757 1.1723,-6.7391 2.817,-13.0404 3.655,-14.0029 3.4215,-3.9298 9.2205,-1.0498 9.2048,4.5714 -0.015,5.5178 -3.6196,24.526 -4.9556,26.1359 -1.6587,1.9985 -6.4531,1.9822 -8.4641,-0.029 z m -892.47026,-4.2397 c -1.88933,-3.5302 -5.18581,-27.1621 -4.07773,-29.2326 2.22226,-4.1523 9.43127,-3.2398 10.44798,1.3226 1.37687,6.1784 3.52263,20.6468 3.52545,23.7711 0.002,1.9525 -0.53681,4.09 -1.19681,4.75 -1.88812,1.8881 -7.57517,1.4886 -8.69889,-0.6111 z m 321.16658,-16.8453 c -1.67113,-0.676 -2.8787,-5.8345 -4.31314,-18.4248 -1.44111,-12.649 -0.76281,-14.9188 4.45819,-14.9188 1.8383,0 3.81816,0.5733 4.39967,1.274 0.96998,1.1687 4.18759,22.1937 4.18759,27.363 0,4.0898 -4.39768,6.46 -8.73231,4.7066 z m 269.74378,-13.3321 c -1.7081,-1.7081 -2.046,-2.9333 -1.6097,-5.8367 0.3036,-2.0211 1.0372,-7.4998 1.6301,-12.1748 0.5929,-4.675 1.2836,-9.4995 1.5348,-10.7211 0.9329,-4.5353 8.1839,-5.4819 10.3917,-1.3567 1.1474,2.144 -1.9639,28.4986 -3.5471,30.0457 -2.2417,2.1907 -6.232,2.2114 -8.3998,0.044 z m 309.6435,-11.8402 c -0.9103,-1.0058 -1.655,-2.827 -1.655,-4.047 0,-4.1048 4.1725,-25.6119 5.2138,-26.8743 0.5671,-0.6875 2.5606,-1.25 4.4301,-1.25 5.5542,0 6.0716,2.5838 3.5533,17.7445 -1.7069,10.2755 -2.5369,13.0957 -4.2688,14.5055 -2.7609,2.2473 -5.1922,2.2209 -7.2734,-0.079 z m -907.08354,-3.7427 c -0.86429,-0.8643 -1.57143,-1.7017 -1.57143,-1.8609 0,-0.1592 -0.88802,-6.0743 -1.97337,-13.1447 -1.76592,-11.5039 -1.81606,-13.0954 -0.47695,-15.1392 1.82051,-2.7784 6.47508,-3.0664 8.62795,-0.5338 1.3179,1.5504 4.82237,21.131 4.82237,26.9442 0,2.8419 -2.55414,5.3058 -5.5,5.3058 -1.29643,0 -3.06429,-0.7071 -3.92857,-1.5714 z m 321.57814,-18.279 c -1.38124,-1.3813 -2.29302,-5.1921 -3.59588,-15.0292 -1.61151,-12.1676 -1.62122,-13.3684 -0.12651,-15.6496 3.09715,-4.7268 8.95966,-2.5035 10.04971,3.8113 1.33257,7.7198 2.48501,17.5316 2.5033,21.3129 0.0315,6.505 -4.82529,9.5599 -8.83062,5.5546 z m 282.4218,-12.721 c -1.9865,-1.9865 -1.9774,-5.763 0.045,-18.6385 1.9936,-12.695 2.5272,-13.7901 6.7192,-13.7901 6.2325,0 6.6951,2.2561 4.0624,19.8135 -1.2178,8.1213 -2.0845,11.1066 -3.6108,12.4365 -2.4908,2.1703 -5.1576,2.2363 -7.2154,0.1786 z m 310.6286,-11.6286 c -0.66,-0.66 -1.2,-2.2975 -1.2,-3.6389 0,-4.4857 4.1092,-26.5878 5.184,-27.8828 0.5835,-0.703 2.5904,-1.2783 4.4599,-1.2783 5.5874,0 6.0741,2.5485 3.4835,18.2438 -1.5288,9.2619 -2.6885,13.6328 -3.8489,14.5062 -2.1084,1.5869 -6.5143,1.6142 -8.0785,0.05 z m -921.06588,-3.55 c -1.68642,-1.4138 -2.47693,-4.3284 -4.11447,-15.1699 -1.83166,-12.1267 -1.87987,-13.6444 -0.50025,-15.75 2.05151,-3.131 6.89539,-3.1747 8.8707,-0.08 0.78989,1.2375 2.23509,8.1958 3.21155,15.463 1.71908,12.7939 1.71692,13.2775 -0.0681,15.25 -2.26136,2.4987 -4.65061,2.5914 -7.39943,0.287 z m 321.99719,-19 c -2.86792,-2.401 -6.86899,-27.0959 -4.90073,-30.2476 1.47556,-2.3627 6.89154,-2.7375 9.00591,-0.6231 0.80098,0.801 2.16787,7.0747 3.26005,14.9628 1.82772,13.2007 1.82877,13.641 0.0371,15.6207 -2.26146,2.4989 -4.64988,2.5916 -7.40235,0.2872 z m 295.06869,-12.45 c -0.66,-0.66 -1.196,-2.7975 -1.1911,-4.75 0.014,-5.807 3.5731,-24.8414 4.9556,-26.5073 1.9901,-2.3978 6.729,-1.9401 8.5406,0.8248 1.4155,2.1602 1.3585,3.5264 -0.6506,15.6022 -1.211,7.2791 -2.8308,13.8638 -3.5996,14.6325 -1.7134,1.7134 -6.4236,1.8291 -8.0549,0.1978 z m 312,-12 c -1.5913,-1.5913 -1.5136,-5.1257 0.3665,-16.6761 1.9573,-12.0255 3.0857,-14.9985 5.9669,-15.7217 2.8217,-0.7081 6.1309,0.9647 6.9378,3.5072 0.6918,2.1795 -3.0641,25.4615 -4.5576,28.2521 -1.1377,2.1258 -6.8106,2.5415 -8.7136,0.6385 z m -936.53452,-3.0554 c -1.25789,-0.9198 -2.26506,-4.845 -3.76776,-14.6841 -2.40951,-15.7765 -1.97215,-18.0605 3.45843,-18.0605 1.86944,0 3.95563,0.6707 4.63597,1.4905 0.68034,0.8197 2.14766,7.578 3.26072,15.0184 1.94713,13.0159 1.95585,13.603 0.23048,15.5096 -2.04588,2.2606 -5.30526,2.5634 -7.81784,0.7261 z m 321.29909,-19.2873 c -1.40275,-1.6902 -4.94148,-20.7362 -4.95566,-26.6721 -0.009,-3.8907 1.88036,-5.7852 5.77039,-5.7852 3.51675,0 4.94601,3.3064 7.24523,16.7607 2.18493,12.7856 2.20162,13.332 0.46582,15.25 -2.14307,2.3681 -6.73162,2.6084 -8.52578,0.4466 z m 312.27393,-11.1026 c -3.1024,-1.301 -3.3194,-4.23 -1.1923,-16.0964 1.1592,-6.4671 2.5714,-12.9808 3.1383,-14.475 1.1379,-2.9996 3.7483,-4.2568 6.8166,-3.283 4.0374,1.2815 4.3111,3.828 1.8973,17.6476 -1.2463,7.1348 -2.7457,13.5957 -3.3322,14.3575 -1.2116,1.5741 -5.4396,2.6411 -7.3277,1.8493 z m 647.7615,-8.7133 c 0,-0.1628 -4.2425,-21.4111 -9.4278,-47.2186 -20.4494,-101.7772 -40.4567,-184.04362 -57.6203,-236.92282 -13.7667,-42.414 -34.8415,-91.3401 -53.4127,-124 -25.6323,-45.0778 -52.3049,-67.8998 -86.0243,-73.6053 -11.6386,-1.9693 -39.0955,-0.01 -57.0149,4.0713 -16.6496,3.7909 -40.2637,16.2039 -37.397,19.6581 3.7955,4.5732 30.6838,20.4222 43.147,25.4324 3.1625,1.2713 5.75,2.5879 5.75,2.9257 0,0.3379 -5.2875,1.1443 -11.75,1.792 -38.6747,3.8767 -87.2213,16.1747 -128.4632,32.5428 l -13.7132,5.4426 1.362,-3.1298 c 0.7492,-1.7214 3.4599,-7.8548 6.024,-13.6298 16.2227,-36.538 30.0405,-83.3624 36.6779,-124.29058 l 2.2365,-13.79053 3.3424,9.29053 c 4.3665,12.13745 11.8071,27.30331 18.2951,37.29053 2.8584,4.40005 5.5392,8.36655 5.9574,8.81455 0.4181,0.448 7.4587,-2.3046 15.6457,-6.117 51.214,-23.8486 86.5945,-27.76393 127.8854,-14.15229 13.5091,4.4533 35.3111,14.71469 44.4506,20.92119 50.4354,34.25 96.9167,145.8262 137.9049,331.03362 12.1819,55.0445 30.666,150.907 29.3358,152.1416 -0.3802,0.353 -5.1913,1.6207 -10.6913,2.8173 -5.5,1.1966 -10.5625,2.3562 -11.25,2.577 -0.6875,0.2207 -1.25,0.2682 -1.25,0.1055 z m -337.0199,-4.1654 c -2.5427,-3.0637 0.9817,-25.0888 4.7268,-29.5396 2.6555,-3.1557 7.7903,-4.0392 10.0931,-1.7364 1.6386,1.6386 1.5108,5.7991 -0.2375,7.731 -0.7907,0.8736 -2.179,6.0841 -3.0852,11.5787 -1.2212,7.4045 -2.172,10.4433 -3.6733,11.7403 -2.495,2.1556 -6.1352,2.2607 -7.8239,0.226 z m -950.18308,-3.1563 c -0.93666,-0.2465 -1.96641,-1.2781 -2.28834,-2.2924 -0.32193,-1.0144 -3.04307,-5.759 -6.04699,-10.5437 -7.1067,-11.3196 -7.19172,-16.4836 -0.27138,-16.4836 3.22759,0 7.43421,5.1125 13.28529,16.1462 4.07266,7.6801 4.25788,9.1203 1.52443,11.8538 -1.98405,1.984 -2.9215,2.1835 -6.20301,1.3197 z m 320.55052,-18.3148 c -2.2748,-0.9176 -2.64294,-2.1359 -5.8655,-19.4104 -2.05601,-11.0213 -1.30389,-13.5945 3.9735,-13.5945 4.75616,0 5.74481,1.949 8.49673,16.7501 2.12967,11.4544 2.17122,12.4125 0.63964,14.75 -1.70058,2.5954 -3.57541,2.9849 -7.24437,1.5048 z m 326.40246,-13.085 c -0.9625,-0.5606 -1.75,-2.06 -1.75,-3.3321 0,-3.9963 4.9516,-26.8246 6.1251,-28.2386 2.7666,-3.3334 9.9255,-0.2553 9.837,4.2295 -0.089,4.5204 -5.7815,26.6935 -7.0606,27.5033 -1.8518,1.1725 -4.982,1.1015 -7.1515,-0.1621 z M 495.90696,1151.841 c -9.54129,-10.8089 -10.84519,-13.8701 -7.28169,-17.095 4.06343,-3.6774 6.27461,-2.1866 19.05292,12.845 5.72535,6.735 6.54284,10.3888 2.89583,12.9433 -1.22237,0.8562 -2.98675,1.5567 -3.92083,1.5567 -0.93408,0 -5.76988,-4.6125 -10.74623,-10.25 z m -377.61043,-10.0309 c -6.05,-2.222 -11.15913,-4.1644 -11.35363,-4.3165 -0.51215,-0.4005 7.50001,-27.8506 19.52757,-66.9026 40.76365,-132.35452 82.07414,-236.43002 120.8647,-304.50002 26.15583,-45.8986 52.69102,-76.62514 77.63734,-89.90059 8.40159,-4.47099 28.59642,-12.02742 40.32402,-15.0883 17.90491,-4.67315 40.42885,-6.22735 57.17764,-3.9454 22.67522,3.08941 51.02463,14.55604 78.63268,31.80496 5.39568,3.3711 10.21211,6.12928 10.70319,6.12928 1.58898,0 13.14696,-14.17499 19.54279,-23.96774 3.42413,-5.24274 8.23156,-13.50872 10.68319,-18.36885 l 4.4575,-8.83658 0.6515,6.23327 c 0.35833,3.42831 0.65633,9.42977 0.66222,13.33659 0.0453,30.04542 11.18492,88.10986 24.47036,127.54976 1.93541,5.7456 3.51893,10.5844 3.51893,10.7529 0,0.1685 -6.4125,-3.037 -14.25,-7.1233 -41.73513,-21.7598 -83.90742,-37.0662 -132.75,-48.1816 -1.93041,-0.4394 0.23401,-1.4606 9.5,-4.4825 10.91902,-3.5611 35.17914,-14.7476 39.94408,-18.4185 1.88856,-1.455 1.84573,-1.5998 -1.5,-5.0711 -11.3883,-11.81565 -32.537,-20.83894 -63.40656,-27.05299 -23.26828,-4.68391 -42.50236,-2.43636 -61.68049,7.20751 -11.2435,5.65389 -19.83395,12.25928 -32.97067,25.35188 -23.02547,22.9481 -47.61084,59.6175 -73.46328,109.5713 -17.21923,33.2721 -38.31448,83.7033 -58.97994,141 -12.2975,34.09582 -43.71327,128.74352 -50.52475,152.21812 -2.83781,9.78 -5.44287,18.0652 -5.78902,18.4114 -0.34615,0.3462 -5.57937,-1.1885 -11.62937,-3.4104 z m 722.47567,-9.2484 c -1.15123,-1.3872 -5.95253,-23.628 -5.96886,-27.6493 -0.0165,-4.072 6.2769,-6.3948 9.25565,-3.4161 0.77292,0.7729 2.67837,7.519 4.23431,14.9913 2.74111,13.1639 2.77253,13.6483 1.01113,15.5947 -2.15268,2.3787 -6.74197,2.6365 -8.53223,0.4794 z m 347.2468,-12.0274 c -1.2726,-0.8914 -2.2225,-2.6082 -2.2225,-4.017 0,-3.9048 4.9245,-25.6304 6.1422,-27.0976 0.6065,-0.7308 2.6068,-1.3287 4.4451,-1.3287 5.6249,0 5.9689,2.1349 2.7819,17.2616 -3.3913,16.0961 -5.5818,19.0795 -11.1467,15.1817 z m -356.65104,-34.0147 c -0.86429,-0.8643 -1.57143,-1.7911 -1.57143,-2.0596 0,-0.2684 -1.125,-5.4718 -2.5,-11.5629 -1.375,-6.0912 -2.5,-12.3486 -2.5,-13.9053 0,-4.5596 6.18546,-6.6861 9.16484,-3.1508 1.34545,1.5965 6.84455,23.5874 6.83796,27.345 -0.007,4.0649 -6.42986,6.3351 -9.43137,3.3336 z m 365.62854,-12.6286 c -1.6802,-1.6802 -1.5376,-3.3728 1.3116,-15.5582 3.5618,-15.2333 4.0558,-16.2418 7.9547,-16.2418 1.8826,0 3.93,0.7804 4.9214,1.8759 1.6027,1.7709 1.5284,2.5839 -1.327,14.532 -1.6635,6.9608 -3.4985,13.5417 -4.0778,14.6241 -1.2039,2.2495 -6.8111,2.7398 -8.7829,0.768 z m -376.17982,-33.2757 c -1.41541,-1.7055 -6.96569,-22.7814 -6.99826,-26.5743 -0.0294,-3.4231 1.7113,-4.95 5.64293,-4.95 4.18612,0 4.61949,0.8601 8.35455,16.5815 2.83645,11.9391 2.91871,12.8294 1.34588,14.5674 -2.0089,2.2198 -6.64142,2.4282 -8.3451,0.3754 z m 388.20232,-12.081 c -1.2224,-0.8562 -2.2225,-2.4575 -2.2225,-3.5585 0,-4.3913 6.1783,-26.44172 7.743,-27.63482 2.6014,-1.9837 6.0598,-1.4807 7.7705,1.1303 1.4444,2.20442 1.3268,3.33072 -1.5932,15.25002 -3.8388,15.6698 -6.202,18.6624 -11.6978,14.813 z M 809.11224,995.89148 c -1.43399,-1.8409 -7.31571,-23.9153 -7.31571,-27.4562 0,-1.6194 0.54,-3.4843 1.2,-4.1443 1.76772,-1.7678 6.26429,-1.4592 8.01445,0.55 0.83844,0.9625 3.04568,7.7084 4.90499,14.991 2.6104,10.2245 3.12967,13.6418 2.27928,15 -1.34882,2.1544 -7.65697,2.8902 -9.08301,1.0595 z m 411.92276,-11.4666 c -3.392,-1.3666 -3.3441,-4.1753 0.3082,-18.0799 2.0563,-7.8281 4.3071,-14.2926 5.2242,-15.004 2.3967,-1.8592 5.6784,-1.5161 7.7873,0.8143 1.8306,2.0228 1.7986,2.3391 -1.595,15.7312 -4.0454,15.9645 -6.0679,18.8173 -11.7247,16.5384 z m -428.01272,-33.5839 c -2.05999,-2.5267 -11.22575,-24.0041 -11.22575,-26.3045 0,-1.3248 0.85538,-2.833 1.93426,-3.4104 2.64687,-1.4165 6.77737,-1.302 7.74567,0.2149 2.1769,3.41 11.32007,24.1553 11.32007,25.6845 0,3.9833 -7.31068,6.8371 -9.77425,3.8155 z m 441.97422,-11.95 c -2.2663,-2.2664 -1.1899,-6.6655 4.4643,-18.2446 4.3545,-8.9176 6.206,-11.7358 8.0073,-12.1879 3.0285,-0.7601 7.3284,2.0305 7.3284,4.756 0,1.1426 -2.6691,7.6572 -5.9314,14.4769 -5.8542,12.2383 -5.9751,12.3996 -9.3,12.3996 -1.8527,0 -3.9086,-0.54 -4.5686,-1.2 z m -461.37854,-30.1529 c -0.72679,-0.744 -3.99329,-6.7924 -7.2589,-13.4408 -5.29237,-10.7746 -5.81079,-12.3661 -4.77144,-14.6472 0.97306,-2.1356 1.83989,-2.5591 5.23791,-2.5591 h 4.07188 l 5.94956,12.6068 c 3.27226,6.9338 5.94956,13.4333 5.94956,14.4433 0,2.0741 -3.57367,4.9499 -6.15108,4.9499 -0.93833,0 -2.30071,-0.6088 -3.02749,-1.3529 z m 480.00344,-13.1321 c -0.9868,-2.1658 -0.4584,-3.9317 4.1142,-13.75 2.8855,-6.1958 5.8901,-12.2775 6.6767,-13.515 2.6245,-4.1286 10.3842,-2.1236 10.3842,2.6831 0,0.9846 -2.688,7.4774 -5.9734,14.4285 l -5.9733,12.6384 h -4.0481 c -3.341,0 -4.2458,-0.4341 -5.1803,-2.485 z m -501.58942,-28.765 c -2.37664,-2.9431 -12.23545,-23.9196 -12.23545,-26.0334 0,-1.2741 0.54,-2.8566 1.2,-3.5166 1.33107,-1.3311 5.65636,-1.5789 7.46582,-0.4277 1.75923,1.1192 13.33418,23.6137 13.33418,25.9134 0,4.1947 -7.22928,7.2037 -9.76455,4.0643 z m 523.38992,-12.2675 c -0.894,-0.894 -1.6254,-2.5499 -1.6254,-3.6798 0,-2.224 11.6546,-24.8311 13.423,-26.0374 3.2655,-2.2276 8.6546,0.8225 8.5049,4.8134 -0.04,1.0567 -2.8521,7.3213 -6.25,13.9213 -5.7387,11.1468 -6.4,12.0216 -9.3025,12.304 -1.8967,0.1845 -3.7633,-0.3348 -4.75,-1.3215 z m -545.97653,-30.7325 c -0.7685,-1.2375 -3.99204,-6.9299 -7.16342,-12.6498 -4.87969,-8.801 -5.62647,-10.7996 -4.85757,-13 0.71513,-2.0466 1.66814,-2.6642 4.47596,-2.9008 4.27125,-0.3599 4.08354,-0.5673 11.8031,13.0443 7.82824,13.8032 7.92089,17.7563 0.41614,17.7563 -2.31764,0 -3.68599,-0.6587 -4.67421,-2.25 z m 566.15613,-12.2788 c -1.0293,-2.259 -0.4467,-3.8853 5.4629,-15.25 l 6.6152,-12.7212 4.0538,-0.3073 c 3.5405,-0.2684 4.2041,0.023 5.2411,2.2985 1.0705,2.3496 0.6137,3.7074 -4.6452,13.8073 -7.1577,13.7468 -7.9506,14.7015 -12.2092,14.7015 -2.6307,0 -3.6183,-0.5527 -4.5186,-2.5288 z m -586.95007,-26.4926 c -2.66059,-1.5536 -15.03939,-23.6583 -14.67606,-26.207 0.3718,-2.6082 4.96579,-5.1779 7.7034,-4.309 2.40756,0.7641 15.11776,22.474 15.11776,25.8222 0,4.5929 -4.18627,7.0053 -8.1451,4.6938 z m 609.80007,-13.8074 c -0.9103,-1.0058 -1.6375,-2.4683 -1.6162,-3.25 0.021,-0.7817 3.0724,-6.8212 6.7801,-13.4212 6.2945,-11.2047 6.959,-12.0211 10.0265,-12.3183 3.9462,-0.3822 6.1546,1.2135 6.1546,4.447 0,2.0483 -10.232,21.4982 -13.2155,25.1213 -1.5242,1.8509 -6.2342,1.5156 -8.1295,-0.5788 z m -634.90205,-27.9212 c -3.50925,-3.9441 -13.75292,-21.53 -13.75292,-23.6104 0,-3.1004 1.83962,-4.6396 5.54501,-4.6396 3.81438,0 4.48557,0.7442 12.42102,13.7735 5.90656,9.6981 6.18802,10.4403 5.02421,13.25 -1.00713,2.4314 -1.82317,2.9765 -4.45657,2.9765 -1.81035,0 -3.90635,-0.7673 -4.78075,-1.75 z m 657.28225,-13.1843 c -1.6003,-2.9902 -1.4341,-3.4751 5.0958,-14.8684 7.4395,-12.98048 8.4529,-14.19735 11.824,-14.19735 6.8367,0 6.6555,5.34696 -0.6034,17.80555 -3.1066,5.332 -6.3263,10.482 -7.155,11.4445 -2.0971,2.4359 -7.8207,2.3208 -9.1614,-0.1843 z M 659.5703,704.84093 c -2.89008,-2.24596 -14.77377,-21.63019 -14.77377,-24.09843 0,-3.24557 2.19824,-4.85395 6.10906,-4.4698 2.93022,0.28783 3.93954,1.40945 10.56533,11.74083 4.02908,6.28243 7.32561,12.01993 7.32561,12.75 0,1.93165 -3.70265,5.3274 -5.80887,5.3274 -0.99488,0 -2.53269,-0.5625 -3.41736,-1.25 z m 705.2884,-15.1338 c -1.6727,-3.1254 -1.6375,-3.20886 6.9736,-16.53391 6.6629,-10.31034 7.3847,-11.08229 10.363,-11.08229 7.9041,0 7.4719,4.87448 -1.6488,18.59421 -6.7604,10.16934 -7.4901,10.92596 -10.8049,11.20453 -2.9233,0.24565 -3.7909,-0.14215 -4.8829,-2.18254 z m -739.05525,-33.3662 c -8.3442,-11.27108 -9.50695,-14.58251 -6.17818,-17.59501 1.91895,-1.73663 4.92512,-2.1329 6.74922,-0.88968 1.91772,1.30703 16.42204,22.43873 16.42204,23.92567 0,3.335 -2.06456,5.30902 -5.55251,5.30902 -3.26669,0 -3.97454,-0.66512 -11.44057,-10.75 z m 765.19305,-4.45 c -2.5379,-2.53789 -1.0618,-6.42084 6.5767,-17.3 6.3389,-9.02831 8.2271,-11.05776 10.5338,-11.32226 1.5457,-0.17724 3.4582,0.21536 4.25,0.87245 3.0884,2.56318 1.6354,6.84469 -6.122,18.03856 -6.9847,10.07893 -7.8085,10.91125 -10.8,10.91125 -1.7812,0 -3.7785,-0.54 -4.4385,-1.2 z m -785.91338,-24.05 c -6.95608,-7.59017 -16.28659,-20.31965 -16.28659,-22.21956 0,-4.01111 5.28112,-6.92151 8.64665,-4.76513 2.44013,1.56346 17.35335,21.68089 17.35335,23.40909 0,2.35374 -3.47191,5.8256 -5.82569,5.8256 -1.00412,0 -2.7536,-1.0125 -3.88772,-2.25 z m 812.12648,-15.24228 c -0.9246,-1.4112 -1.3436,-3.25473 -0.9659,-4.25 1.4955,-3.94042 16.1824,-22.27657 18.3101,-22.85963 3.0372,-0.83228 7.2427,2.01622 7.2427,4.90564 0,1.29305 -3.6543,7.05112 -8.5531,13.47695 -7.459,9.78413 -8.9271,11.21932 -11.4769,11.21932 -2.0129,0 -3.4327,-0.77651 -4.5569,-2.49228 z M 576.29653,592.32562 c -0.55,-0.40408 -4.7125,-4.84385 -9.25,-9.86616 -6.36296,-7.04281 -8.25,-9.79903 -8.25,-12.05 0,-3.6502 1.61208,-5.31853 5.13922,-5.31853 2.20635,0 4.50183,1.96378 11.8,10.09491 9.18888,10.23762 10.83342,13.73245 7.86078,16.70509 -1.32413,1.32413 -5.7321,1.58661 -7.3,0.43469 z M 1446.3679,576.5195 c -2.9481,-2.94808 -1.6854,-5.76521 7.4752,-16.67857 7.4698,-8.89898 9.4996,-10.75 11.7885,-10.75 3.5434,0 5.1649,1.65972 5.1649,5.28664 0,2.15623 -2.1868,5.52157 -8.6423,13.3 -7.1858,8.65842 -9.1118,10.41336 -11.4286,10.41336 -1.5324,0 -3.4934,-0.70714 -4.3577,-1.57143 z M 535.65645,549.40375 c -7.72631,-7.59096 -9.85992,-10.2804 -9.85992,-12.42858 0,-3.45991 2.37584,-5.88424 5.76655,-5.88424 3.39255,0 22.23345,18.44471 22.23345,21.76592 0,2.6284 -3.66037,6.23408 -6.32864,6.23408 -1.12249,0 -6.14008,-4.11519 -11.81144,-9.68718 z m 940.67655,-9.27253 c -2.7726,-3.0637 -1.3522,-5.67585 8.8581,-16.29029 9.9032,-10.2951 12.5932,-11.63099 15.9504,-7.92126 3.2633,3.60589 2.0702,6.02885 -8.0322,16.31134 -10.3643,10.54916 -13.1794,11.8748 -16.7763,7.90021 z M 500.49681,517.02968 c -6.80508,-5.76271 -10.70028,-9.76701 -10.70028,-11 0,-2.48113 3.43509,-5.93875 5.90004,-5.93875 1.04503,0 5.43253,2.85783 9.75,6.35074 14.96592,12.10767 16.53468,14.36214 12.52122,17.99427 -3.55026,3.21295 -6.31492,2.04096 -17.47098,-7.40626 z M 1509.3532,506.86842 c -0.8562,-1.22237 -1.5567,-3.00051 -1.5567,-3.95141 0,-2.56893 20.6041,-20.82608 23.5033,-20.82608 2.9547,0 5.5014,2.47236 5.4814,5.32143 -0.02,2.86371 0.039,2.79516 -11.1005,12.92988 -10.3741,9.43851 -13.4316,10.66063 -16.3275,6.52618 z M 464.12013,489.63156 c -6.22884,-4.16224 -11.45618,-8.38299 -11.82624,-9.54896 -0.96901,-3.05307 1.94936,-6.99167 5.18061,-6.99167 2.42635,0 19.9134,10.73423 23.77031,14.59113 3.3123,3.31231 0.86535,9.40887 -3.77639,9.40887 -1.20189,0 -7.20862,-3.35671 -13.34829,-7.45937 z M 1545.3679,476.5195 c -1.6488,-1.64878 -2.0544,-5.1749 -0.8061,-7.00653 1.4897,-2.18573 22.5455,-16.42204 24.2885,-16.42204 2.8963,0 5.0868,2.92061 4.7502,6.3335 -0.2621,2.65744 -1.8076,4.1574 -11.2046,10.87457 -11.0524,7.90042 -14.1987,9.04979 -17.028,6.2205 z M 1060.44,1848.1217 c -4.421,-14.8332 -8.1192,-26.8707 -8.2183,-26.75 -0.099,0.1206 0.053,12.2568 0.3376,26.9693 l 0.5178,26.75 h 7.7005 7.7005 z m 630.8565,-22.079 c 14.0394,-1.2024 24.9318,-2.9744 42.37,-6.8929 24.9347,-5.603 37.453,-6.3304 86.63,-5.0335 9.9,0.2611 21.4303,0.1042 25.6229,-0.3487 6.7491,-0.729 7.7522,-1.107 8.75,-3.2971 4.0411,-8.8692 -3.4067,-14.7106 -24.7248,-19.3921 l -8.3518,-1.834 -12.1482,2.3743 c -28.3036,5.5318 -43.3866,6.8565 -107.6481,9.4549 -28.3704,1.1472 -41.9926,3.2557 -50.3226,7.7895 -8.0859,4.4009 -9.6614,10.6335 -3.4941,13.8227 7.7359,4.0004 22.4702,5.1422 43.3167,3.3569 z m 178.0687,-40.9517 c 2.3004,-10.7065 3.2034,-10.3091 -12.3187,-5.4215 -7.5625,2.3813 -15.9928,4.9258 -18.7341,5.6545 l -4.9841,1.3249 8.4593,2.3183 c 8.9074,2.4411 15.8672,5.5539 20.0184,8.9531 l 2.4905,2.0394 1.8361,-4.1844 c 1.0098,-2.3014 2.4645,-7.1093 3.2326,-10.6843 z m -296.0841,-418 c 3.7229,-47.4347 9.2859,-95.2688 19.666,-169.0984 l 7.1138,-50.5984 -27.3175,-44.1329 c -15.0247,-24.2732 -27.432,-44.0185 -27.5718,-43.8787 -1.0775,1.0774 15.4393,214.0639 23.6544,305.0272 1.0838,12.0004 2.006,22.5754 2.0494,23.5 0.2021,4.3029 0.9252,-1.9546 2.4057,-20.8188 z M 1051.5859,730.59098 c 13.9736,-42.04605 24.4788,-70.91226 34.937,-96.00005 6.7784,-16.26069 28.4279,-68.93506 49.5261,-120.5 15.5609,-38.03127 32.0099,-91.4044 38.2823,-124.21698 2.5302,-13.23559 2.6101,-14.76217 2.2768,-43.5 l -0.3453,-29.78302 -3.7356,-10.84022 c -3.9277,-11.39789 -11.2913,-26.58793 -17.6229,-36.3535 -14.6528,-22.59997 -47.182,-35.00578 -97.5281,-37.19475 -63.56179,-2.76358 -107.29731,6.31224 -139.57968,28.96503 -10.04095,7.04582 -37.38062,34.55559 -43.15494,43.42344 -11.49788,17.65775 -12.89611,22.60334 -13.57061,48 -0.61662,23.21677 0.30724,32.2559 5.2125,51 5.49916,21.01354 11.67192,37.55752 22.90365,61.38544 12.17858,25.83666 15.69309,32.22551 39.39519,71.61456 22.0793,36.69221 24.35803,40.72435 34.57494,61.17904 28.96748,57.99416 54.29595,132.58961 62.24575,183.32101 1.4221,9.075 2.8091,17.625 3.0822,19 0.3448,1.7357 2.1229,-3.0027 5.8165,-15.5 2.9259,-9.9 10.7038,-34.2 17.2842,-54 z"
     style="fill:#000000" />
</svg>
