<?xml version="1.0" encoding="UTF-8" standalone="no"?>
<svg
   xmlns:dc="http://purl.org/dc/elements/1.1/"
   xmlns:cc="http://creativecommons.org/ns#"
   xmlns:rdf="http://www.w3.org/1999/02/22-rdf-syntax-ns#"
   xmlns:svg="http://www.w3.org/2000/svg"
   xmlns="http://www.w3.org/2000/svg"
   version="1.1"
   id="svg11710"
   width="502.4119"
   height="328.50824"
   viewBox="0 0 502.4119 328.50824">
  <metadata
     id="metadata11716">
    <rdf:RDF>
      <cc:Work
         rdf:about="">
        <dc:format>image/svg+xml</dc:format>
        <dc:type
           rdf:resource="http://purl.org/dc/dcmitype/StillImage" />
        <dc:title></dc:title>
      </cc:Work>
    </rdf:RDF>
  </metadata>
  <defs
     id="defs11714" />
  <path
     style="fill:#000000"
     d="m 128.36392,327.55208 c -6.13628,-2.05075 -15.29573,-6.36662 -19.33093,-9.10861 -1.99834,-1.35791 -4.86375,-2.46892 -6.36758,-2.46892 -2.12271,0 -5.845111,-2.89816 -16.643591,-12.95826 -21.62029,-20.14193 -34.04019,-36.29626 -39.462384,-51.328 -1.629558,-4.51756 -4.140187,-11.68942 -5.579175,-15.93748 -1.438987,-4.24806 -3.178841,-7.73556 -3.866341,-7.75 -1.578938,-0.0332 -1.562973,-4.28121 0.08653,-23.02626 0.701776,-7.975 1.095372,-18.868 0.874658,-24.20667 l -0.401297,-9.70668 -5.654947,-1.51262 c -3.110218,-0.83194 -9.029944,-2.67911 -13.154944,-4.10482 -4.125,-1.42572 -9.712189,-2.99922 -12.415975,-3.49668 -5.22082,-0.96057 -7.19807704,-2.16996 -6.19670204,-3.79022 0.88163104,-1.4265 8.00552704,-0.31804 16.11267704,2.50711 7.222625,2.51692 23.337181,6.7135 29.5,7.68245 1.925,0.30266 4.45255,0.82961 5.61678,1.171 2.00239,0.58717 2.14257,0.19748 2.59398,-7.21108 0.26247,-4.30748 1.28877,-10.53179 2.28067,-13.83179 6.25886,-20.8228 7.83619,-25.61933 10.19431,-31 1.44625,-3.3 3.68361,-7.67856 4.9719,-9.73013 3.04221,-4.84462 2.95444,-6.40188 -0.40764,-7.23226 -1.5125,-0.37356 -4.82213,-2.002299 -7.35473,-3.619429 -2.53261,-1.61713 -7.48261,-4.1051 -11,-5.52882 -3.5174,-1.42371 -6.84527,-2.93383 -7.39527,-3.3558 -0.55,-0.42198 -5.38944,-2.677 -10.754311,-5.01116 -6.37612,-2.77414 -10.669792,-5.33114 -12.397705,-7.38317 -2.290575,-2.72023 -2.414025,-3.1842 -0.924915,-3.47618 0.945164,-0.18533 3.374132,0.80245 5.397706,2.19506 2.023574,1.39261 7.279225,4.0933 11.679225,6.00154 10.7464,4.66062 12.52152,5.47731 22.27951,10.25024 l 8.40245,4.1099 4.31687,-4.6099 c 8.85191,-9.45276 32.501171,-20.56907 32.501171,-15.27713 0,0.49254 -2.1375,1.69759 -4.75,2.67788 -6.863441,2.57539 -15.366741,6.94101 -18.253041,9.37116 -2.09493,1.76386 -1.45041,1.63753 4.00304,-0.78461 3.575,-1.58784 12.05034,-4.77515 18.834081,-7.08292 12.31094,-4.18808 18.351,-4.85478 23.41592,-2.58465 1.01664,0.45566 1.75,0.36934 1.75,-0.206 0,-1.38798 -3.58627,-2.19397 -9.83333,-2.20997 -3.81595,-0.01 -5.21574,-0.36929 -4.92001,-1.26365 0.26497,-0.80134 2.91569,-1.35402 7.38512,-1.53981 5.94616,-0.24717 7.47908,0.0542 10.42001,2.04846 1.89652,1.28604 4.27313,2.65419 5.28137,3.04033 2.58682,0.99071 1.54034,3.08443 -1.91566,3.83271 -2.46374,0.53343 -2.21615,0.65008 1.59195,0.75 3.63103,0.0953 4.7757,-0.30802 5.87624,-2.07026 1.227,-1.96473 1.12376,-2.37996 -1.00945,-4.05988 -1.30693,-1.02922 -6.47007,-5.45811 -11.47364,-9.84198 -5.00358,-4.38387 -10.91982,-9.19442 -13.14722,-10.69012 -2.22739,-1.4957 -7.40551,-5.4321 -11.50693,-8.74756 -4.10142,-3.31546 -11.460181,-8.62275 -16.352791,-11.79399 -4.89261,-3.17123 -12.94566,-8.39079 -17.89566,-11.59901 -9.34165,-6.05456 -17.29657,-13.4554202 -19.89275,-18.5071902 -2.96485,-5.769162 -0.32496,-4.48577996 7.71734,3.75179 6.53346,6.6920902 10.82911,9.9403902 21.38844,16.1736102 7.26716,4.28984 18.067161,11.54861 24.000001,16.1306 5.93283,4.58199 13.1148,9.90686 15.95993,11.83304 2.84513,1.92619 7.79513,5.91513 11,8.86431 8.39747,7.72752 15.19066,12.67495 17.40364,12.67495 1.05787,0 1.9234,0.45 1.9234,1 0,0.55 0.69293,1 1.53984,1 0.84691,0 3.32747,0.91198 5.51237,2.02663 3.42058,1.74505 3.88627,2.37029 3.35175,4.5 -0.54886,2.18684 -0.29876,2.47337 2.15889,2.47337 1.52882,0 3.52142,0.67128 4.42802,1.49173 1.48875,1.34731 2.64962,0.66259 11.99005,-7.07214 5.68794,-4.71014 11.76392,-9.64867 13.50219,-10.97451 1.73827,-1.32584 3.75394,-3.5195 4.47928,-4.87481 1.60762,-3.00386 3.91778,-4.04612 4.66311,-2.10383 0.77029,2.00737 -4.95659,8.80484 -12.54303,14.88783 -14.77465,11.84667 -22.40496,17.64573 -23.21798,17.64573 -0.47547,0 -0.86449,0.675 -0.86449,1.5 0,1.15288 -1.21491,1.48173 -5.25,1.42105 -2.8875,-0.0434 -4.6847,-0.30685 -3.99377,-0.58541 0.69093,-0.27855 1.00187,-0.91803 0.69098,-1.42105 -0.31088,-0.50302 0.96657,-0.91459 2.83879,-0.91459 2.04974,0 4.07432,-0.74067 5.08883,-1.86169 1.611,-1.78013 1.49732,-1.90908 -2.59501,-2.94347 -2.3539,-0.59498 -6.75482,-1.31139 -9.77982,-1.59201 -3.025,-0.28063 -9.45876,-1.01785 -14.29724,-1.63828 l -8.79724,-1.12806 -4.20276,3.43415 c -2.31152,1.88878 -5.61073,4.15893 -7.33158,5.04477 -1.72085,0.88584 -3.41894,2.36667 -3.77354,3.29073 -0.87916,2.29106 -0.15587,2.77142 1.3823,0.91803 0.69572,-0.8383 2.2306,-1.52417 3.41084,-1.52417 1.18023,0 4.32413,-1.8 6.98643,-4 2.66231,-2.2 5.01656,-4 5.23167,-4 1.36628,0 -0.35983,2.6532 -5.62694,8.64917 -3.30993,3.76796 -7.32069,8.339389 -8.9128,10.158729 l -2.89475,3.30791 2.47791,0.94209 c 1.36284,0.51816 3.77743,0.9421 5.36575,0.9421 1.58831,0 4.00083,0.50711 5.36116,1.12692 1.36032,0.6198 3.63149,0.83623 5.04705,0.48094 2.00923,-0.50428 2.57374,-1.26891 2.57374,-3.48612 0,-3.85369 7.39683,-12.349969 10.38109,-11.924109 3.40464,0.48585 3.08517,4.038349 -0.82369,9.159229 l -3.54419,4.64314 h 3.43438 c 1.88891,0 3.68176,-0.40028 3.98412,-0.88951 0.30237,-0.48923 2.01642,-1.10783 3.80902,-1.37465 19.70001,-2.93231 30.71019,-5.15086 38.19686,-7.69666 4.91567,-1.671549 10.99067,-3.043089 13.5,-3.047869 7.82155,-0.0149 15.69218,-1.2142 13.43884,-2.04776 -2.37824,-0.87977 -8.38953,-11.74534 -8.34483,-15.08353 l 0.0316,-2.36002 2.2184,2.60113 c 1.22012,1.43062 3.47406,4.74153 5.00876,7.35757 2.50849,4.27598 3.09378,4.71192 5.79403,4.31561 3.50643,-0.51464 4.94173,1.0022 2.58144,2.72809 -1.32395,0.9681 0.62055,1.32686 10.09722,1.86295 6.45532,0.36517 14.66195,1.14916 18.23695,1.7422 4.12599,0.68444 12.79669,0.82858 23.74026,0.39465 l 17.24027,-0.68361 1.10447,2.840699 c 2.44743,6.29478 -0.87739,18.66389 -6.87878,25.59071 -1.81282,2.09237 -4.20622,2.30076 -4.20622,0.36624 0,-1.06126 -1.4126,-0.81318 -6.0612,1.06447 -5.28994,2.1367 -8.37563,2.54797 -24.25,3.2321 -10.00384,0.43113 -19.5388,0.79379 -21.1888,0.80591 -1.65,0.0121 -5.64536,1.2062 -8.87859,2.6535 l -5.87858,2.63146 0.65084,4.9063 c 0.72744,5.48373 3.23393,13.24007 6.5468,20.25913 2.58273,5.47208 8.79763,12.16755 18.55953,19.99461 3.85,3.08692 8.50997,6.98294 10.3555,8.65782 4.58175,4.1581 29.591,13.07466 36.8945,13.15401 1.88978,0.0205 2.25,-0.51108 2.25,-3.32056 0,-4.11505 2.57588,-6.65499 6.74915,-6.65499 2.54788,0 4.16098,1.18479 9.17126,6.73612 3.34377,3.70486 6.07959,7.23512 6.07959,7.84501 0,0.60989 0.88704,1.91165 1.97119,2.8928 1.68614,1.52593 1.8934,2.66909 1.43324,7.90499 -1.04621,11.90436 -2.22752,15.20329 -7.02896,19.6291 -2.54155,2.34273 -4.69557,5.34246 -5.02731,7.00116 -0.31924,1.5962 -2.13824,4.72212 -4.04222,6.9465 l -3.46179,4.04432 h 3.57793 c 5.91657,0 4.30515,2.4042 -2.47506,3.69272 -6.02083,1.14422 -8.94702,2.63578 -8.94702,4.56057 0,0.62551 1.42387,0.73733 3.75,0.29449 2.0625,-0.39265 7.125,-0.90204 11.25,-1.13199 4.125,-0.22995 10.425,-0.84519 14,-1.36719 24.3842,-3.56047 39.28533,-2.70752 48.22473,2.76042 1.8014,1.10185 7.55027,3.90323 12.77527,6.22527 5.225,2.32204 10.175,4.80231 11,5.51172 2.99645,2.5766 17.12316,7.43408 25.46079,8.75471 8.49236,1.34514 8.53921,1.34076 8.53921,-0.79921 0,-2.00677 0.69071,-1.80412 10.25,3.0072 5.6375,2.83744 13.75673,7.45861 18.04274,10.26927 8.55418,5.60964 17.20301,9.30166 22.86868,9.76221 4.05647,0.32974 9.10715,3.15411 8.56246,4.78817 -0.19249,0.57747 -1.47193,1.8876 -2.84319,2.9114 -2.4539,1.8321 -2.60639,1.8195 -9.67034,-0.79886 -3.94741,-1.46317 -12.89659,-6.21094 -19.88706,-10.5506 -8.65091,-5.37046 -13.68823,-7.8903 -15.77322,-7.8903 -1.6848,0 -4.60979,-0.44353 -6.49997,-0.98563 -1.89018,-0.5421 -8.18721,-1.44724 -13.9934,-2.01142 -10.30637,-1.00146 -10.90053,-1.19927 -25.0567,-8.34199 -7.975,-4.02392 -16.075,-7.9314 -18,-8.6833 -1.925,-0.7519 -4.67208,-2.21572 -6.10462,-3.25295 -1.85209,-1.34099 -5.46359,-2.14119 -12.5,-2.76961 -11.45841,-1.02334 -37.0981,-1.23168 -43.50581,-0.35351 l -4.38957,0.60158 0.35069,4.39842 c 0.31244,3.91859 0.12059,4.39841 -1.75866,4.39841 -1.16014,0 -3.97297,-1.35 -6.25073,-3 -2.27776,-1.65 -4.98831,-3 -6.02346,-3 -2.981,0 -8.81493,2.76886 -8.84715,4.19897 -0.0377,1.67398 -5.59095,7.80103 -7.07044,7.80103 -2.4561,0 -8.90025,4.44967 -8.90025,6.1456 0,1.2444 -1.27263,2.11999 -4.24438,2.9202 -6.14897,1.65575 -10.59876,4.14991 -16.177,9.06743 -2.70677,2.38615 -5.08025,3.86188 -5.27441,3.27939 -0.19417,-0.58249 -1.69204,-0.86254 -3.32862,-0.62235 -2.30941,0.33895 -2.97559,0.0545 -2.97559,-1.27058 0,-1.37154 -0.93413,-1.03779 -4.75,1.69713 -2.6125,1.87244 -9.22411,5.32068 -14.69247,7.66277 -5.46837,2.34208 -11.20664,5.15849 -12.75173,6.25869 -3.76371,2.68 -7.3058,2.15722 -7.3058,-1.07826 0,-2.05344 0.93717,-2.80299 5.91576,-4.73141 5.63468,-2.18256 10.58424,-5.70069 10.58424,-7.52325 0,-1.0384 -7.40578,2.60695 -11.5,5.66065 -5.26509,3.92699 -9.58354,5.72984 -12.17,5.08068 -1.80228,-0.45235 -3.43462,0.15196 -6.1423,2.27393 -4.89109,3.83307 -8.00915,5.40776 -9.22276,4.65771 -0.54654,-0.33778 -3.34974,-0.13502 -6.22933,0.45058 -8.68138,1.76548 -37.5664,2.20907 -42.23561,0.64862 z m 27.32874,-4.67491 c 0.72041,-1.15356 1.16616,-2.23548 0.99055,-2.40426 -0.17561,-0.16879 -4.44424,0.15648 -9.48584,0.72281 -11.97958,1.34569 -22.33345,0.337 -22.33345,-2.17576 0,-1.83459 3.39841,-3.01238 8.875,-3.07582 1.96563,-0.0228 2.24822,-0.24567 1.125,-0.8874 -2.71391,-1.55052 -9.37927,-2.05776 -17,-1.29369 l -7.5,0.75195 4.38011,2.82445 c 8.91638,5.74961 15.52802,7.53271 28.12934,7.58622 10.63261,0.0452 11.60925,-0.11091 12.81929,-2.0485 z m 12.86516,-1.90262 c 1.49835,-3.96959 -0.11885,-3.98348 -4.73167,-0.0406 l -3.46223,2.95936 3.53076,0.0406 c 3.02113,0.0348 3.69421,-0.39239 4.66314,-2.95936 z m 12.3061,-1.43206 c 0,-0.91385 -4.05299,0.79106 -5.21724,2.19465 -1.08447,1.30741 -0.78037,1.28674 1.96724,-0.13374 1.7875,-0.92412 3.25,-1.85153 3.25,-2.06091 z m 9.65755,-7.17405 c 2.12268,-0.56945 2.12672,-0.60962 0.25,-2.48634 -1.04915,-1.04915 -2.42044,-1.90755 -3.04731,-1.90755 -1.16355,0 -3.77096,2.89452 -3.82844,4.25 -0.0376,0.88555 3.56916,0.96387 6.62575,0.14389 z m -21.65755,-3.89389 c 0,-0.825 -0.17686,-1.5 -0.39301,-1.5 -0.21616,0 -0.65203,0.675 -0.96862,1.5 -0.31658,0.825 -0.13972,1.5 0.39301,1.5 0.53274,0 0.96862,-0.675 0.96862,-1.5 z m 56.62877,-1.20456 c -0.82426,-0.82426 -3.62877,0.49605 -3.62877,1.70836 0,0.73956 0.63946,0.72434 2.08565,-0.0496 1.1471,-0.61391 1.84151,-1.36033 1.54312,-1.65872 z m -17.10231,-1.10231 c -0.30789,-0.30789 -1.11479,-6.4e-4 -1.79313,0.68278 -0.98026,0.98762 -0.8654,1.10248 0.5598,0.5598 0.98622,-0.37553 1.54122,-0.93469 1.23333,-1.24258 z m 22.98155,-3.2061 c 0.3538,-0.57245 -0.47994,-0.50131 -1.9443,0.1659 -1.41004,0.64245 -2.56371,1.5617 -2.56371,2.04277 0,1.02324 3.60096,-0.74102 4.50801,-2.20867 z m -115.00801,-0.032 5,-0.067 -7.78654,-2.81132 c -4.2826,-1.54622 -10.3576,-4.16276 -13.5,-5.81451 -5.138801,-2.70113 -5.713461,-3.32568 -5.713461,-6.20935 0,-2.49596 -1.41128,-4.85051 -6.37121,-10.62953 -3.50417,-4.08286 -6.74552,-7.42338 -7.203,-7.42338 -0.45748,0 -1.28374,1.63684 -1.83612,3.63742 -0.95816,3.47015 -0.79694,3.87253 3.50576,8.75 2.48055,2.81192 4.76207,6.3224 5.07003,7.80107 0.61968,2.97536 8.34429,10.01581 13.557921,12.35712 1.87181,0.84058 4.7772,1.25814 6.77662,0.97392 1.925,-0.27363 5.75,-0.52765 8.5,-0.56448 z m 126.5,-4.95503 c 1.21296,-0.78387 1.06944,-0.9723 -0.75,-0.98469 -1.2375,-0.008 -2.25,0.43469 -2.25,0.98469 0,1.25292 1.06124,1.25292 3,0 z m -105.60056,-3.40146 c -0.69769,-1.81816 -4.574,-2.82398 -5.87383,-1.52415 -1.26733,1.26733 1.0687,2.88873 4.19301,2.9103 1.49533,0.0103 2.04329,-0.44157 1.68082,-1.38615 z m -13.89944,-2.59854 c -0.33992,-0.55 -1.60398,-0.99311 -2.80902,-0.98469 -1.78123,0.0125 -1.91046,0.1966 -0.69098,0.98469 1.97012,1.27319 4.28687,1.27319 3.5,0 z m 51.5,0 c -0.825,-0.53316 -1.95,-0.96937 -2.5,-0.96937 -0.55,0 -0.325,0.43621 0.5,0.96937 0.825,0.53316 1.95,0.96937 2.5,0.96937 0.55,0 0.325,-0.43621 -0.5,-0.96937 z m 83.72917,0.39583 c -0.33229,-0.33229 -1.1948,-0.36781 -1.91667,-0.0789 -0.79773,0.31922 -0.56078,0.55618 0.60417,0.60416 1.05416,0.0434 1.64479,-0.19293 1.3125,-0.52522 z m -27.22917,-4.77292 c 5.5,-1.43711 13.825,-2.88058 18.5,-3.20771 4.675,-0.32713 9.95623,-1.0372 11.73607,-1.57795 7.81917,-2.37557 3.80495,-2.88334 -18.96767,-2.39927 -20.75815,0.44125 -23.76445,0.30411 -26.7524,-1.22043 -3.44226,-1.75635 -5.91017,-4.65672 -4.85781,-5.70907 0.3231,-0.3231 2.777,0.57674 5.45311,1.99964 3.60016,1.91422 5.77896,2.4467 8.37718,2.04729 1.93133,-0.2969 12.47452,-0.78843 23.4293,-1.09229 10.95478,-0.30386 20.40478,-0.85595 21,-1.22686 0.59522,-0.37091 3.63978,-0.54943 6.76568,-0.39672 4.87452,0.23813 5.84026,-0.0154 6.78518,-1.78094 0.60595,-1.13223 1.77203,-2.0586 2.59129,-2.0586 1.66586,0 3.44007,-3.87832 3.44007,-7.51979 0,-2.81726 0.10535,-2.79365 -25.26703,-5.66118 -6.59798,-0.74568 -10.63266,-1.62384 -10.42001,-2.26794 0.49909,-1.51169 14.17042,-1.8774 20.96067,-0.56071 8.5022,1.64866 18.83768,1.52164 22.29607,-0.27399 3.2091,-1.66621 7.4303,-6.80953 7.4303,-9.05345 0,-2.65513 -2.72739,-3.68859 -12.11847,-4.59193 -9.54516,-0.91816 -19.58965,-2.82389 -30.38153,-5.76425 -10.03086,-2.73301 -11.96411,-6.68249 -2.22443,-4.54432 15.40689,3.38231 31.29712,6.17974 39.72443,6.99338 8.91401,0.86063 9.64533,0.7885 11.8561,-1.16931 1.29585,-1.14758 2.7931,-3.21151 3.32721,-4.58651 1.49205,-3.84105 2.58323,-20.00343 1.3491,-19.98247 -0.56783,0.01 -3.76475,-2.99426 -7.10428,-6.67534 -4.40685,-4.85757 -6.53204,-6.51629 -7.75,-6.04892 -3.26575,1.25319 -0.75882,9.70673 2.87857,9.70673 2.10546,0 5.4433,3.67921 5.4433,6 0,2.51305 -1.76025,2.55815 -4.43555,0.11365 -2.05309,-1.87597 -7.87425,-3.91657 -22.96583,-8.05067 -14.90806,-4.08383 -25.71047,-8.90743 -31.15918,-13.91351 -2.78331,-2.55721 -8.24614,-7.29309 -12.13962,-10.52418 -3.89348,-3.23109 -8.75159,-8.06788 -10.7958,-10.74843 -4.36846,-5.72829 -9.09357,-17.30203 -10.07055,-24.66689 -0.38012,-2.86549 -1.02774,-5.20997 -1.43916,-5.20997 -1.23096,0 -4.97859,9.60617 -5.64531,14.47043 -0.67026,4.89005 -1.67168,5.66367 -3.32719,2.57033 -2.48136,-4.63647 3.58843,-19.34478 9.69581,-23.49484 7.32354,-4.97648 14.16448,-6.33169 34.78238,-6.8905 16.92217,-0.45864 19.81568,-0.7929 26.45873,-3.05648 5.21233,-1.77608 7.6661,-2.20598 8.14729,-1.4274 0.80056,1.29534 4.96406,-4.93798 6.72667,-10.07076 0.64202,-1.86958 1.16731,-5.17101 1.16731,-7.33651 v -3.93729 l -15.25,0.69188 c -11.7889,0.53484 -18.42741,0.29972 -29.25,-1.03598 -10.57597,-1.30527 -18.03546,-1.58796 -30.5,-1.15584 -14.7883,0.51267 -17.45044,0.88553 -25.66187,3.59413 -5.03903,1.66216 -15.16403,3.98341 -22.5,5.15832 -7.33597,1.17491 -17.16313,2.76615 -21.83813,3.53608 -4.675,0.76993 -11.58211,1.80987 -15.34914,2.31097 -4.90453,0.65242 -7.57168,1.57296 -9.39404,3.24228 l -2.54492,2.33118 0.54507,-3 c 0.54221,-2.98432 0.49984,-3.01499 -8.10595,-5.86791 -7.65291,-2.53702 -13.6274,-5.59288 -15.161041,-7.75463 -2.31121,-3.25777 -10.15815,-0.60282 -13.55905,4.58761 -3.87528,5.91443 -11.32235,28.11394 -12.43022,37.05416 -0.6121,4.93942 -1.57468,9.43077 -2.13907,9.98077 -0.69976,0.68191 -0.84096,-0.51093 -0.44391,-3.75 0.32025,-2.6125 0.83052,-6.8875 1.13394,-9.5 1.40116,-12.06435 10.4123,-36.42416 14.62652,-39.53986 3.99209,-2.95148 3.51818,-3.865419 -1.8226,-3.51493 l -4.64442,0.30479 -5.72172,11.25498 c -4.05789,7.98211 -7.18753,16.26972 -10.76241,28.5 -5.6562,19.3508 -6.49734,24.80795 -5.04716,32.74502 1.06846,5.84783 2.24765,8 4.38326,8 1.06281,0 1.04028,-0.53287 -0.11628,-2.75 -1.70616,-3.2707 -1.87204,-6.86919 -0.35973,-7.80385 1.874,-1.15819 2.96846,1.02935 3.19464,6.38525 l 0.21823,5.16786 3.5,0.0423 c 1.925,0.0233 4.93566,0.81092 6.69035,1.75037 4.30226,2.30338 21.19905,19.01242 34.086861,33.70808 5.78807,6.6 12.14355,13.38092 14.12328,15.06871 8.99351,7.66727 28.5982,21.80884 36.69475,26.46923 4.89762,2.81908 13.17976,7.93743 18.40476,11.37411 8.15212,5.36196 16.31867,10.02533 33,18.84408 4.02642,2.12861 5.61091,1.9959 19.5,-1.63322 z m -8.25,-27.61195 c -3.45313,-2.10541 -4.69534,-5.82785 -1.5,-4.49494 5.77262,2.40801 7.11774,2.74871 8.60254,2.17894 0.91525,-0.35121 1.64746,-1.73103 1.64746,-3.10456 0,-3.23846 1.62229,-4.16467 2.94983,-1.68415 1.5512,2.89845 1.28927,4.85465 -0.94983,7.09375 -2.54018,2.54018 -6.59501,2.54431 -10.75,0.011 z m -63.64613,-17.89618 c -0.93836,-1.03688 -3.06968,-2.15794 -4.73627,-2.49126 -3.28048,-0.6561 -5.66346,-2.3016 -15.04861,-10.3914 -3.36126,-2.89733 -7.99082,-6.09923 -10.2879,-7.11534 -2.48313,-1.09841 -5.73312,-3.82798 -8.01567,-6.73213 -2.11153,-2.68656 -6.24131,-7.20864 -9.17729,-10.04908 -7.268,-7.03151 -6.77339,-8.77685 0.66187,-2.33557 3.3,2.85884 6,5.54001 6,5.95815 0,1.85478 8.57551,10.25478 11.86574,11.6229 1.99884,0.83114 5.65926,3.46703 8.13426,5.85752 2.475,2.39049 5.85106,5.02367 7.50236,5.85151 1.6513,0.82784 3.85854,2.45123 4.90499,3.60754 1.04644,1.15631 2.89719,2.10238 4.11278,2.10238 1.21558,0 3.39618,0.93293 4.84577,2.07318 3.29024,2.5881 6.15942,2.19205 6.06267,-0.83688 -0.44592,-13.96099 0.0515,-12.43938 -7.96043,-24.3491 -4.14253,-6.15782 -7.36719,-11.68904 -7.16592,-12.29162 0.64017,-1.91657 14.60677,20.35895 15.20643,24.25293 0.30927,2.00832 0.99494,6.08207 1.52372,9.05278 0.67887,3.81398 0.63246,5.79764 -0.15793,6.75 -1.62328,1.95593 -6.28884,1.65328 -8.27057,-0.53651 z m 70.0628,-11.78145 c -1.60812,-1.60812 -0.41733,-3.23065 2.58333,-3.51997 3.03782,-0.2929 3.3912,-0.73773 5.41271,-6.81336 1.18949,-3.575 2.20199,-7.0938 2.25,-7.81955 0.16588,-2.50752 -4.35789,-0.71764 -6.39697,2.53103 -2.31197,3.68344 -4.51574,4.26346 -4.51574,1.18852 0,-2.91414 6.21791,-8.9 9.24501,-8.9 4.22273,0 7.49187,5.74454 4.8657,8.55 -0.4891,0.5225 -1.61865,3.50991 -2.51011,6.63868 -0.89145,3.12877 -2.32341,6.39127 -3.18214,7.25 -1.56883,1.56883 -6.50762,2.13883 -7.75179,0.89465 z m -8.16667,-51.52837 c -4.70795,-1.66374 -9.06459,-5.36762 -10.92497,-9.2881 -3.06642,-6.46199 -1.40701,-7.26153 2.94782,-1.42031 3.22587,4.32693 5.06576,5.77082 9.28713,7.2883 2.89535,1.04081 5.09778,2.3925 4.89428,3.00376 -0.50918,1.52947 -2.64821,1.67301 -6.20426,0.41635 z m -116.4037,-0.80496 c 0.0221,-2.04667 12.217,-24.2711 13.56434,-24.72021 1.12943,-0.37648 -6.91737,16.11603 -9.13371,18.72021 -0.70214,0.825 -1.98992,2.85 -2.86173,4.5 -0.87182,1.65 -1.57782,2.325 -1.5689,1.5 z m 27.34483,-26.4682 c -1.90305,-1.43939 -1.8994,-1.46882 0.18643,-1.5 1.17015,-0.0175 2.68775,0.6432 3.37244,1.4682 1.69921,2.04743 -0.8637,2.07033 -3.55887,0.0318 z M 85.274729,124.9354 c 0.70318,-5.30089 2.34587,-10.5375 3.07638,-9.80699 0.23718,0.23717 0.15932,3.67458 -0.17302,7.63868 -0.45552,5.43349 -0.96945,7.20746 -2.08804,7.20746 -1.20386,0 -1.35768,-0.95069 -0.81532,-5.03915 z M 273.61392,110.89445 c -2.86425,-1.66827 -1.99381,-2.90085 1.25,-1.77006 1.65,0.5752 3,1.45179 3,1.94799 0,1.18503 -2.05785,1.09888 -4.25,-0.17793 z m -158.75,178.61906 c 0,-0.88483 -4.52135,-4.71986 -7.25,-6.1495 -4.65041,-2.43651 -3.12053,0.41961 1.94578,3.63256 4.85812,3.08093 5.30422,3.29261 5.30422,2.51694 z m -13,-2.91652 c 0,-0.20765 -0.675,-0.93775 -1.5,-1.62244 -1.228511,-1.01957 -1.500001,-0.95124 -1.500001,0.37756 0,0.89234 0.675,1.62244 1.500001,1.62244 0.825,0 1.5,-0.1699 1.5,-0.37756 z m 23,-7.04571 c 0,-0.78281 -1.125,-2.76027 -2.5,-4.39436 -1.41694,-1.68394 -2.5,-4.23547 -2.5,-5.88963 0,-1.93747 -1.00847,-3.88473 -3,-5.79274 -1.65,-1.5808 -3,-2.60694 -3,-2.28031 0,0.32663 1.35,3.60277 3,7.28031 1.65,3.67754 3,7.45449 3,8.39322 0,2.02447 1.87606,4.10678 3.7,4.10678 0.715,0 1.3,-0.64047 1.3,-1.42327 z m -18.48158,-4.82673 c -2.28771,-7.14814 -2.53952,-7.429 -2.13063,-2.37632 0.31665,3.9127 1.59524,6.47299 3.30151,6.61101 0.10412,0.008 -0.42278,-1.89719 -1.17088,-4.23469 z m 8.43209,3 c -0.0272,-0.6875 -1.83891,-4.625 -4.02599,-8.75 -2.18707,-4.125 -3.76658,-6.6 -3.51003,-5.5 1.418,6.07973 2.83803,10.96011 3.80928,13.09179 1.14223,2.50692 3.813,3.33695 3.72674,1.15821 z m -23.869491,-5.59861 c -0.59456,-1.11095 -1.08102,-4.00848 -1.08102,-6.43896 0,-7.19959 -1.2195,-16.71243 -2.14246,-16.71243 -0.47165,0 -0.85754,0.64286 -0.85754,1.42857 0,0.78572 -0.72848,2.15706 -1.61885,3.04743 -1.48283,1.48282 -1.76707,1.48472 -3.38267,0.0226 -1.66568,-1.50742 -1.73528,-1.34315 -1.25109,2.95257 0.41791,3.70773 0.21844,4.5488 -1.07879,4.5488 -1.69092,0 -2.75189,-3.09276 -4.60129,-13.41281 -0.58278,-3.25205 -1.23563,-6.08884 -1.45077,-6.30398 -0.21514,-0.21514 -0.93116,1.99563 -1.59117,4.91281 -1.8873,8.3418 -2.07541,8.80398 -3.58334,8.80398 -1.1109,0 -1.39734,-1.59091 -1.30535,-7.25 0.1316,-8.09667 -1.18792,-13.94421 -4.71902,-20.91248 -2.709,-5.34596 -3.95808,-6.47756 -4.78149,-4.33178 -0.31537,0.82184 -1.3126,1.49426 -2.21608,1.49426 -1.9643,0 -1.58616,2.7524 2.1489,15.6413 2.7125,9.36028 3.10735,13.74596 1.18101,13.11768 -0.6875,-0.22423 -2.74143,-5.99923 -4.5643,-12.83334 -4.28622,-16.0695 -4.05924,-15.4521 -5.24481,-14.26653 -0.65805,0.65805 -0.31367,3.1626 1.01988,7.41721 1.10739,3.53303 2.01923,8.0546 2.02633,10.04795 0.007,1.99335 0.70934,5.59335 1.56055,8 0.8512,2.40665 1.31755,5.26181 1.03633,6.3448 -0.52307,2.01435 4.83697,11.53093 6.49459,11.53093 0.47854,0 1.56818,-1.35 2.42143,-3 0.85325,-1.65 1.8773,-2.9903 2.27568,-2.97843 0.39838,0.0119 2.4905,2.48686 4.64917,5.5 4.13758,5.77535 5.57515,6.70085 5.57515,3.58921 0,-1.03906 0.81543,-2.89623 1.81207,-4.12703 2.33524,-2.8839 4.61848,-2.17534 9.67421,3.0022 4.05627,4.154 5.43305,4.60036 3.59474,1.16544 z m 8.36754,-13.26467 c -1.26011,-8.90483 -2.05366,-11.76816 -3.64072,-13.13672 -3.82584,-3.29911 -4.45393,-2.33101 -3.40612,5.25 0.93361,6.75468 2.0736,8.89106 2.80146,5.25 0.19241,-0.9625 1.4157,1.97221 2.71842,6.52157 1.30272,4.54937 2.541771,8.0984 2.753441,7.88673 0.21166,-0.21167 -0.34025,-5.50888 -1.226481,-11.77158 z m -14.64324,-14.65335 c 1.0651,-3.15659 0.96971,-3.3503 -2.83167,-5.75 -2.16365,-1.36586 -4.10088,-2.48337 -4.30497,-2.48337 -0.20408,0 0.93818,2.74879 2.53837,6.10843 1.60018,3.35964 3.04141,5.94714 3.20273,5.75 0.16132,-0.19714 0.78931,-1.82842 1.39554,-3.62506 z m 25.627371,-1.48337 c -0.38615,-1.2375 -1.35555,-3.15 -2.15423,-4.25 -1.34386,-1.85087 -1.39961,-1.73902 -0.7477,1.5 0.84232,4.18507 1.26537,5 2.59564,5 0.58708,0 0.71505,-0.94004 0.30629,-2.25 z m -37.880141,-9.58443 c -0.31656,-0.99739 -1.90094,-3.08322 -3.52084,-4.63519 l -2.94528,-2.82175 2.14545,6.59884 c 1.98275,6.09845 2.24974,6.44994 3.52084,4.63519 0.75646,-1.08001 1.11639,-2.7797 0.79983,-3.77709 z m 30.047451,-1.76557 c -0.35589,-0.92744 -0.87208,-1.46126 -1.14708,-1.18626 -0.275,0.275 -0.20881,1.25882 0.14708,2.18626 0.35589,0.92744 0.87208,1.46126 1.14708,1.18626 0.275,-0.275 0.20881,-1.25882 -0.14708,-2.18626 z m -15.413841,-1.42579 c -0.58574,-1.58341 -1.09431,-1.93184 -1.60757,-1.10137 -0.41292,0.66812 -0.1979,1.88093 0.47782,2.69513 1.65093,1.98925 2.1794,1.24372 1.12975,-1.59376 z m -21.81801,-7.72421 c -0.36848,-1.5125 -1.27705,-3.10986 -2.01906,-3.54969 -0.742,-0.43983 -1.36277,-1.56483 -1.3795,-2.5 -0.0277,-1.54918 -0.1227,-1.54174 -1.06875,0.0837 -0.82127,1.4111 -0.44908,2.49351 1.78041,5.17781 3.46429,4.17097 3.51462,4.18574 2.6869,0.78814 z m 4.72953,-1.96858 c -0.92506,-1.58933 -1.04014,-1.60153 -1.06727,-0.11321 -0.0167,0.91752 0.2938,2.49252 0.69005,3.5 0.65796,1.6729 0.75053,1.68272 1.06727,0.11321 0.19075,-0.94522 -0.11977,-2.52022 -0.69005,-3.5 z m 26.90602,2.22252 c -1.2897,-1.37283 -2.56539,-2.27559 -2.83485,-2.00613 -0.66385,0.66386 2.88313,4.50219 4.16045,4.50219 0.56063,0 -0.0359,-1.12323 -1.3256,-2.49606 z m -44.0571,-12.86016 c -0.96285,-0.88745 -1.09592,-0.73326 -0.59378,0.68801 0.35595,1.00748 0.69938,2.35748 0.76318,3 0.0638,0.64251 0.331,0.33291 0.59378,-0.68801 0.26278,-1.02092 -0.0806,-2.37092 -0.76318,-3 z m 34.5534,-116.643779 c 0.33992,-0.55 0.16803,-1 -0.38197,-1 -0.55,0 -1.27811,0.45 -1.61803,1 -0.33992,0.55 -0.16803,1 0.38197,1 0.55,0 1.27811,-0.45 1.61803,-1 z m 22.500001,-0.5 c 0.68469,-0.825 2.11214,-1.5 3.1721,-1.5 4.46943,0 13.94025,-6.67619 11.5886,-8.16906 -2.78465,-1.76775 -14.66363,-0.23658 -25.586681,3.29805 -3.31276,1.07199 -3.31733,1.08233 -1.1497,2.6006 1.85511,1.29937 2.752521,1.33415 6.080951,0.23567 4.10489,-1.35474 6.07856,-0.74909 4.07806,1.25141 -1.38264,1.38264 -1.57667,3.78333 -0.30577,3.78333 0.48265,0 1.43775,-0.675 2.12244,-1.5 z m 48,-11.01013 c 0,-0.61256 -1.35,-2.11185 -3,-3.33175 -2.33942,-1.72961 -3,-1.88886 -3,-0.72324 0,0.82211 -1.00246,2.03125 -2.2277,2.68698 -2.15944,1.1557 -2.1671,1.21418 -0.25,1.90878 2.97368,1.07742 8.4777,0.72633 8.4777,-0.54077 z M 296.44286,294.33584 c -2.15659,-2.44767 -5.17997,-5.19397 -6.71864,-6.10289 -3.91038,-2.30992 -4.44524,-4.2584 -1.16892,-4.2584 3.01406,0 14.30862,10.52998 14.30862,13.34 0,2.77031 -2.29293,1.70663 -6.42106,-2.97871 z m 120.96015,-39.3216 c -5.73736,-5.82495 -5.64452,-5.03673 -3.17415,-26.94781 2.02323,-17.9452 3.56849,-25.19466 7.60459,-35.67625 5.93654,-15.41695 9.5141,-17.17164 4.41544,-2.16563 -4.40127,12.95348 -7.08474,24.29803 -7.86505,33.25 -0.33559,3.85 -1.10068,10.91491 -1.7002,15.69979 l -1.09003,8.69979 4.13515,4.93899 c 3.93046,4.6945 5.08361,7.16143 3.34757,7.16143 -0.43318,0 -2.98617,-2.23214 -5.67332,-4.96031 z M 310.5921,190.33296 c -0.30775,-1.60991 0.42401,-4.63669 1.87366,-7.75 1.30824,-2.80963 2.38302,-5.83871 2.38839,-6.73129 0.005,-0.89259 0.88776,-3.60773 1.96087,-6.03366 2.03613,-4.60301 7.11243,-31.47645 9.03747,-47.84346 0.61455,-5.225 1.81219,-14.46476 2.66143,-20.53281 2.29938,-16.429829 0.40718,-20.840829 -11.96136,-27.883729 -4.54235,-2.58651 -6.61978,-4.98566 -5.38569,-6.21974 0.86732,-0.86732 13.79833,6.37206 17.98449,10.06855 l 3.78743,3.3444 0.082,9.36167 c 0.0451,5.14891 -0.48303,12.187909 -1.17356,15.642209 -0.69052,3.4543 -1.01389,6.52215 -0.7186,6.81744 0.29528,0.29529 0.10612,2.097 -0.42038,4.00379 -1.83642,6.65099 0.37051,8.81235 12.20006,11.94817 3.55061,0.94121 6.90566,1.65585 7.45566,1.58808 10.84581,-1.33633 14.15904,-2.3873 25.5718,-8.11152 6.83551,-3.42844 14.9032,-7.71228 17.9282,-9.51965 10.90455,-6.5152 29.24502,-9.1463 42.5,-6.097 6.17004,1.41942 17.87003,3.04426 29.75,4.13155 4.56592,0.41788 6.75,1.03964 6.75,1.92155 0,2.06428 -3.46642,2.5088 -19.67764,2.52339 -17.4943,0.0157 -29.38689,-1.27305 -34.1662,-3.70256 -3.11619,-1.58408 -3.40733,-1.58635 -4.27645,-0.0333 -0.51293,0.91656 -1.49625,1.45018 -2.18514,1.18583 -2.31349,-0.88777 -12.48391,3.36216 -27.20637,11.36876 -14.01344,7.62101 -14.47906,7.97391 -11.30189,8.56604 6.34544,1.1826 42.17962,0.67806 51.81369,-0.72953 7.06105,-1.03166 9.85981,-1.09963 10.90149,-0.26478 0.77082,0.61777 4.14582,1.34822 7.5,1.62322 4.53201,0.37157 6.09851,0.8853 6.09851,2 0,1.23498 -1.47073,1.45196 -8.32431,1.22807 -4.57837,-0.14956 -15.37837,0.36214 -24,1.13712 -20.54899,1.84711 -73.37484,0.73683 -82.67569,-1.73765 -3.3,-0.87797 -6.29219,-1.60333 -6.64931,-1.61192 -0.35711,-0.009 -0.84032,1.89688 -1.07378,4.23438 -0.99672,9.97936 -4.06846,26.90023 -6.39914,35.25 -4.57937,16.40579 -9.30583,23.88783 -10.64959,16.85841 z m 21.27182,-61.79939 c 0,-0.24254 -0.45,-0.7191 -1,-1.05902 -0.55,-0.33992 -1,-0.14148 -1,0.44098 0,0.58246 0.45,1.05902 1,1.05902 0.55,0 1,-0.19844 1,-0.44098 z m 100.5,-18.55902 c -1.1,-0.47269 -3.35,-0.83182 -5,-0.79807 -2.92938,0.0599 -2.91761,0.0787 0.5,0.79807 4.90912,1.03333 6.90468,1.03333 4.5,0 z m -91.25,67.96884 c -3.63177,-1.4598 -2.62084,-1.86261 3.17366,-1.26456 3.77221,0.38932 7.95895,-0.0749 13.75,-1.52451 4.57949,-1.14635 11.70134,-2.36424 15.82634,-2.70643 9.2253,-0.76527 11.55579,-1.62248 20.87831,-7.6795 7.03618,-4.57156 11.12169,-5.96521 11.12169,-3.79384 0,0.55 -0.60071,1 -1.3349,1 -0.7342,0 -4.94947,2.19539 -9.36729,4.87865 -9.56451,5.80922 -12.40837,6.76319 -22.36711,7.50299 -4.16312,0.30927 -11.36312,1.47176 -16,2.58333 -9.16075,2.19603 -12.22648,2.39229 -15.6807,1.00387 z m 92.39489,0.2656 c -1.03142,-1.66887 1.72927,-4.07637 7.04052,-6.1398 4.54275,-1.76486 7.45526,-2.00889 23.5,-1.96895 17.19729,0.0428 18.81469,-0.11723 26.51219,-2.62346 4.50869,-1.46798 8.9714,-2.51902 9.91714,-2.33564 3.7839,0.73369 2.05714,2.672 -5.56819,6.25035 l -8.00666,3.75729 -20.64754,-0.0382 c -16.05517,-0.0297 -21.56442,0.29925 -24.76994,1.47914 -6.71071,2.4701 -7.3691,2.60374 -7.97752,1.6193 z m 11.79275,-18.33534 c -0.37422,-0.6055 0.81785,-3.193 2.64904,-5.75 2.87426,-4.01351 3.38384,-5.6313 3.72737,-11.83346 0.28323,-5.11359 -0.0429,-8.06799 -1.13142,-10.25 -1.27832,-2.56246 -1.29993,-3.06564 -0.13167,-3.06564 4.16421,0 6.45988,15.57279 3.41911,23.19363 -2.87348,7.2016 -6.70522,10.66196 -8.53243,7.70547 z m -34.93764,-37.61217 c -1.1,-0.26458 -2.45,-0.94548 -3,-1.5131 -1.27976,-1.32077 4.5795,-0.0436 5.95,1.29693 1.01778,0.99554 0.46009,1.03641 -2.95,0.21617 z M 260.68913,92.140751 c -7.71282,-7.76148 -13.59185,-15.1651 -14.08318,-17.73534 -0.80796,-4.22657 1.57378,-2.70497 8.20614,5.24256 l 6.4036,7.67342 1.20414,-3.4781 c 1.94041,-5.60472 5.11807,-11.23182 7.44001,-13.17499 1.18708,-0.99344 4.28752,-2.05842 6.88985,-2.36663 4.0846,-0.48376 5.13369,-0.21213 7.67288,1.98669 4.14274,3.5874 2.2258,5.39049 -2.84275,2.67391 -5.03226,-2.69713 -5.52267,-2.55991 -6.29773,1.76228 -0.87432,4.87564 -6.19927,16.02812 -8.18297,17.13825 -0.89035,0.49826 -1.28555,1.53816 -0.93337,2.45593 1.24252,3.23795 -0.96837,2.35871 -5.47662,-2.17798 z m 7.60202,-9.20742 c 1.33758,-2.77266 2.68678,-6.48516 2.99822,-8.25 0.40681,-2.30524 -0.41812,-1.24329 -2.9296,3.77136 -3.24991,6.48908 -4.20444,9.51986 -2.99822,9.51986 0.2737,0 1.59202,-2.26855 2.9296,-5.04122 z m -44.00607,-0.47325 c -2.2107,-2.89839 -2.58596,-4.22015 -2.14068,-7.53999 0.46126,-3.43897 0.0732,-4.63895 -2.66321,-8.23553 -2.79683,-3.67598 -3.80333,-4.27343 -7.93475,-4.71001 -2.60238,-0.275 -4.83306,-0.94558 -4.95706,-1.49018 -0.2235,-0.98157 3.72614,-2.16378 7.98974,-2.39151 3.31641,-0.17713 8.86348,5.29153 11.86759,11.69982 1.46496,3.12503 2.78462,5.82085 2.93257,5.99071 0.14795,0.16987 3.30476,-1.06763 7.01513,-2.75 7.88329,-3.57445 8.46951,-3.65957 8.46951,-1.22978 0,1.79883 -6.92758,5.66539 -11.5,6.41862 -1.63122,0.26871 -1.95942,1.01381 -1.7799,4.04089 0.19687,3.31979 -0.0352,3.71143 -2.19911,3.71143 -1.59155,0 -3.3363,-1.20237 -5.09983,-3.51447 z m 66.57884,-9.51028 c 0,-0.56361 1.12645,-1.45303 2.50322,-1.97647 1.37677,-0.52345 4.49654,-1.85979 6.93283,-2.96965 2.43628,-1.10985 5.13483,-1.74729 5.99678,-1.41653 2.02015,0.7752 2.04123,3.3874 0.0273,3.3874 -0.84691,0 -3.30398,0.9 -5.46016,2 -4.15736,2.12093 -10,2.69073 -10,0.97525 z"
     id="path12263" />
</svg>
