<?xml version="1.0" encoding="UTF-8" standalone="no"?>
<svg
   xmlns:dc="http://purl.org/dc/elements/1.1/"
   xmlns:cc="http://creativecommons.org/ns#"
   xmlns:rdf="http://www.w3.org/1999/02/22-rdf-syntax-ns#"
   xmlns:svg="http://www.w3.org/2000/svg"
   xmlns="http://www.w3.org/2000/svg"
   viewBox="0 0 765.67908 616.10461"
   height="616.10461"
   width="765.67908"
   id="svg186"
   version="1.1">
  <metadata
     id="metadata192">
    <rdf:RDF>
      <cc:Work
         rdf:about="">
        <dc:format>image/svg+xml</dc:format>
        <dc:type
           rdf:resource="http://purl.org/dc/dcmitype/StillImage" />
        <dc:title></dc:title>
      </cc:Work>
    </rdf:RDF>
  </metadata>
  <defs
     id="defs190" />
  <g
     transform="translate(-95.772994,3.3135079)"
     id="g253">
    <path
       d="m -210.36328,282.33203 c -3.57913,0 -4.43715,0.88185 -11.50586,11.83399 -5.40605,8.37604 -6.04987,9.91091 -7.94336,18.9121 -1.88189,8.94622 -5.71715,14.06069 -15.11133,20.1504 -3.95914,2.56647 -8.00921,5.5751 -9,6.6875 -0.99089,1.11239 -4.55461,3.26471 -7.91797,4.7832 -5.53236,2.49777 -6.5535,3.4648 -10.71679,10.14453 -2.61406,4.19408 -5.12304,9.74698 -5.8086,12.85352 -1.50472,6.81843 -1.92827,7.37391 -6.73633,8.81445 -4.42314,1.32521 -10.29687,7.24198 -12.55664,12.65039 -2.02696,4.8512 -4.87523,22.12981 -4.13476,25.08008 0.38137,1.51949 -0.38146,4.70726 -2.07227,8.66406 -4.70434,11.00894 -4.26147,33.03913 0.77149,38.39648 3.33106,3.54575 8.93443,3.26438 12.19726,-0.61328 1.3773,-1.63682 2.79441,-4.44932 3.15039,-6.25 1.49379,-7.55608 6.3617,-16.12762 11.81836,-20.81054 1.62599,-1.39543 3.03421,-3.42043 3.12891,-4.5 0.32624,-3.72008 8.32699,-18.97151 12.02539,-22.92383 5.9915,-6.40286 12.17067,-16.53687 14.54492,-23.85352 1.21607,-3.74751 3.24595,-8.01673 4.51172,-9.48828 l 2.30078,-2.67578 -0.50976,4.52734 c -0.59845,5.30953 1.16372,7.55284 5.14843,6.55274 2.34447,-0.58843 2.48842,-1.04158 2.76368,-8.75586 l 0.28906,-8.13672 6.5,-3.43164 c 8.1075,-4.28028 10.26612,-6.25396 15.05859,-13.77734 2.10213,-3.3 5.83725,-7.6794 8.29883,-9.73047 6.2178,-5.18084 6.97875,-8.15029 6.44531,-25.1543 -0.35952,-11.45936 -0.82936,-14.96203 -2.49609,-18.61523 -2.87661,-6.30504 -8.39752,-11.33399 -12.44336,-11.33399 z m -86.90234,48.46094 c -8.44477,0.98294 -2.14345,1.80939 -5.96094,6.08984 0,0.57261 -3.17283,4.06803 -7.05274,7.76758 -7.30746,6.9678 -10.61857,13.44664 -9.39648,18.38672 -13.50712,18.67333 11.97815,-1.81476 18.1935,-4.47269 0.002,-0.0181 0.0105,0.0353 0.0156,0.0527 11.77914,-9.35897 29.16536,-48.89683 4.20106,-27.82415 z m 10.65646,-1.51711 c 0.37253,-0.0525 0.36531,0.50879 0.34766,1.63281 -0.0195,1.24175 -0.60705,3.28847 -1.30664,4.54883 -1.238,2.23032 -1.31654,2.2415 -2.9668,0.41797 -1.60936,-1.77833 -1.54366,-2.00918 1.30664,-4.54883 1.49507,-1.33209 2.24664,-1.99831 2.61914,-2.05078 z m 103.79297,20.29321 c -0.84576,0.63305 -1.89742,1.48843 -3.11718,2.50781 -0.0239,0.0506 -0.0404,0.0977 -0.0645,0.14844 1.95478,-0.16693 2.97794,0.15614 1.82032,1.41211 -0.0735,0.0797 -0.13369,0.14357 -0.20508,0.2207 0.099,-6e-5 0.19792,-2.9e-4 0.29687,0 0.49044,0.002 0.79473,-0.004 1.17774,-0.002 0.0546,-0.33465 0.10947,-0.66926 0.16406,-1.00391 -0.11368,-1.01961 -0.13923,-2.09483 -0.0723,-3.2832 z m -3.18164,2.65625 c -0.0407,0.003 -0.0931,0.0155 -0.13476,0.0195 -0.40844,0.34259 -0.9097,0.76831 -1.37305,1.16406 -0.01,0.19977 -0.002,0.33968 0.004,0.48828 0.21903,-0.006 0.44323,-0.008 0.66406,-0.0117 0.036,-0.0622 0.0582,-0.0785 0.0977,-0.15235 0.2751,-0.51527 0.50476,-1.0095 0.74218,-1.50781 z m 2.92577,2.63277 c -1.24311,0.33952 -2.27446,0.63125 -3.05078,0.86914 -0.0679,0.073 -0.13375,0.14202 -0.20312,0.2168 0.9366,0.16117 1.94386,0.34785 2.99219,0.55859 0.0174,-0.11151 0.0283,-0.20845 0.0469,-0.32226 0.0719,-0.44071 0.14293,-0.88156 0.21484,-1.32227 z"
       style="fill:#e6e6e6;fill-opacity:1"
       transform="translate(720.22406,-17.1936)"
       id="path259" />
  </g>
  <path
     id="path257"
     d="m 324.31534,436.52383 c -1.97545,-1.97545 -1.51514,-6.94616 1.66113,-17.93781 2.31666,-8.01691 2.38948,-9.36805 0.8287,-15.37498 -0.97989,-3.7713 -0.8907,-4.72206 0.64637,-6.89027 2.85587,-4.02851 3.03558,-4.43308 4.76852,-10.73475 2.51117,-9.13163 3.27889,-10.54039 8.017,-14.71103 2.41199,-2.12313 4.65015,-4.63168 4.97368,-5.57459 0.32353,-0.94291 2.60856,-3.28938 5.07784,-5.21438 3.42791,-2.67233 4.62894,-4.36192 5.07882,-7.14477 0.76888,-4.75606 2.85911,-7.80375 8.36726,-12.19996 8.85485,-7.0673 12.57715,-9.38774 17.83249,-11.11658 3.98124,-1.3097 7.57402,-3.78447 14.17831,-9.76627 4.8652,-4.40663 9.33173,-9.19565 9.92561,-10.64224 0.97828,-2.38293 2.28813,-12.36402 3.95408,-30.13017 0.54724,-5.83594 0.8478,-6.53375 2.94198,-6.83036 2.68853,-0.38079 5.69482,2.01863 7.92852,6.328 1.15739,2.23291 1.57964,6.33399 1.64762,16.00235 l 0.0914,13 -3.93909,7.21046 c -4.1983,7.68498 -11.00632,15.28468 -17.86158,19.93865 -2.30963,1.56798 -4.79397,3.41339 -5.52076,4.10089 -0.72678,0.6875 -1.78018,1.25 -2.34087,1.25 -0.65309,0 -0.90828,4.30585 -0.71011,11.98153 0.32215,12.47754 -0.23666,14.52945 -3.77137,13.84836 -1.66968,-0.32173 -1.85622,-1.42772 -1.85622,-11.00577 0,-5.85645 -0.27055,-10.92075 -0.60122,-11.25399 -0.33067,-0.33325 -1.69799,-0.0353 -3.03848,0.66198 -5.04635,2.62516 -9.72066,7.52655 -14.8159,15.53566 -4.08767,6.42535 -5.00815,8.57098 -4.1306,9.62837 0.79851,0.96214 0.83005,2.14739 0.1077,4.04732 -0.56183,1.47771 -1.0215,4.0224 -1.0215,5.65488 0,1.63248 -1.125,5.18823 -2.5,7.90166 -1.375,2.71343 -2.5,5.79337 -2.5,6.84431 0,1.05094 -0.65295,2.4527 -1.45099,3.11501 -0.79804,0.66232 -1.75042,3.20096 -2.11639,5.64142 -0.44706,2.98124 -1.46396,5.06535 -3.09912,6.35157 -2.09806,1.65033 -2.2627,2.18819 -1.19377,3.89982 1.50733,2.41363 -0.25172,5.14787 -3.31183,5.14787 -5.73588,0 -14.90827,8.86306 -15.75749,15.22608 -0.45017,3.37297 -1.01844,4.33784 -2.69576,4.57714 -1.16895,0.16677 -2.87624,-0.44766 -3.79397,-1.3654 z m 19.19211,-25.94637 0.27279,-2.99144 -2.02279,2.36077 c -2.48646,2.90193 -2.58935,4.39331 -0.27279,3.95399 1.12095,-0.21258 1.84806,-1.40718 2.02279,-3.32332 z m 3.85474,-5.25675 c 0.62015,-0.40409 1.44282,-2.62129 1.82818,-4.92712 0.38535,-2.30584 1.34046,-4.72344 2.12246,-5.37246 0.78201,-0.649 1.43171,-1.91241 1.44379,-2.80756 0.0121,-0.89516 0.92008,-3.60706 2.01777,-6.02646 1.0977,-2.41939 1.76929,-4.62541 1.49243,-4.90227 -0.27686,-0.27686 -1.65465,2.15265 -3.06176,5.39889 -1.40711,3.24626 -3.61065,7.92728 -4.89676,10.40229 -3.98556,7.66989 -4.30166,10.42113 -0.94611,8.23469 z m -13.77737,-5.23469 c 1.18169,-3.3898 0.95374,-3.66105 -1.23624,-1.47107 -0.84092,0.84092 -1.27492,2.19092 -0.96444,3 0.78442,2.04417 1.00963,1.8877 2.20068,-1.52893 z m 1.83295,-6.1875 c -0.31922,-0.79773 -0.55618,-0.56079 -0.60416,0.60417 -0.0434,1.05416 0.19293,1.64479 0.52522,1.3125 0.33229,-0.33229 0.36781,-1.1948 0.0789,-1.91667 z m 1,-4 c -0.31922,-0.79773 -0.55618,-0.56079 -0.60416,0.60417 -0.0434,1.05416 0.19293,1.64479 0.52522,1.3125 0.33229,-0.33229 0.36781,-1.1948 0.0789,-1.91667 z m 7.81773,-13.23494 1.95516,-2.92246 -2.64321,1.7319 c -1.45376,0.95254 -3.35636,3.51425 -4.228,5.69268 -2.37769,5.94243 -1.90689,7.88557 0.68805,2.83979 1.25007,-2.43071 3.15267,-5.73458 4.228,-7.34191 z"
     style="fill:#8c8c8c;fill-opacity:1" />
  <path
     id="path241"
     d="m 402.98612,615.30828 c 0,-0.44 0.40188,-1.2275 0.89308,-1.75 0.49119,-0.5225 2.22936,-3.48498 3.8626,-6.58329 4.45452,-8.45038 12.6338,-17.99521 27.12631,-31.65513 7.17059,-6.75863 14.29306,-14.0417 15.82772,-16.18459 1.53466,-2.14289 5.1912,-6.9631 8.12565,-10.71158 7.51427,-9.59875 17.33706,-31.13056 21.12904,-46.31541 0.61806,-2.475 2.33565,-7.99299 3.81686,-12.26221 2.04944,-5.90701 2.43665,-8.16877 1.6201,-9.46328 -0.80387,-1.2744 -0.5979,-2.96442 0.82117,-6.73779 2.77249,-7.3722 5.67767,-16.75711 6.71897,-21.70498 1.96919,-9.35687 5.21262,-20.51867 7.08828,-24.39325 1.08362,-2.23847 1.97022,-4.60286 1.97022,-5.25421 0,-0.65136 0.7875,-2.03311 1.75,-3.07057 0.9625,-1.03746 3.55,-4.45934 5.75,-7.60418 6.74967,-9.64846 24.52832,-23.84613 27.5343,-21.98833 1.79419,1.10887 0.98265,1.98273 -3.93762,4.23995 -7.00002,3.21132 -28.10423,25.63167 -26.01485,27.63724 0.58824,0.56465 12.00213,-1.34172 14.41817,-2.40816 10.52219,-4.64447 27.18668,-10.37858 32.46949,-11.17246 9.01189,-1.35428 22.33053,-5.47932 25.34362,-7.84942 1.37629,-1.08259 3.91622,-1.96835 5.64428,-1.96835 5.24892,0 8.52895,-2.36447 9.96182,-7.18116 0.70663,-2.37536 3.45529,-11.06884 6.10815,-19.31884 6.70498,-20.85153 7.61387,-24.8864 9.55042,-42.39775 1.61867,-14.63684 1.61507,-15.89698 -0.0728,-25.5 -2.41375,-13.73341 -10.46199,-41.67185 -14.04203,-48.74527 -2.20577,-4.35813 -6.33412,-9.85698 -7.4003,-9.85698 -0.45956,0 -1.14013,2.03099 -1.51237,4.51331 -0.81555,5.43846 -5.47177,10.4806 -11.52252,12.47753 -3.49863,1.15465 -4.48703,1.10581 -7.79334,-0.38513 -2.0826,-0.93912 -4.67482,-3.0333 -5.76048,-4.65373 -1.08567,-1.62043 -2.25376,-2.94752 -2.59575,-2.9491 -0.342,-0.002 -0.82612,6.18462 -1.07582,13.74712 -0.50754,15.37152 -1.75516,19.34069 -6.61145,21.0336 -4.75422,1.65733 -7.31876,0.42594 -15.83692,-7.60425 l -8.146,-7.67935 0.54015,-27.20689 c 0.67078,-33.7864 -0.13245,-40.53153 -6.41336,-53.85623 -2.3511,-4.98776 -11.7367,-15.3683 -12.87033,-14.23468 -0.93265,0.93266 2.22486,7.60661 6.08958,12.87141 6.44542,8.78042 7.77515,17.92932 7.54719,51.92639 -0.17671,26.35363 -1.03406,33.87002 -4.28474,37.56445 -0.99907,1.13545 -1.81649,2.61944 -1.81649,3.29775 0,1.94476 -5.07138,6.1378 -7.42352,6.1378 -8.17372,0 -15.74131,-14.46757 -18.97723,-36.28027 -0.87959,-5.92915 -1.59925,-12.3865 -1.59925,-14.34966 0,-3.04874 -2.56368,-13.97938 -5.83304,-24.87007 -1.32021,-4.3978 -7.18886,-15.24266 -9.6288,-17.79334 -6.43401,-6.72605 -18.01433,-14.49783 -22.03816,-14.79025 -7.78364,-0.56564 -10.37536,0.0587 -13.31912,3.20851 -2.65271,2.8384 -3.07751,4.31314 -4.63305,16.0843 -0.94191,7.12766 -1.4936,13.17834 -1.22599,13.44595 0.26762,0.26762 3.56718,-0.417 7.33237,-1.52138 3.76518,-1.10437 8.64579,-2.30569 10.84579,-2.66959 2.2,-0.3639 6.475,-1.25023 9.5,-1.96963 9.14956,-2.17594 17.29087,-2.86717 16.81091,-1.42731 -0.24071,0.72213 -7.36496,2.64348 -17.0748,4.60492 -9.16396,1.85118 -21.96598,5.19475 -28.44893,7.43017 -6.48295,2.23542 -13.81218,4.45625 -16.28718,4.93518 -8.66477,1.6767 -23.2853,6.99088 -29.36545,10.67356 -11.21912,6.7953 -23.09745,15.48635 -26.13455,19.12192 -1.65,1.97514 -6.46155,8.47398 -10.69234,14.44187 -7.86594,11.09559 -7.77288,10.8666 -10.67097,26.25643 -0.60307,3.2025 -0.28662,5.05282 1.53922,9 1.81828,3.93083 2.30104,6.73044 2.31122,13.40297 0.0169,11.07645 -1.85094,14.8624 -10.761,21.81165 -6.5898,5.1396 -6.78242,5.42335 -9.5033,14 -1.52745,4.81474 -4.33995,13.56066 -6.25,19.43539 -1.91006,5.87472 -3.47283,11.27964 -3.47283,12.01092 0,0.73129 -3.15417,6.72469 -7.00927,13.31868 -7.17461,12.27189 -9.00742,17.19247 -18.43359,49.48908 -5.32072,18.23024 -8.92964,27.94128 -16.44563,44.25267 -1.71133,3.71397 -3.11151,7.071 -3.11151,7.46007 0,0.38907 -1.963,5.45037 -4.36222,11.24733 -2.39922,5.79696 -5.80848,14.95778 -7.57612,20.35738 -4.02509,12.29536 -12.57715,32.62661 -14.55653,34.60599 -1.11275,1.11275 -1.7789,1.20279 -2.62667,0.35502 -0.84776,-0.84776 -0.59596,-1.82214 0.99286,-3.842 1.17077,-1.4884 2.12868,-3.06409 2.12868,-3.50155 0,-0.43745 1.27343,-3.63927 2.82984,-7.11514 4.38759,-9.79866 5.75379,-13.33383 10.66028,-27.58458 4.83895,-14.05459 8.25144,-22.62182 16.42478,-41.23519 4.53085,-10.31822 12.02993,-32.22525 16.60223,-48.5 2.86186,-10.18656 8.56356,-27.78062 9.70402,-29.94424 0.59598,-1.13067 2.87233,-4.75576 5.05856,-8.05576 4.23213,-6.38818 5.39873,-9.30131 12.21413,-30.5 2.38715,-7.425 4.65074,-14.2875 5.0302,-15.25 1.52188,-3.8602 -2.83332,-1.37562 -14.70112,8.3868 -6.7776,5.57523 -15.69206,13.73691 -19.8099,18.13705 -9.95792,10.6406 -13.38184,12.73557 -20.74315,12.692 -6.02828,-0.0357 -16.65821,-2.38318 -26.63213,-5.88139 -3.22424,-1.13086 -9.69837,-2.5328 -14.38696,-3.11543 -9.66924,-1.20154 -13.20703,-2.69448 -16.13754,-6.81 -1.58072,-2.21991 -3.37864,-3.15428 -7.92669,-4.11944 -5.18067,-1.09941 -6.27833,-1.04349 -9.20293,0.46888 -4.74504,2.45376 -9.29759,1.5157 -24.48362,-5.04485 -16.45398,-7.10833 -22.14061,-10.36852 -28.96574,-16.6063 -7.81102,-7.13884 -12.41733,-15.82239 -17.05683,-32.1546 -1.47496,-5.19225 -2.7134,-6.86207 -11.86652,-16 -9.748194,-9.732 -14.810624,-15.78495 -22.951704,-27.44246 -3.8683,-5.53915 -4.4518,-7.28725 -2.40921,-7.21769 0.6875,0.0234 3.275,2.99745 5.75,6.60898 7.11275,10.37894 13.712814,18.15268 23.643864,27.84845 5.98031,5.83862 9.46467,10.05379 9.91949,12 1.40666,6.01913 5.3322,17.37626 7.47764,21.63383 5.54687,11.0076 15.12569,18.57232 34.27073,27.06477 15.07744,6.68813 19.41385,8.08925 22.55471,7.28757 2.40797,-0.61462 2.09866,-0.88727 -3.61075,-3.18276 -8.57829,-3.44895 -14.06415,-9.75184 -22.60721,-25.97421 -3.76834,-7.15569 -9.03507,-15.66959 -11.70384,-18.91977 -2.66877,-3.25019 -6.04506,-7.37497 -7.50286,-9.16619 -1.61232,-1.98106 -2.40565,-3.89499 -2.02532,-4.88612 0.56354,-1.46854 0.83069,-1.44343 2.70678,0.2544 1.14484,1.03607 2.69157,3.06345 3.43718,4.50529 0.7456,1.44184 3.43094,5.04291 5.96742,8.00236 4.1866,4.88475 9.30879,13.39863 15.67086,26.04745 3.35547,6.67121 9.46766,13.62251 14.0203,15.9451 2.15479,1.09929 6.24952,2.25914 9.0994,2.57745 2.84989,0.3183 5.90908,1.20887 6.7982,1.97903 1.15382,0.99946 5.87713,1.56839 16.5,1.98749 14.94265,0.58952 23.75474,-0.28204 29.1661,-2.88468 6.29059,-3.02552 9.71124,-13.83499 4.96731,-15.69704 -4.71352,-1.85011 -27.53273,-8.0466 -33.75,-9.16472 -11.77385,-2.11741 -11.08477,-1.61401 -16.09325,-11.75699 -3.85088,-7.79867 -5.6287,-10.17954 -11,-14.73131 -9.10339,-7.71445 -25.90675,-23.6891 -25.90675,-24.62909 0,-2.43807 4.1199,0.0243 9.96888,5.95814 3.6594,3.7125 9.10093,8.0566 12.09228,9.65355 2.99136,1.59696 9.48884,5.60144 14.43884,8.89885 13.74951,9.15916 26.25141,16.60456 33.47101,19.93338 16.64131,7.67297 18.22932,7.99744 24.74506,5.05604 6.65812,-3.00567 8.28393,-5.06158 8.28393,-10.47541 0,-4.20203 -0.74596,-5.96762 -5.69843,-13.48745 -3.49488,-5.30662 -6.68511,-9.0277 -8.25,-9.62279 -1.40336,-0.53366 -3.72685,-2.62949 -5.16331,-4.65739 -1.43646,-2.0279 -5.26146,-5.59701 -8.5,-7.93136 -11.95675,-8.61846 -40.47656,-26.92277 -42.89325,-27.52932 -1.37225,-0.34441 -2.49501,-1.29263 -2.49501,-2.10715 0,-1.96653 1.2957,-1.86791 6.12711,0.46637 l 4.03049,1.94733 5.39948,-4.39794 c 8.90133,-7.25024 11.70936,-7.09592 30.15547,1.65719 5.6169,2.66536 11.32784,4.8461 12.69098,4.8461 1.36314,0 2.75728,0.45118 3.0981,1.00263 0.63301,1.02424 8.73687,4.99726 10.19351,4.9975 1.72149,2.9e-4 16.06597,10.06283 20.89421,14.65712 2.79914,2.66351 7.44276,8.08977 10.31915,12.05834 5.882,8.11544 12.23891,13.20862 19.51964,15.63921 12.68983,4.23635 23.84769,-0.74049 22.13445,-9.87284 -0.3639,-1.93978 -1.53935,-4.07501 -2.61212,-4.74496 -1.07276,-0.66995 -1.95047,-1.9635 -1.95047,-2.87456 0,-0.91106 -3.0375,-4.35567 -6.75,-7.65469 -3.7125,-3.29902 -7.875,-7.92583 -9.25,-10.2818 -1.375,-2.35596 -3.99862,-5.85922 -5.83026,-7.78502 -1.83164,-1.9258 -5.26497,-6.00783 -7.62962,-9.07119 -6.49974,-8.42027 -15.14638,-16.11684 -24.04012,-21.39866 -4.4,-2.61307 -12.275,-7.89339 -17.5,-11.73404 -9.78948,-7.19579 -32.12789,-21.02151 -41.9393,-25.95713 -8.08664,-4.06798 -16.28866,-7.36578 -27.0607,-10.88035 -8.77602,-2.86333 -10.56206,-3.09955 -23.43621,-3.09955 -11.11495,-1e-5 -15.46744,0.4267 -21.5,2.10783 -4.16009,1.15931 -8.01379,2.43182 -8.56379,2.8278 -2.03524,1.46531 -10.64274,4.25495 -11.25123,3.64646 -1.0312,-1.03119 1.89963,-3.12122 7.75123,-5.52754 3.025,-1.24396 5.88285,-2.62048 6.35078,-3.05893 1.07788,-1.00999 -9.35602,-7.97216 -19.82261,-13.22693 -11.18874,-5.61734 -15.88859,-9.04023 -24.528174,-17.86383 -4.125,-4.21286 -8.6685,-8.39644 -10.09666,-9.29685 -2.45415,-1.54725 -2.74453,-1.52078 -5.29114,0.48238 -3.85842,3.03503 -13.01837,14.55099 -20.91434,26.29365 -12.09377,17.98553 -11.15432,14.38199 -11.50103,44.11595 l -0.30317,26 4.51749,13.5 c 4.94464,14.77652 6.67082,17.11525 14.08885,19.08833 2.2,0.58517 5.92822,1.70468 8.28494,2.4878 2.35672,0.78313 6.79932,1.42387 9.87245,1.42387 4.85328,0 5.42392,0.1971 4.34261,1.5 -1.8889,2.27599 -8.33043,1.81525 -19.3079,-1.38102 -13.26444,-3.86216 -14.57397,-5.23659 -19.54685,-20.51555 -2.16663,-6.65689 -4.24576,-13.56297 -4.6203,-15.34686 -0.55398,-2.63855 -0.9928,-3.07681 -2.35297,-2.34999 -2.49843,1.33507 -11.14504,-3.56856 -21.67198,-12.29054 C 14.067546,226.40629 0.0241157,212.10214 4.0569583e-4,210.85828 -0.0430943,208.57663 3.4102657,211.05241 10.986116,218.73416 c 4.675,4.74036 10.975,10.52464 14,12.85396 5.25496,4.04643 15.91974,10.52016 17.33085,10.52016 0.36803,0 0.66915,-8.52058 0.66915,-18.93462 0,-27.11678 0.90921,-30.63362 12.56556,-48.60376 9.20571,-14.19206 23.36662,-30.46162 26.51359,-30.46162 2.12323,0 8.77243,4.45351 11.72068,7.85029 9.114234,10.50081 14.631104,14.99069 24.246464,19.73285 9.6408,4.7547 24.14358,13.42759 25.55417,15.28179 0.73189,0.96206 1.90412,1.21288 3.5,0.74889 1.31975,-0.38372 6.07129,-1.06212 10.55899,-1.50758 4.82346,-0.47878 9.74571,-1.63672 12.03925,-2.83218 2.13389,-1.11224 7.11306,-2.56762 11.06481,-3.23417 6.05403,-1.02114 8.25155,-0.96586 13.96075,0.35122 12.29535,2.83648 21.41674,6.91888 30.18215,13.50843 5.28537,3.97336 12.99716,13.34385 13.06133,15.87063 0.0177,0.6986 3.29476,3.37934 7.28226,5.95721 3.9875,2.57787 12.01284,8.12934 17.83409,12.3366 5.82124,4.20726 13.7379,9.52322 17.59256,11.81323 6.74516,4.00722 12.2012,9.25368 29.43989,28.309 3.63909,4.02258 6.90487,8.24109 7.25729,9.37445 0.35242,1.13337 4.26769,5.61103 8.70061,9.95037 9.02456,8.83404 9.4271,8.81467 10.44203,-0.50242 0.33003,-3.02973 1.03313,-6.56269 1.56245,-7.85101 1.25669,-3.05867 14.2104,-21.33814 19.38317,-27.35232 3.91994,-4.55756 22.61942,-17.73608 30.26039,-21.32611 2.07764,-0.97615 4.10813,-2.2708 4.51221,-2.877 1.20614,-1.80944 0.83665,-8.70341 -0.80943,-15.10217 -0.84892,-3.3 -1.96634,-11.85 -2.48315,-19 -0.51681,-7.15 -1.17466,-15.925 -1.4619,-19.5 -0.36708,-4.5687 0.0858,-9.1741 1.52417,-15.5 1.12553,-4.95 2.66517,-11.925 3.42142,-15.5 0.75626,-3.575 1.86983,-8.07203 2.47461,-9.9934 0.60477,-1.92137 1.09959,-7.34551 1.09959,-12.05365 0,-7.16988 -0.41393,-9.39091 -2.54848,-13.6744 -1.40167,-2.81277 -3.18701,-5.64406 -3.96743,-6.29175 -1.67602,-1.390982 -18.74837,-5.972352 -22.43129,-6.019452 -3.1527,-0.0403 -12.37891,-3.16318 -14.46825,-4.89718 -1.85761,-1.54168 -1.14308,-3.15732 4.6218,-10.450438 2.14003,-2.70734 3.53156,-5.23179 3.0923,-5.6099 -0.43926,-0.37811 -3.72365,-1.64347 -7.29865,-2.81191 -7.58576,-2.47931 -26,-11.86219 -26,-13.24817 0,-1.8785 3.07352,-0.86561 12.70655,4.18753 5.3864,2.8255 11.14345,5.50742 12.79345,5.95982 12.51059,3.43019 11.93087,3.42176 17.15203,0.24936 15.03684,-9.13644 34.21963,-16.79809 48.84797,-19.509984 6.41778,-1.189768 32.05449,-6.499504 40.5,-8.388141 8.91888,-1.994494 10.35304,-1.858324 13.70928,1.301661 2.93955,2.76766 6.8684,12.506274 5.76541,14.290954 -0.326,0.52747 -1.46617,0.95905 -2.53371,0.95905 -1.26809,0 -1.94098,0.68674 -1.94098,1.98094 0,2.13419 -1.18861,2.55862 -9.5,3.39227 -5.3117,0.53278 -23.76697,8.11842 -28.16156,11.57521 -3.09053,2.43101 -4.33844,2.59375 -4.33844,0.56576 0,-0.81719 1.74575,-2.64109 3.87945,-4.0531 5.65386,-3.74155 22.85217,-10.60325 28.40437,-11.33264 2.6311,-0.34564 4.8811,-1.07844 5,-1.62844 0.41467,-1.91819 -10.55406,-1.6271 -19.6934,0.52264 -19.37729,4.55788 -22.75943,5.86247 -33.23199,12.81853 -7.47864,4.96745 -13.09292,7.39744 -13.93672,6.03214 -0.75891,-1.22793 -0.92813,-1.07945 4.57829,-4.01686 2.475,-1.3203 7.18976,-4.13794 10.47725,-6.26144 3.28748,-2.1235 7.78748,-4.6363 10,-5.58401 6.69918,-2.86953 31.45968,-8.12412 39.22252,-8.32368 4.83975,-0.12441 7.28934,-0.58527 7.29369,-1.37222 0.0142,-2.577224 -2.02364,-6.288773 -4.25605,-7.751506 -2.12075,-1.389564 -3.13242,-1.385025 -10.29464,0.04618 -4.36852,0.872951 -10.86777,2.165717 -14.44277,2.872812 -22.16742,4.384474 -31.10998,6.350414 -37.5,8.244044 -7.50201,2.22317 -16.86967,5.50659 -18,6.30911 -0.55,0.39049 -5.5,3.03639 -11,5.87977 -9.77324,5.05255 -15.86101,10.16525 -21.45019,18.01454 l -2.21078,3.104738 3.54837,1.4826 c 1.9516,0.81544 4.46961,1.48261 5.59558,1.48261 2.01918,0 8.9685,1.6249 20.3265,4.75279 6.51119,1.79312 9.71376,4.827512 12.91812,12.239702 1.66644,3.85474 1.87059,6.02811 1.40973,15.00751 -0.62323,12.143 -1.50749,17.27607 -4.9853,28.93958 -3.50793,11.76451 -4.22997,17.7432 -2.39958,19.86908 1.18928,1.38127 1.30052,3.38029 0.60678,10.90401 -0.70751,7.67304 -0.49256,11.18257 1.28617,21 1.1746,6.48303 2.33905,14.14983 2.58767,17.03733 0.24862,2.8875 0.64108,5.25 0.87214,5.25 0.8968,0 14.04391,-3.85321 16.70989,-4.8974 1.5483,-0.60643 3.68272,-1.1026 4.74314,-1.1026 1.06042,0 3.65078,-0.74635 5.75635,-1.65855 3.66796,-1.58908 3.89933,-1.97649 5.52408,-9.25 0.93268,-4.1753 1.69054,-9.61645 1.68413,-12.09145 -0.0152,-5.88941 1.48125,-10.83795 4.32175,-14.29095 1.82865,-2.22296 3.63098,-3.01219 8.85615,-3.87802 6.10431,-1.01152 6.93347,-0.91554 11.92978,1.38103 8.51367,3.91333 20.08725,13.72691 24.11754,20.44997 6.2791,10.47439 10.50686,26.40044 13.20702,49.75118 1.70944,14.78296 5.14862,25.75624 10.11177,32.26327 3.5062,4.59687 6.02456,5.08919 9.41534,1.84062 4.1708,-3.99588 6.36629,-12.2039 6.55786,-24.5171 0.0898,-5.775 0.51547,-16.68077 0.94582,-24.23503 0.5214,-9.15231 0.41904,-15.15805 -0.30677,-18 -0.59909,-2.34574 -1.37129,-7.31199 -1.71601,-11.03612 -0.51194,-5.53059 -1.28111,-7.72915 -4.19825,-12 -1.96432,-2.87587 -5.69013,-9.28773 -8.27958,-14.24859 -2.58945,-4.96086 -6.789,-12.12251 -9.33235,-15.91478 -3.45193,-5.14703 -4.35309,-7.22177 -3.55462,-8.18386 0.77835,-0.93786 0.58452,-2.11006 -0.71174,-4.30446 -0.97976,-1.65859 -1.47029,-3.32671 -1.09007,-3.70693 1.24552,-1.24552 4.69587,2.86924 5.9054,7.04257 1.86661,6.44052 3.77394,9.19383 11.68282,16.86463 8.51798,8.26158 13.30085,13.49212 15.0577,16.46713 2.81113,4.76028 7.354,17.43073 7.59042,21.17033 0.73694,11.65631 0.36275,52.10019 -0.50958,55.07851 -0.56276,1.92137 -1.0232,4.04072 -1.0232,4.70967 0,1.21809 11.91485,13.14813 15.96369,15.98405 1.7753,1.24347 2.66753,1.29406 5.09428,0.28887 1.61812,-0.67025 2.94203,-1.32762 2.94203,-1.46082 0,-0.13321 0.46249,-2.66611 1.02776,-5.62868 0.56527,-2.96257 1.23733,-12.36149 1.49345,-20.88649 0.25613,-8.525 0.95204,-17.3 1.54646,-19.5 4.7054,-17.41498 6.24577,-44.24669 2.90432,-50.59036 -2.66232,-5.05436 -10.76592,-15.56796 -18.0777,-23.45399 -6.4495,-6.95602 -7.69396,-8.86832 -8.18622,-12.57935 -0.31927,-2.40696 -0.88669,-5.3888 -1.26092,-6.6263 -0.48006,-1.58749 -0.26731,-2.25 0.72254,-2.25 0.84209,0 2.38788,2.8479 3.86663,7.12374 1.87498,5.42151 3.80297,8.58763 8.06853,13.25 6.64998,7.26862 15.2666,18.51009 17.50311,22.83503 2.68619,5.19453 2.89101,20.24259 0.49395,36.29123 -2.46576,16.50859 -2.5543,20.21117 -0.65403,27.35056 1.92678,7.23897 3.83327,9.14944 9.13038,9.14944 7.55397,0 12.40072,-6.25646 12.41616,-16.02749 0.003,-1.94013 0.66179,-4.46436 1.46382,-5.60943 2.01193,-2.87243 7.137,-18.58804 8.4343,-25.86308 1.00631,-5.64321 1.2587,-11.92991 1.17695,-29.31613 -0.0592,-12.59555 -4.10186,-18.58785 -17.26274,-25.58819 -6.04231,-3.21394 -14.83111,-9.05259 -19.25675,-12.79281 -0.53462,-0.45182 -0.0564,-0.80287 1.09372,-0.80287 1.12404,0 4.70154,1.72572 7.95,3.83494 3.24845,2.10921 9.67498,6.04671 14.28118,8.75 4.60619,2.70328 9.10619,5.98328 10,7.28887 0.8938,1.3056 2.86344,3.57726 4.37696,5.04815 1.81477,1.76364 2.41496,3.01122 1.76253,3.66365 -1.04646,1.04646 0.31387,11.97201 2.00829,16.1297 0.49656,1.21841 4.18209,4.65572 8.19007,7.63845 4.00799,2.98273 8.60894,6.82334 10.22434,8.53469 3.46328,3.66899 6.03564,3.96528 7.68412,0.88508 5.06282,-9.45999 0.62127,-24.82043 -10.99535,-38.0257 -12.26272,-13.93974 -13.81806,-15.47877 -19.12586,-18.92531 -6.16122,-4.00069 -19.69364,-11.57946 -31,-17.36141 -4.125,-2.10948 -9.03852,-4.9887 -10.91894,-6.39826 -1.88042,-1.40957 -4.80542,-3.01285 -6.5,-3.56285 -2.17408,-0.70563 -3.18286,-1.73593 -3.42688,-3.5 -0.1902,-1.375 -0.8652,-3.13699 -1.5,-3.91554 -1.70643,-2.09284 -9.82293,-7.08311 -21.44208,-13.18325 -5.65834,-2.970672 -12.8916,-7.651212 -16.07389,-10.401212 -9.54667,-8.249808 -21.95976,-18.293938 -28.65072,-23.182908 -2.16348,-1.58082 -2.68735,-2.48776 -1.89933,-3.28816 0.79121,-0.80364 2.83788,0.17906 7.5,3.60106 3.52651,2.58846 7.53684,5.71879 8.91184,6.95627 2.59345,2.33407 12.40996,10.56196 19.20559,16.097518 2.14969,1.75108 7.14535,4.84747 11.10147,6.88085 13.67708,7.029822 20.51805,11.569862 28.23473,18.738112 9.48094,8.80713 8.46527,8.11077 22.45821,15.39752 21.46922,11.17997 31.07594,17.51173 36.5,24.05701 2.75,3.31845 6.18674,6.56419 7.6372,7.21274 1.60674,0.71843 3.79607,3.3968 5.60303,6.85459 2.84303,5.44043 3.14513,5.6885 7.29671,5.99188 2.38199,0.17407 8.46637,-0.38843 13.52084,-1.25 10.60571,-1.80781 25.33096,-1.8984 37.22566,-0.22903 11.14233,1.56378 10.30242,3.30621 -1.28344,2.66255 -16.91637,-0.9398 -31.80762,-0.42305 -41.25,1.43142 -5.0875,0.99918 -9.25,2.14042 -9.25,2.53609 0,0.39566 0.93277,3.37734 2.07281,6.62594 4.21697,12.01637 -0.69565,24.97295 -8.70641,22.96238 -1.34602,-0.33784 -5.06743,-2.9636 -8.2698,-5.83504 -5.93695,-5.32342 -11.75067,-9.97746 -13.14838,-10.52563 -0.42751,-0.16767 -1.04016,2.75733 -1.36144,6.5 -1.37556,16.02391 -2.71698,24.34493 -4.61707,28.64041 -1.11466,2.51988 -2.42922,4.83039 -2.92125,5.13448 -0.49202,0.30409 -1.18519,1.876 -1.54037,3.49313 -0.53063,2.41592 0.059,3.88508 3.30667,8.23854 5.38739,7.2218 6.22753,9.11227 11.5932,26.08686 7.80388,24.68795 8.90304,31.46068 8.23005,50.71142 -0.64771,18.52781 -2.42656,28.47529 -8.1365,45.5 -5.60022,16.69756 -8.30212,26.5052 -7.44742,27.03343 1.27868,0.79027 34.63781,-1.45642 46.94591,-3.16173 6.325,-0.87634 16.225,-2.17924 22,-2.89532 5.775,-0.71609 12.75,-1.74322 15.5,-2.28251 2.75,-0.5393 9.05,-1.27556 14,-1.63615 12.66514,-0.9226 40.87949,-5.181 54.5,-8.22569 13.79065,-3.08272 14.17923,-3.12877 14.67343,-1.73886 0.90465,2.54431 -29.7913,8.76926 -56.67343,11.49303 -14.93055,1.5128 -61.30636,7.99676 -62.5,8.73833 -0.55,0.3417 -9.1,0.90657 -19,1.25526 -21.70848,0.7646 -30.97269,2.12262 -43.5,6.37658 -15.91345,5.4038 -19.34005,6.43336 -23.5,7.06083 -10.97696,1.65572 -19.8524,4.54036 -34.5,11.21297 -1.925,0.87692 -5.525,1.93764 -8,2.35715 -2.475,0.41951 -6.40583,1.07984 -8.73518,1.4674 -2.32935,0.38755 -4.65092,1.20879 -5.15905,1.82496 -2.28221,2.76749 -11.09752,34.32277 -11.10308,39.74459 -10e-4,1.44335 -0.67769,4.53743 -1.50269,6.87573 -0.825,2.3383 -1.5,5.18472 -1.5,6.32539 0,1.14067 -1.30459,5.69659 -2.89909,10.12427 -1.5945,4.42769 -3.6947,10.97534 -4.6671,14.55034 -2.4404,8.97199 -7.84801,23.13143 -12.03012,31.5 -5.70305,11.41203 -16.75501,25.83636 -28.40369,37.07071 -16.6536,16.06126 -18.71802,18.16706 -23.59269,24.06559 -2.78914,3.37497 -6.6093,9.11081 -8.48924,12.74631 -2.23396,4.32012 -4.02431,6.61127 -5.16807,6.61369 -0.9625,0.002 -1.75,-0.3563 -1.75,-0.7963 z M 271.88068,384.66281 c 1.53738,-0.79502 6.12332,-5.13725 10.19097,-9.64941 4.06765,-4.51216 10.54995,-10.6781 14.4051,-13.7021 3.85515,-3.02399 9.03437,-7.40561 11.50937,-9.73691 2.475,-2.33131 6.525,-5.47073 9,-6.9765 2.475,-1.50576 6.8991,-4.56488 9.83133,-6.79803 l 5.33132,-4.06029 -2.23741,-1.68768 c -1.47219,-1.11048 -2.01406,-2.26976 -1.58436,-3.38956 0.90861,-2.36779 4.09105,-1.51071 4.47867,1.20617 0.7247,5.07952 3.4182,1.89392 5.57283,-6.59099 2.94079,-11.58077 1.75326,-14.38154 -3.76011,-8.86817 -10.47392,10.47392 -33.21956,3.08023 -44.96608,-14.61665 -5.67982,-8.55701 -17.11965,-18.52448 -27.49734,-23.9583 l -9.11733,-4.77389 -4.10176,3.98063 c -2.25597,2.18934 -4.85506,4.22441 -5.77576,4.52238 -0.9207,0.29797 -2.75825,2.13749 -4.08344,4.08783 l -2.40943,3.54606 3.90943,4.03786 c 2.15019,2.22083 5.03444,4.65265 6.40944,5.40406 5.41212,2.9576 20,24.40273 20,29.40129 0,5.36969 -3.04291,10.05572 -8.23982,12.68919 -7.43851,3.76938 -12.25723,4.03723 -19.2893,1.07218 -12.35906,-5.21115 -20.23471,-9.16191 -28.72759,-14.41099 -7.76625,-4.79998 -8.92562,-5.24324 -10.25,-3.91885 -1.95587,1.95586 -1.88817,2.94178 0.52703,7.67598 2.32018,4.54792 3.97968,5.12205 3.97968,1.37683 0,-3.71405 2.42746,-2.49716 2.81336,1.41034 0.17235,1.74515 0.4272,3.17299 0.56634,3.17299 2.24257,0 14.27897,2.78494 21.6203,5.00242 5.225,1.57824 11.19141,3.17415 13.2587,3.54648 5.19929,0.9364 8.7413,3.93438 8.7413,7.39868 0,13.54009 -8.95653,19.05242 -30.9567,19.05242 -6.11937,0 -11.0433,0.41351 -11.0433,0.92742 0,2.46653 5.31816,4.79305 13.66275,5.97702 4.86049,0.68963 13.56225,2.77085 19.33725,4.62493 5.775,1.85409 11.625,3.55718 13,3.78466 5.75345,0.95186 13.2807,0.59218 15.89456,-0.7595 z M 232.85809,283.25259 c -0.75458,-1.02063 -3.04506,-4.05813 -5.08994,-6.75 -4.73914,-6.23857 -7.55489,-11.89087 -8.29152,-16.64431 -0.31963,-2.0625 -1.06847,-3.75 -1.6641,-3.75 -2.01133,0 -11.83032,6.13878 -12.8417,8.02857 -1.24866,2.33314 -1.61682,2.00483 14.01529,12.49821 12.54596,8.42175 16.65518,10.38202 13.87197,6.61753 z m 9.20399,-6.70276 c 3.25822,-2.50714 5.92404,-4.9709 5.92404,-5.475 0,-0.86088 -4.00454,-2.87641 -11.93004,-6.00453 -1.88652,-0.7446 -5.3418,-2.81309 -7.6784,-4.59666 -3.51727,-2.68479 -4.44534,-3.00548 -5.39305,-1.86356 -0.87668,1.05633 -0.67177,2.44842 0.87516,5.94552 1.889,4.27039 10.6156,16.55268 11.76073,16.55268 0.28463,0 3.18333,-2.0513 6.44156,-4.55845 z m -10.07596,-70.61297 c 0,-1.62123 -7.51868,-8.66623 -13.40754,-12.56285 -5.81439,-3.84735 -18.76624,-8.99788 -25.94959,-10.31931 -5.81427,-1.06958 -16.78785,-0.0178 -17.34673,1.66267 -0.21383,0.64293 1.43274,1.35971 3.9175,1.70535 4.48623,0.62405 15.43363,4.01475 24.78636,7.67698 3.025,1.1845 6.85,2.65347 8.5,3.26438 1.65,0.61091 4.35,1.90628 6,2.87859 5.71591,3.36828 12.00347,6.71736 12.75,6.79131 0.4125,0.0409 0.75,-0.45284 0.75,-1.09712 z m 185.47496,167.1309 c -1.60306,-2.5938 2.22791,-9.95948 5.18003,-9.95948 1.83009,0 1.65965,1.04091 -0.65499,4 -1.07554,1.375 -1.96553,3.26094 -1.97776,4.19098 -0.0275,2.09212 -1.65077,3.21909 -2.54728,1.7685 z m 12.06493,-22.89493 c -0.3342,-0.54076 -0.0863,-1.789 0.55097,-2.77387 1.56585,-2.42007 11.60488,-10.59842 16.46927,-13.41679 8.40063,-4.86723 13.65063,-10.1597 16.69981,-16.83492 2.69032,-5.88961 2.9466,-7.3931 2.89768,-17 -0.0383,-7.5128 -0.65563,-12.69253 -2.15011,-18.03897 -3.44087,-12.30958 -3.44101,-12.31042 -1.89904,-11.80405 0.76534,0.25133 2.4775,3.34756 3.80479,6.88051 2.13779,5.6903 2.42316,8.13577 2.5,21.42354 0.0797,13.78429 -0.10728,15.42941 -2.30717,20.29828 -2.62823,5.81688 -10.86313,13.96093 -17.60609,17.41187 -2.2,1.12593 -7.2293,4.92499 -11.17623,8.44237 -3.94693,3.51737 -7.44967,5.95279 -7.78388,5.41203 z M 63.502566,249.18033 c -1.527,-6.6858 -1.71874,-10.64196 -1.22381,-25.25 0.56342,-16.62909 1.33077,-21.77493 4.22344,-28.32205 4.34067,-9.82446 8.48392,-19.98295 8.48392,-20.80103 0,-2.08506 5.30321,-12.60135 6.60697,-13.10165 1.81564,-0.69672 1.83199,2.32396 0.0267,4.93017 -0.75149,1.08488 -2.40118,5.12251 -3.666,8.97251 -1.26481,3.85 -2.63094,7.45 -3.03583,8 -2.67193,3.62948 -8.16181,20.0683 -9.01687,27 -1.41328,11.45702 -1.12682,29.36215 0.60119,37.57682 1.81189,8.61343 1.817,8.92318 0.14741,8.92318 -0.85058,0 -1.99467,-2.88208 -3.14712,-7.92795 z m 17.48355,-53.63372 c 0,-2.62463 7.13704,-16.37352 10.20351,-19.65619 2.24065,-2.39863 3.15548,-2.82315 4.08365,-1.89498 0.91798,0.91798 0.92137,1.36593 0.0146,1.92634 -1.95755,1.20983 -6.42223,8.29858 -9.4074,14.9365 -2.67351,5.9449 -4.89436,8.07227 -4.89436,4.68833 z m -12.1065,-56.46511 c -2.41643,-3.31472 -5.42799,-7.77458 -6.69236,-9.91078 -3.39657,-5.73864 -0.8889,-6.11247 3.03423,-0.45233 1.79555,2.59054 4.95213,6.98842 7.01463,9.77307 4.06688,5.49083 4.47419,6.61682 2.3935,6.61682 -0.74607,0 -3.33357,-2.71205 -5.75,-6.02678 z M 447.51069,36.005748 c -4.88397,-5.154054 -12.62201,-10.899683 -19.1011,-14.182886 -5.22672,-2.648577 -27.6798,-19.1598391 -28.2568,-20.7791321 -0.97639,-2.740102 4.1119,-0.02668 13.97603,7.452969 6.08444,4.6136311 13.59611,9.6702521 16.6926,11.2369331 10.07005,5.094977 22.1647,15.631303 22.1647,19.308903 0,1.961387 -1.55798,1.097297 -5.47543,-3.036787 z"
     style="fill:#000000" />
  <path
     id="path241-3"
     d="m 326.73787,431.58738 c -1.0033,-2.61462 1.12601,-8.87864 3.66951,-16.46237 1.3296,-3.96428 1.95809,-6.76851 1.53089,-6.76851 -0.7631,0 -3.95237,-5.79947 -3.96327,-8.1494 0,-0.65916 1.1194,-3.07126 2.4944,-4.55491 1.375,-1.48365 2.28037,-3.07776 2.28037,-3.81089 0,-0.73314 0.0848,-5.03883 1.26207,-8.76288 1.5066,-4.7654 3.2937,-6.85766 6.0334,-9.67284 2.1411,-2.2 5.95473,-5.91786 8.20643,-8.53036 2.2516,-2.6125 6.50957,-4.51476 7.16797,-4.51476 0.6583,0 2.02614,-3.25811 3.51404,-6.48097 4.1345,-8.9558 16.88185,-17.13496 26.35165,-20.73257 6.2074,-2.35819 6.38159,-6.6079 13.44559,-13.47917 4.5955,-4.47005 10.6495,-9.39972 11.2704,-11.04972 1.8341,-4.87368 1.02847,-19.9835 1.50445,-25.25346 0.79123,-4.41668 0.92832,-8.09818 3.24113,-6.93536 3.9895,2.0058 4.57495,0.7715 4.80565,16.32095 0.1674,11.28677 1.37908,10.78189 -1.74202,17.38548 -4.4834,9.48737 -8.20657,11.78452 -18.21299,20.24688 l -9.99123,8.44951 1.42603,13.47539 c -0.90743,7.35912 0.39035,9.7518 -1.87505,10.07309 -2.2806,0.32345 -1.27902,-1.73606 -1.34019,-7.64582 0.4004,-5.51414 0.46776,-10.17502 -0.20844,-11.90611 -1.0745,-2.75057 -2.35074,-3.45849 -5.94584,-1.95638 -5.7524,2.40351 -10.93397,7.58744 -16.44387,16.45284 -5.1697,8.31803 -5.19708,12.00057 -3.35448,13.13935 0.6703,0.41425 0.6703,1.08556 0,2.33798 -0.5515,1.03046 0.007,3.43347 0.007,5.34001 0,1.90655 -1.89712,5.01946 -3.26672,7.96157 -1.3697,2.94212 -2.4947,5.61579 -2.5,6.51095 -0.01,0.89515 -1.19316,2.93508 -1.97516,3.58408 -0.782,0.64901 -0.94028,3.61017 -1.30068,5.91601 -0.43,2.75097 -1.08429,3.7775 -2.79199,5.20857 -2.1948,1.83912 -3.64035,3.5896 -2.55115,4.90204 1.9989,2.40853 0.6453,3.648 -4.0969,4.8644 -5.2055,1.3352 -13.0568,8.4769 -14.0119,12.82545 -0.7166,3.26253 -1.74747,3.99478 -2.63887,1.67193 z m 16.99084,-16.72805 c 0.934,-0.35839 1.80143,-2.33149 1.80143,-4.02603 0,-1.93348 0.1317,-3.49782 1.7641,-4.56739 1.6458,-1.07835 3.73013,-2.54193 4.19603,-5.38479 0.3772,-2.30199 0.17467,-5.2487 0.87857,-6.0737 0.7039,-0.825 1.6139,-3.0684 2.0223,-4.98533 0.4083,-1.91694 2.24527,-4.16474 3.03807,-5.37476 0.7928,-1.21002 2.01173,-5.7545 1.91198,-6.97252 l -1.59559,-3.5312 -3.83556,3.57438 c -1.1789,1.88477 -2.58061,6.01239 -2.98061,7.3178 -1.2568,4.10094 -11.71812,23.22002 -13.68862,25.72516 -3.2253,4.10027 1.9412,6.04311 6.4879,4.29838 z m -5.77507,-17.68069 c 4.2793,-11.27521 5.22684,-13.89602 8.99884,-19.70644 1.7853,-2.75 2.02456,-7.28978 2.42986,-8.66478 0.7103,-2.4099 0.6524,-2.39404 -1.6092,0.44008 -1.2903,1.61704 -3.7621,4.31704 -5.4928,6 -2.2604,2.1981 -4.91875,5.1138 -6.91755,11.47263 -1.5303,4.86858 -2.64455,9.42465 -3.68395,10.39302 -1.6173,1.5067 -2.48521,3.23929 -1.45691,5.4962 0.6609,1.45054 2.63949,4.3944 2.78619,4.3944 0.1468,0 3.22332,-5.28761 4.94552,-9.82511 z m 21.35687,-32.37122 c 0,-0.55 -0.77945,-1.6589 -1.32945,-1.6589 -0.55,0 -1.71381,1.1089 -1.71381,1.6589 0,0.55 0.55982,1.54908 1.10982,1.54908 0.55,0 1.93344,-0.99908 1.93344,-1.54908 z m 14.0549,-21.34339 c 0,-1.31439 -4.24949,1.1559 -4.74779,2.65074 -0.2435,0.73075 1.69612,0.95424 2.67002,0.58051 0.871,-0.33422 2.07777,-2.69426 2.07777,-3.23125 z m 28.00583,-20.65661 c 1.4842,-1.64001 1.54,-2 0.31,-2 -0.825,0 -2.3145,0.9 -3.31,2 -1.4842,1.64001 -2.1989,4.19633 -0.9689,4.19633 0.825,0 2.9734,-3.09633 3.9689,-4.19633 z m 15.539,-17.25 c 0.4518,-1.5125 0.5153,-2.74831 0.1412,-2.74625 -0.8507,0.005 -6.04928,8.9253 -6.04088,10.9402 0.01,1.78323 4.73878,-4.3074 5.89968,-8.19395 z m -2.7229,-10.33979 c -0.2239,-0.59938 0.2884,-1.66698 1.1384,-2.37244 0.85,-0.70546 2.14649,-3.77212 2.14289,-4.66727 0,-1.04755 -1.31859,-1.76643 -2.59739,0.16446 -1.0927,1.65 -1.9582,7.31504 -1.9231,8.96504 0.053,2.5168 0.1911,2.67787 0.855,1 0.4352,-1.1 0.6081,-2.4904 0.3842,-3.08979 z"
     style="fill:#000000" />
</svg>
