<?xml version="1.0" encoding="UTF-8" standalone="no"?>
<svg
   xmlns:dc="http://purl.org/dc/elements/1.1/"
   xmlns:cc="http://creativecommons.org/ns#"
   xmlns:rdf="http://www.w3.org/1999/02/22-rdf-syntax-ns#"
   xmlns:svg="http://www.w3.org/2000/svg"
   xmlns="http://www.w3.org/2000/svg"
   viewBox="0 0 2190.1655 1628.8253"
   height="1628.8253"
   width="2190.1655"
   id="svg930"
   version="1.1">
  <metadata
     id="metadata936">
    <rdf:RDF>
      <cc:Work
         rdf:about="">
        <dc:format>image/svg+xml</dc:format>
        <dc:type
           rdf:resource="http://purl.org/dc/dcmitype/StillImage" />
        <dc:title></dc:title>
      </cc:Work>
    </rdf:RDF>
  </metadata>
  <defs
     id="defs934" />
  <path
     id="path1512"
     d="m 1098.5127,1626.5344 c -0.9864,-1.5054 -3.049,-14.6217 -6.0149,-38.25 -7.5262,-59.9583 -13.1231,-90.0396 -21.4822,-115.459 -7.7891,-23.6862 -16.8525,-39.1078 -32.1899,-54.7717 -12.6524,-12.9217 -22.3788,-19.4199 -66.85802,-44.6683 -34.6435,-19.6652 -49.2359,-35.7147 -70.0639,-77.06 -18.4978,-36.7198 -32.0255,-88.4611 -49.8059,-190.5 -9.3121,-53.4404 -14.3251,-95.516 -18.1096,-152.00003 -1.2777,-19.0701 -5.0117,-95.5455 -5.0168,-102.75 0,-3.027 -0.4523,-5.25 -1.0631,-5.25 -2.3447,0 -30.3778,11.6199 -44.7541,18.5509 -25.8138,12.4451 -42.1224,24.2446 -64.1866,46.4401 -14.83852,14.9268 -25.90355,29.2337 -37.73734,48.7937 -5.22923,8.6434 -12.01625,19.3153 -15.08226,23.7153 -9.52695,13.672 -35.35139,37.93943 -58.73674,55.19533 -23.69365,17.4834 -73.30568,41.051 -125.94366,59.828 -8.8,3.1391 -33.325,11.4461 -54.5,18.46 -40.66932,13.4711 -73.69028,25.895 -98.5,37.0599 -14.25096,6.4132 -15.12484,6.9727 -17.5,11.2039 -6.31259,11.2455 -16.86187,22.0843 -24.71788,25.3963 -4.79151,2.02 -14.11651,1.7292 -18.41434,-0.5743 l -3.60261,-1.9309 -11.88258,6.212 c -6.53543,3.4165 -17.95759,10.0637 -25.38259,14.7715 -20.62262,13.0756 -36.11981,22.0865 -40.05589,23.2905 -4.15726,1.2718 -36.21014,19.0194 -63.64052,35.2378 -10.55803,6.2425 -20.08839,11.35 -21.17858,11.35 -2.01882,0 -5.125009,-2.4338 -5.125009,-4.0157 0,-3.0615 13.670109,-11.9704 44.499999,-29.0008 8.25,-4.5573 19.5636,-10.9034 25.14134,-14.1025 5.57773,-3.199 16.81832,-9.2559 24.97907,-13.4599 8.16076,-4.2039 20.24715,-11.0501 26.85866,-15.2138 19.12195,-12.0424 23.34905,-14.524 35.04374,-20.5737 19.53834,-10.1073 28.3877,-18.5127 35.49108,-33.7106 10.2227,-21.8717 1.13325,-53.2907 -25.8043,-89.1963 -14.41084,-19.2085 -21.70419,-27.2762 -53.18103,-58.8271 -29.56869,-29.63823 -41.00379,-39.73993 -53.49323,-47.25563 -5.80833,-3.4952 -6.01802,-3.5417 -8,-1.7753 -1.11943,0.9977 -11.71033,5.0782 -23.53533,9.0677 -11.825,3.9896 -27.124999,9.7345 -33.999999,12.7666 -6.875,3.0321 -21.5,9.2379 -32.5,13.7907 -11,4.5528 -26.975,11.2463 -35.5,14.87433 -8.525,3.6281 -16.6475004,6.6046 -18.0500004,6.6143 -4.70066001,0.033 -6.57314,-4.2094 -3.2,-7.2496 1.75179,-1.57883 17.8240204,-8.55693 56.2500004,-24.42203 11.275,-4.6552 23.87654,-10.1198 28.00343,-12.1435 4.12688,-2.0237 16.162479,-6.6018 26.745759,-10.1734 18.26724,-6.1647 19.24255,-6.6232 19.24657,-9.048 0.005,-3.2618 4.91025,-11.0317 8.63534,-13.6796 4.93475,-3.5077 9.7513,-4.3176 15.99895,-2.6903 3.04347,0.7927 6.47222,1.9437 7.61945,2.5576 6.90829,3.6972 45.52729,-8.2552 67.2505,-20.8137 17.49921,-10.1165 32.75473,-23.5016 52.73368,-46.2682 13.50976,-15.3947 22.76538,-27.6833 30.1663,-40.0516 8.80167,-14.7092 25.20228,-47.8073 38.40993,-77.5153 6.59831,-14.8416 14.5601,-32.5796 17.69287,-39.4177 7.52166,-16.4181 24.16966,-57.3005 31.99379,-78.567 6.18465,-16.8103 14.55864,-42.8431 22.5169,-70 7.53532,-25.71364 14.02658,-43.89073 20.07296,-56.2091 4.93534,-10.05485 7.32996,-13.63058 13.57138,-20.26524 7.69612,-8.18103 20.47485,-17.51239 29.98714,-21.8974 3.21952,-1.48414 5.59258,-3.35533 6.34106,-5 0.65786,-1.44554 6.44263,-9.50925 12.85505,-17.91936 15.97017,-20.94543 23.70843,-32.12978 34.39271,-49.7089 5.0142,-8.25 14.15146,-23.1 20.30501,-33 15.47736,-24.90038 20.99888,-34.71986 37.95546,-67.5 29.68346,-57.3835 38.81955,-71.63524 56.73009,-88.49547 11.59765,-10.91754 21.1445,-17.20642 34.99544,-23.05286 22.64149,-9.55689 41.45703,-12.46244 85.28023,-13.16917 30.8199,-0.49703 95.2879,1.73452 110.257,3.81653 21.4786,2.9874 45.0454,15.49016 68.1944,36.17875 l 10.4515,9.3406 11.0938,-11.05919 c 10.9174,-10.88338 36.76592,-34.75194 49.50332,-45.71148 37.8273,-32.54733 123.8708,-85.667537 171.5,-105.877987 34.2879,-14.54936 64.1173,-22.9197 113.5029,-31.84972 76.4298,-13.8202303 104.9099,-17.00022034 159.728,-17.83467034 57.4572,-0.87462 99.5507,3.36485004 150.5199,15.15970034 49.923,11.55275 84.4239,23.01009 144.7256,48.06164 41.217,17.12306 52.4801,22.17451 76.0236,34.09633 28.3071,14.333977 52.0964,29.560587 79.5,50.884747 35.1935,27.38592 67.5248,66.43 101.0349,122.01225 20.2618,33.60756 40.0075,77.5451 62.36,138.76148 18.919,51.81295 29.4352,113.21373 27.7013,161.73852 -1.2049,33.7227 -1.6264,37.2338 -15.0575,125.4425 -3.5963,23.6184 -6.5387,43.2205 -6.5387,43.5603 0,0.3398 3.9375,-0.7382 8.75,-2.3957 8.1182,-2.7958 9.7609,-3.0123 22.75,-2.9976 23.3279,0.026 37.5992,4.8549 50.0566,16.9365 11.5761,11.2269 16.6227,30.1667 16.6411,62.454 0.014,25.4602 -3.5682,42.6046 -17.2403,82.5 -17.7696,51.8523 -37.6289,95.1411 -72.0257,157.00003 -19.4777,35.0287 -25.8537,47.5592 -35.9776,70.706 -9.4843,21.6847 -14.6849,31.3208 -26.2218,48.586 -19.8876,29.7625 -43.0761,48.3258 -68.4641,54.8081 -8.4426,2.1556 -10.5531,2.358 -15.552,1.491 -7.0821,-1.2282 -14.825,-5.312 -18.9247,-9.9813 l -3.0707,-3.4974 -2.3864,2.9438 c -1.3125,1.6191 -4.8276,7.8938 -7.8113,13.9438 -10.7407,21.7787 -15.871,38.477 -19.2023,62.5 -2.1986,15.8544 -2.4976,66.3486 -0.5005,84.5 3.813,34.6548 9.5687,65.6941 17.6637,95.2569 9.1734,33.5013 15.6483,49.6936 28.6003,71.5231 4.6049,7.7611 5.0788,9.0666 4.084,11.25 -1.6503,3.6219 -5.47,3.2709 -8.4872,-0.78 -3.664,-4.9194 -13.1493,-21.4804 -16.1801,-28.25 -12.3707,-27.6311 -25.2768,-76.2363 -31.4653,-118.5 -4.3266,-29.5483 -5.4109,-43.8817 -5.4091,-71.5 0,-49.741 4.9105,-74.2263 21.8586,-109.0703 3.4965,-7.1886 8.0032,-15.2264 10.0148,-17.8617 l 3.6574,-4.7915 -2.5797,-9.1383 c -4.4967,-15.9286 -5.938,-28.2006 -6.0058,-51.1382 -0.067,-22.6703 0.4701,-25.5 4.8408,-25.5 1.2883,0 2.7969,0.5625 3.3523,1.25 0.5838,0.7225 1.2201,11.3786 1.5079,25.25 0.7977,38.4468 5.3009,56.5581 16.601,66.7671 6.6235,5.984 13.2134,6.9966 24.5094,3.7663 34.9309,-9.9894 62.8374,-42.2433 89.1459,-103.0334 8.907,-20.581 11.7397,-26.1188 31.9803,-62.5194 31.4932,-56.63723 42.2456,-78.69813 59.696,-122.47943 25.3711,-63.6538 32.6626,-95.1129 29.9609,-129.2672 -1.9816,-25.0512 -5.3291,-35.0796 -14.4665,-43.339 -9.8795,-8.9302 -23.9522,-13.4094 -42.0379,-13.3802 -11.5388,0.019 -19.5612,1.8981 -29.4103,6.8902 -18.9683,9.6143 -36.1667,24.0166 -75.3355,63.0876 -26.8493,26.7823 -32.0217,32.4611 -42.3598,46.5074 -11.5729,15.724 -15.8257,20.4852 -18.3064,20.495 -2.4063,0.01 -1.2035,-3.3072 4.4836,-12.3641 15.6519,-24.9258 24.6665,-35.8393 55.7664,-67.5132 23.5302,-23.9644 37.8962,-36.7852 53.7882,-48.0027 9.185,-6.4834 10.7077,-7.9402 10.2464,-9.8034 -0.4743,-1.9158 3.4765,-29.4656 14.3855,-100.3116 5.5849,-36.2704 6.4378,-46.9654 6.4992,-81.5 0.061,-34.04241 -0.5637,-41.44207 -6.0315,-71.5 -7.6756,-42.19453 -19.0462,-77.80268 -43.9077,-137.5 -24.6629,-59.22063 -54.5557,-108.93756 -91.9929,-153 -29.5184,-34.74226 -75.9319,-70.13276 -122.887,-93.70192 -23.8099,-11.951417 -84.1521,-37.784857 -118.1002,-50.560517 -49.1492,-18.49632 -103.3627,-33.03963 -146,-39.16596 -71.4795,-10.2705303 -138.9487,-8.8894003 -220.5,4.51373 -89.2844,14.6741 -123.197,24.08738 -172.5,47.88164 -44.9328,21.68518 -111.939,64.387507 -147,93.681527 -12.761,10.66204 -49.01182,44.35289 -55.20792,51.30932 l -5.2079,5.84692 14.1145,14.09763 c 14.94422,14.92642 24.84372,27.16608 26.82322,33.16411 3.5168,10.65601 -1.6567,25.13728 -13.0512,36.53178 -7.77562,7.77559 -14.79542,12.09083 -23.50332,14.44794 l -6.176,1.67178 -0.1112,6.14101 c -0.061,3.37755 -0.7968,8.39101 -1.6349,11.14101 -0.838,2.75 -1.5285,5.3375 -1.5345,5.75 -0.01,0.4125 6.9296,0.75 15.4123,0.75 h 15.4231 l 2.82692,-2.77399 c 5.0132,-4.91937 21.525,-14.04116 31.3269,-17.30625 21.4297,-7.13842 39.324,-4.42042 57.8463,8.78637 8.1856,5.8365 28.7258,25.68198 39.1169,37.79387 14.1834,16.53208 32.5179,42.89129 37.9083,54.5 3.2737,7.05015 3.417,14.78002 0.3819,20.5968 -2.6994,5.17321 -11.0427,12.79788 -19.3172,17.6532 -14.7549,8.658 -20.6944,3.96513 -46.5123,-36.75 -13.908,-21.93324 -16.2708,-25.11505 -16.995,-22.88606 -7.3458,22.61158 -32.933,44.50421 -56.48,48.32463 -3.5469,0.57548 -16.3923,1.04972 -28.5453,1.05388 -12.15302,0.004 -26.16392,0.29627 -31.13532,0.64915 l -9.0389,0.6416 -7.5745,14.1084 c -6.8567,12.77163 -13.8958,27.14339 -22.4607,45.8584 -3.4871,7.61953 -6.3632,9.00254 -8.3186,4 -2.3312,-5.96413 2.4029,-31.19597 10.0703,-53.67195 1.6739,-4.90708 2.9073,-9.05815 2.7409,-9.22462 -0.1665,-0.16646 -5.0016,0.12076 -10.7447,0.63828 -5.7432,0.51752 -11.7921,0.96298 -13.4421,0.98993 -1.65,0.0269 -3.6345,0.45062 -4.4099,0.94151 -1.7822,1.12821 -5.2234,29.02677 -8.0671,65.40202 -2.2918,29.31512 -3.034,35.12473 -6.5963,51.63353 -2.6909,12.4703 -13.661,54.0529 -20.8468,79.0204 -2.4502,8.5136 -4.3508,15.5833 -4.2235,15.7106 0.1272,0.1273 4.3018,-1.0776 9.2769,-2.6775 15.1155,-4.8609 28.4606,-7.1353 45.4237,-7.7415 29.6674,-1.0603 53.565,5.4659 72.5844,19.822 16.05502,12.1186 26.23782,22.7778 33.34722,34.9073 1.773,3.025 3.3804,5.667 3.572,5.8711 0.5202,0.5542 11.2285,-5.6077 16.9387,-9.7471 7.462,-5.4092 16.7577,-14.2051 29.3835,-27.8037 11.6199,-12.5152 13.0421,-13.6701 15.6172,-12.6819 4.9939,1.9163 -1.0949,10.8283 -20.9917,30.7251 -11.0742,11.0742 -20.7793,18.6824 -30.8457,24.1812 l -6.8375,3.735 0.6766,6.7377 c 0.7947,7.9123 -1.1604,17.018 -5.0954,23.7327 -6.8745,11.7304 -28.5196,23.46 -72.40632,39.2376 -5.775,2.0762 -21.075,7.8785 -34,12.8942 -12.925,5.0157 -37.225,14.2079 -54,20.4271 l -30.5,11.3077 -0.3092,9.4417 c -0.2905,8.8701 1.5406,52.5654 3.853,91.9416 3.5583,60.59283 9.2462,108.86013 20.0332,170.00003 16.1114,91.3189 30.7475,146.8763 47.4193,180 6.7548,13.4205 19.2628,33.3665 25.1997,40.1849 12.4743,14.3263 23.0701,22.2625 48.804,36.5536 45.11352,25.0535 57.48152,34.5566 74.31242,57.0994 21.532,28.8391 31.9136,67.7175 43.667,163.5291 1.9477,15.8768 3.8112,29.9426 4.1411,31.2572 0.7571,3.0164 -1.9738,7.3758 -4.6205,7.3758 -1.0746,0 -2.6294,-1.031 -3.455,-2.291 z M 282.47863,1181.3853 c 4.78854,-2.0008 13.08599,-9.9531 17.56018,-16.8297 4.3288,-6.6532 9.21227,-19.4747 10.96549,-28.79 1.95468,-10.3856 5.28523,-13.557 9.42883,-8.9784 1.61243,1.7817 1.6596,2.585 0.51387,8.75 -0.69385,3.7335 -1.66064,7.8631 -2.14841,9.1769 -0.48778,1.3138 -0.72046,2.5551 -0.51708,2.7585 0.20338,0.2033 4.37847,-1.4859 9.27798,-3.7538 21.596,-9.9968 64.59209,-25.8152 115.40819,-42.4592 67.8225,-22.2141 123.5623,-46.4434 153.29767,-66.6363 11.08087,-7.5249 31.08013,-24.1653 43.25535,-35.99063 13.41409,-13.0286 19.05076,-20.3749 32.39086,-42.2151 18.64047,-30.5179 33.15641,-47.7161 59.05612,-69.9686 13.4801,-11.5818 27.9307,-20.9888 45.5,-29.6196 17.1665,-8.4328 28.3448,-12.9094 77.5,-31.0362 21.175,-7.8087 47.725,-17.788 59,-22.1763 11.275,-4.3884 28.15,-10.8158 37.5,-14.2832 41.2814,-15.3089 57.03882,-22.5908 65.66292,-30.3447 6.6668,-5.994 9.8252,-12.6572 9.7947,-20.6636 -0.048,-12.4866 -6.1187,-23.6484 -20.9576,-38.5308 -23.54382,-23.6129 -43.88162,-31.9692 -77.80772,-31.9692 -10.3254,0 -18.5631,0.6102 -26.4585,1.96 -11.5301,1.9712 -30.2258,7.6147 -36.7338,11.0885 -1.925,1.0275 -6.4154,3.061 -9.9787,4.5188 -9.1916,3.7605 -37.8358,18.1904 -55.7346,28.0772 -31.4536,17.3739 -63.1416,29.751 -90.2867,35.2653 -18.00189,3.657 -28.99351,4.3661 -60.44016,3.8994 -33.03787,-0.4904 -35.78406,-0.9434 -36.36977,-5.9993 -0.53232,-4.595 1.59149,-4.9414 23.5166,-3.8357 24.47145,1.234 34.9866,1.2885 33.74333,0.1748 -0.5225,-0.4681 -4.1,-2.0755 -7.95,-3.572 -7.47641,-2.9062 -26.09852,-12.4429 -30.71247,-15.7283 -1.95777,-1.394 -2.78753,-2.852 -2.78753,-4.8977 0,-4.1939 4.01824,-5.0509 9.45744,-2.0172 15.63328,8.7195 35.54256,17.7607 35.54256,16.1405 0,-1.1126 -9.8618,-12.0009 -24.97487,-27.5743 -7.47239,-7.7 -18.51105,-19.625 -24.53036,-26.5 -26.93067,-30.7591 -44.9705,-50.0949 -49.31604,-52.8589 -2.5733,-1.6368 -7.27151,-4.1933 -10.44045,-5.6812 -6.17006,-2.8969 -8.14159,-6.0641 -5.64634,-9.0707 1.84407,-2.2219 6.5652,-1.2647 15.06888,3.0554 l 6.9655,3.5387 17.55857,-17.2417 c 17.15775,-16.848 35.37741,-36.7238 43.76374,-47.7416 4.79392,-6.2982 11.55137,-17.27706 11.55137,-18.76758 0,-0.55328 -3.0375,-1.5676 -6.75,-2.25405 -8.25551,-1.52646 -11.82248,-3.23553 -12.54868,-6.01253 -0.67891,-2.59616 2.75363,-6.38897 5.00146,-5.5264 2.58455,0.99178 18.34004,3.56056 21.83857,3.56056 1.80365,0 8.17365,-2.20825 14.15555,-4.90722 5.98191,-2.69897 20.53475,-8.26834 32.33965,-12.37637 26.71675,-9.29727 47.83015,-17.7783 68.25985,-27.41924 27.224,-12.84729 51.3792,-19.86818 92.2816,-26.82237 36.2547,-6.164 70.0749,-8.80262 132.922,-10.3705 29.89762,-0.74587 32.39422,-0.94911 38.00002,-3.09347 13.9838,-5.34917 30.4391,-19.25015 35.7421,-30.19387 3.2441,-6.69471 5.7666,-15.83205 5.7359,-20.77706 -0.05,-8.12006 -7.4796,-17.30182 -18.0202,-22.27109 -28.3471,-13.36393 -76.12612,-16.62742 -150.45782,-10.27685 -9.9,0.84581 -30.825,2.64359 -46.5,3.99507 -15.675,1.35148 -39.975,3.39744 -54,4.54658 -55.1515,4.51886 -69.7714,7.50473 -118,24.09964 -52.46335,18.05202 -75.46107,27.06739 -98.39972,38.57381 -18.88252,9.4718 -47.42616,22.29294 -49.63066,22.29294 -2.62048,0 -37.25141,14.03184 -49.83513,20.19231 -17.85059,8.73891 -30.27679,19.55427 -37.98737,33.06298 -5.47523,9.59244 -12.01099,27.21582 -20.16455,54.37273 -20.47189,68.18538 -35.31301,108.35778 -60.72504,164.37198 -4.36658,9.625 -12.14454,26.95 -17.28436,38.5 -10.667,23.9705 -27.03402,56.5615 -35.37387,70.4387 -10.35099,17.2237 -21.46142,31.3655 -42.41078,53.9821 -21.39382,23.0965 -43.91061,38.3249 -71.68852,48.4837 -5.5,2.0114 -12.025,4.5567 -14.5,5.6561 -2.475,1.0994 -6.525,2.3448 -9,2.7676 l -4.5,0.7687 6.7541,4.2938 c 7.01752,4.4612 9.10976,7.761 6.73512,10.6223 -2.20044,2.6514 -5.70212,1.5997 -15.18238,-4.5599 -10.22346,-6.6424 -24.76273,-13.9531 -27.74947,-13.9531 -1.84472,0 -8.05737,4.5021 -8.05737,5.8389 0,1.1805 5.86349,0.6976 7.15,-0.5889 2.66747,-2.6675 6.43749,-1.2756 18.35,6.775 11.53498,7.7953 27.7631,22.4478 50.5,45.5966 41.91378,42.67313 59.7265,65.30273 73.10868,92.87843 8.9153,18.3711 12.92486,39.6543 9.90614,52.5828 -2.92276,12.5176 -12.05363,27.5337 -21.89705,36.0107 -2.81423,2.4236 -5.11701,4.744 -5.11728,5.1565 -7.9e-4,1.2116 3.79332,0.863 7.51046,-0.6901 z m -3.78869,-131.8099 c -1.30874,-1.7875 -4.56081,-6.4 -7.22682,-10.25 -10.84911,-15.6673 -28.72461,-35.869 -42.57372,-48.11413 -9.10248,-8.0482 -10.96799,-10.1735 -10.72088,-12.2139 0.46387,-3.8303 3.04984,-4.8998 7.13601,-2.9512 7.98521,3.8079 39.36758,36.95353 52.33848,55.27923 8.87866,12.544 10.74126,16.2903 9.47798,19.0629 -1.63755,3.594 -5.47541,3.224 -8.43105,-0.8129 z m 319.47774,-68.95003 c -1.71477,-1.7148 -1.48191,-4.2491 0.55,-5.9858 1.6596,-1.4186 17.33375,-4.5927 27.41619,-5.552 3.96669,-0.3774 4.83393,-0.1305 5.78518,1.6469 1.54947,2.8953 -0.11807,5.6608 -4.23194,7.0185 -10.52305,3.4729 -27.28763,5.1042 -29.51943,2.8724 z m -16.7,-21.3933 c -6.52216,-0.9143 -10.39016,-2.4853 -11.02223,-4.4767 -1.32203,-4.1654 0.48988,-4.6102 21.27469,-5.2233 20.45989,-0.6035 31.20496,-1.975 49.43553,-6.31 11.69153,-2.7801 15.53661,-2.8129 17.20603,-0.1467 1.36172,2.1748 -0.0367,4.7469 -3.48626,6.4126 -3.48354,1.6821 -24.10525,6.1364 -36.10257,7.7981 -11.01734,1.526 -32.35923,2.6393 -37.30519,1.946 z m 240.3561,-157.0548 c -4.9063,-0.6193 -7.549,-3.5357 -6.0952,-6.7264 l 1.0782,-2.3664 28.3304,-0.6618 c 15.5818,-0.364 30.8483,-0.9099 33.9255,-1.2131 4.3968,-0.4333 5.9494,-0.1969 7.25,1.1037 2.0844,2.0844 2.0722,2.7846 -0.095,5.4129 -1.3149,1.5947 -3.6149,2.3707 -9.25,3.1208 -8.151,1.085 -49.2357,2.0762 -55.1439,1.3303 z m 59.7153,-23.9233 c -2.0464,-2.0465 -1.987,-3.7425 0.2003,-5.722 1.8463,-1.6709 23.3089,-8.6851 28.9921,-9.475 5.5004,-0.7645 8.3127,3.6256 4.4862,7.003 -2.0956,1.8497 -26.1183,9.7654 -29.636,9.7654 -1.3591,0 -3.1783,-0.7071 -4.0426,-1.5714 z m -419.38686,-23.0448 c -2.82648,-2.5904 -3.39853,-4.1554 -5.62324,-15.3838 -1.93395,-9.7609 -6.5491,-41.5484 -6.55938,-45.1786 -0.004,-1.3903 3.20651,-3.8214 5.04646,-3.8214 3.36481,0 4.70845,4.1449 6.85179,21.1368 1.15421,9.1503 2.99884,21.0123 4.09919,26.3601 2.34429,11.3934 2.4947,15.4452 0.6662,17.9458 -1.26538,1.7305 -1.4973,1.6757 -4.48102,-1.0589 z m 51.65086,-12.4161 c -2.65864,-1.5516 -18.62182,-27.2776 -24.46102,-39.421 -11.02165,-22.9209 -22.37438,-64.7928 -22.37438,-82.5227 0,-6.7695 2.32484,-9.9909 5.84909,-8.1048 2.49485,1.3352 2.81319,2.3751 4.15775,13.5808 2.98046,24.8395 13.94735,60.706 24.4579,79.9878 2.49667,4.5802 7.63701,13.0276 11.42296,18.7719 8.22781,12.4838 8.90071,14.2116 6.54745,16.812 -1.93895,2.1425 -3.13582,2.334 -5.59975,0.896 z m 47.38711,-170.5244 c -2.37921,-1.6665 -2.99833,-5.8458 -1.04484,-7.0531 1.3916,-0.8601 24.57354,-1.5701 26.97995,-0.8264 4.52441,1.3983 2.62804,6.8462 -2.91939,8.3869 -5.9467,1.6515 -20.388,1.3331 -23.01572,-0.5074 z m 12.24709,-35.9012 c -8.9869,-1.63288 -15.23673,-4.76609 -16.06145,-8.05203 -1.44407,-5.75365 2.01962,-7.7693 7.97317,-4.6399 6.25616,3.28848 11.74225,4.09867 27.93442,4.12538 8.24931,0.0136 15.67302,0.48325 16.75,1.05963 2.62394,1.40429 2.46538,5.4794 -0.28825,7.40812 -2.80493,1.96465 -25.696,2.02694 -36.30789,0.0988 z m -45.44306,-30.73044 c -2.48577,-4.07715 -2.48982,-4.34838 -0.10075,-6.73745 3.68568,-3.68568 9.57553,0.691 8.89687,6.61115 -0.27034,2.35827 -0.84592,2.86517 -3.54986,3.1263 -2.7352,0.26414 -3.53502,-0.19323 -5.24626,-3 z m 177.75767,233.65014 c 28.76469,-5.8241 57.31059,-17.2803 94.71579,-38.0116 8.25,-4.5725 24.0435,-12.6584 35.0968,-17.9688 l 20.0967,-9.6553 8.6424,-30.663 c 10.4275,-36.9964 17.861,-65.991 20.5518,-80.1631 1.0964,-5.775 2.9352,-22.425 4.0862,-37 2.0149,-25.51565 4.068,-45.8504 6.0984,-60.39913 0.5295,-3.79452 0.7434,-7.11853 0.4752,-7.38669 -0.6775,-0.6775 -27.0012,3.3502 -45.0475,6.89256 -30.2216,5.93229 -49.094,12.01374 -74.9229,24.14321 -18.7166,8.78951 -43.8232,18.89313 -62.86385,25.29825 l -14.66017,4.93156 0.72346,4.01012 c 1.13729,6.304 0.71324,50.49062 -0.63829,66.51012 -1.85332,21.967 -4.01824,39.1118 -6.75561,53.5 -3.62872,19.0733 -15.36941,68.5526 -17.03216,71.7794 -1.60977,3.1239 -1.57232,3.2146 4.32789,10.4783 2.34892,2.8917 5.26554,6.9862 6.4814,9.0987 1.78158,3.0956 5.52478,6.5174 7.71459,7.0522 0.20589,0.05 6.01533,-1.0508 12.90985,-2.4468 z m -33.96641,-51.9618 c 9.61365,-39.9134 13.08526,-59.1779 15.76807,-87.5 1.72036,-18.1616 3.07946,-67.63996 2.01398,-73.31947 -0.78787,-4.1997 0.34907,-4.41301 -15.51492,2.91092 l -11.41507,5.26999 -3.82892,7.31928 c -7.75922,14.83236 -30.2868,41.42058 -56.2185,66.35188 -18.00948,17.3147 -17.1574,14.6254 -7.90829,24.9601 l 5.21415,5.8261 1.09174,-2.9094 c 0.60045,-1.6002 2.30409,-4.6819 3.78585,-6.8482 2.87739,-4.2068 26.50708,-23.6873 31.96917,-26.3556 3.11024,-1.5194 3.37972,-1.4953 5.35469,0.4797 1.41403,1.414 1.86864,2.7444 1.42041,4.1567 -0.36257,1.1423 -6.43162,6.5742 -13.48677,12.0708 -13.00654,10.1332 -20.05837,17.1666 -20.06955,20.0172 -0.003,0.8635 -0.67772,2.8576 -1.49851,4.4314 -1.46688,2.8126 -1.40482,2.9577 3.63699,8.5 2.82113,3.1012 5.41845,5.7546 5.77183,5.8964 0.35337,0.1418 1.16352,-3.0169 1.80032,-7.0193 1.49914,-9.4222 5.01123,-20.0562 7.50965,-22.738 2.24499,-2.4097 5.5727,-2.3125 7.15307,0.209 0.81224,1.2959 0.42796,3.7151 -1.58843,10 -3.25793,10.1546 -4.77876,18.3642 -4.77876,25.7962 0,5.4337 0.2086,5.8772 5.75,12.2244 11.71346,13.4168 31.7619,33.4636 32.37984,32.3772 0.34641,-0.609 2.90599,-10.5573 5.68796,-22.1073 z m 274.2506,-223.18545 c 2.9667,-5.602 5.1181,-10.4614 4.7808,-10.79867 -0.3373,-0.33727 -1.6788,-0.3402 -2.9812,-0.007 -2.3911,0.61263 -2.3201,0.43871 -9.6016,23.49064 -0.9114,2.88521 2.4526,-2.58441 7.802,-12.68545 z m 200.79012,-11.40614 c 11.5819,-6.64157 16.7749,-14.67953 14.4269,-22.33023 -1.3393,-4.36378 -14.4723,-24.91586 -24.5182,-38.36899 -16.0898,-21.54691 -39.337,-45.41908 -53.1744,-54.60382 -14.0013,-9.29354 -29.2742,-11.384 -45.0928,-6.17202 -7.8094,2.57306 -28.136,12.4149 -25.8494,12.51585 0.6329,0.0279 6.4829,0.95986 13,2.07094 25.5038,4.34799 42.2684,10.60609 52.1056,19.45056 5.3762,4.83371 10.2438,13.16552 10.2438,17.53432 0,1.63472 2.6359,6.30711 7.0434,12.48523 3.8739,5.43009 10.4737,15.30368 14.6662,21.94132 18.2512,28.89568 25.6998,38.57659 29.6678,38.55905 1.1674,-0.005 4.5339,-1.39216 7.4811,-3.08221 z m -622.04918,-7.31301 c 7.52986,-2.97254 17.29066,-6.62787 21.69066,-8.12297 4.4,-1.4951 20.46509,-8.73803 35.70021,-16.0954 15.23511,-7.35737 28.17261,-13.37703 28.75,-13.37703 0.57738,0 1.94979,-0.9 3.04979,-2 3.4635,-3.4635 2.18298,-17.61455 -2.98105,-32.94375 -2.39088,-7.09721 -2.54551,-10.37436 -0.56699,-12.01638 2.04233,-1.69498 4.52827,-0.96283 6.65546,1.96013 2.50231,3.43843 6.63594,18.34573 8.06655,29.09079 0.66844,5.02057 1.65317,8.88004 2.2561,8.84238 0.58846,-0.0368 6.00946,-1.96341 12.04666,-4.28144 l 10.97673,-4.2146 0.12776,-3.96856 c 0.0703,-2.18272 0.68405,-11.79722 1.36396,-21.36557 0.95434,-13.43022 0.98002,-23.2537 0.11265,-43.08256 -0.61796,-14.12705 -0.83414,-26.43979 -0.4804,-27.36163 0.35375,-0.92184 1.75662,-1.95553 3.11751,-2.29709 4.38367,-1.10023 5.59428,1.41615 6.427,13.35918 1.11305,15.96382 1.01353,61.4534 -0.15681,71.6691 -0.56016,4.8895 -0.89051,9.01796 -0.73412,9.17435 0.15639,0.15639 7.61535,-2.26911 16.57547,-5.39 l 16.29113,-5.67435 5.80637,-13.5 c 13.69132,-31.83275 28.96262,-62.69588 39.25262,-79.32921 2.6639,-4.30606 4.8434,-8.17012 4.8434,-8.5868 0,-0.41667 -3.1619,-2.93769 -7.0265,-5.60226 -7.2225,-4.97982 -9.2706,-8.21391 -6.9627,-10.99472 2.2138,-2.66748 5.9168,-1.58275 14.0484,4.11522 l 7.995,5.60223 8.2229,-1.60808 c 16.3094,-3.18949 56.8216,-6.56483 79.0562,-6.58671 7.4765,-0.007 9.7079,-0.30927 9.3097,-1.25967 -0.288,-0.6875 -1.2518,-3.59301 -2.1417,-6.45668 -1.8531,-5.96302 -0.8837,-9.29332 2.7051,-9.29332 2.4773,0 5.7936,2.68361 5.7936,4.68823 0,0.75804 1.0919,3.53294 2.4264,6.16644 2.0048,3.95646 3.5247,5.36753 8.75,8.12356 12.4746,6.57968 33.7848,19.06153 44.9517,26.32916 28.1132,18.29661 35.609,21.18401 53.2423,20.50905 9.9759,-0.38185 11.941,-0.77366 17.9254,-3.5741 15.7034,-7.34851 27.66072,-24.57269 24.64382,-35.49887 -2.2306,-8.07879 -15.47572,-22.87962 -43.38582,-48.48205 -25.3579,-23.26114 -35.6735,-30.83153 -52.7534,-38.71427 -14.9483,-6.89901 -21.2267,-7.68069 -81.3004,-10.12214 -41.6268,-1.69174 -61.9143,-1.43776 -86.5367,1.0834 -23.013,2.35636 -34.21123,5.22437 -50.64151,12.96994 -12.40322,5.84712 -17.11349,9.20523 -28.67549,20.44369 -16.8124,16.34194 -23.89373,27.44831 -52.65104,82.57796 -18.551,35.5635 -26.81183,50.51994 -34.63601,62.70937 -2.57385,4.00985 -10.7363,17.19063 -18.13878,29.29063 -16.87966,27.59127 -25.69793,40.71796 -37.78771,56.25 -5.24432,6.7375 -9.26039,12.25 -8.9246,12.25 0.33579,0 6.77132,-2.43207 14.30118,-5.4046 z m 104.44411,-108.4176 c -1.57979,-1.00318 -4.56856,-10.91424 -3.85335,-12.77806 0.82907,-2.16052 4.38853,-1.65635 6.00287,0.85026 2.18782,3.39706 3.04855,9.50102 1.58793,11.26096 -1.39999,1.68689 -1.97074,1.78872 -3.73745,0.66684 z m 95.24655,30.34978 c 8.25,-2.36579 18.2625,-4.87438 22.25,-5.57466 3.9875,-0.70027 7.25,-1.55766 7.25,-1.9053 0,-1.68142 -22.1139,-13.11441 -29.7519,-15.38185 l -5.2519,-1.5591 -1.388,2.69667 c -2.92872,5.69021 -11.6082,25.42449 -11.6082,26.39329 0,0.56604 0.77632,0.71015 1.75,0.32486 0.9625,-0.38086 8.5,-2.62812 16.75,-4.99391 z m 60.6546,-10.98435 c 7.34,-0.80123 25.4954,-2.37275 40.3454,-3.49228 14.85,-1.11952 28.4906,-2.28963 30.3124,-2.60024 l 3.3124,-0.56474 -2.8124,-2.14165 c -1.5468,-1.17791 -9.5624,-8.02834 -17.8124,-15.22317 -8.25,-7.19484 -16.5531,-14.35258 -18.4512,-15.90609 l -3.4512,-2.82458 -22.5488,0.65021 c -12.4019,0.35761 -30.5212,1.10367 -40.2652,1.6579 -12.1857,0.69312 -18.3215,0.6839 -19.6546,-0.0295 -1.7438,-0.93325 -2.398,-0.11587 -6.5262,8.15413 -2.5236,5.05525 -4.254,9.48304 -3.8455,9.83954 0.4085,0.3565 3.2177,1.42942 6.2427,2.38427 7.632,2.40905 19.1892,8.55852 29.117,15.49277 4.6106,3.22042 9.3526,5.90142 10.5376,5.95777 1.1851,0.0563 8.1601,-0.55309 15.5,-1.35431 z m 122.8454,-10.51653 c 12.925,-1.06317 29.4537,-2.24208 36.7305,-2.61981 l 13.2305,-0.68677 2.0933,-5.59482 c 1.1513,-3.07715 2.1726,-8.07205 2.2695,-11.09977 l 0.1762,-5.50496 -7.2555,-0.73395 c -14.9758,-1.51493 -23.9307,-5.40722 -47.6321,-20.70355 -15.0976,-9.74368 -28.5862,-17.71625 -44.6124,-26.36852 -6.0643,-3.27399 -8.9523,-4.33371 -10.0784,-3.69811 -0.8682,0.49 -12.3432,1.37617 -25.5,1.96928 -23.7346,1.06994 -48.9329,3.15341 -61.4216,5.07852 -10.9724,1.69137 -12.8299,2.62834 -16.4327,8.28926 -5.4068,8.49512 -12.7434,21.80378 -12.2769,22.27027 0.4291,0.42902 39.3654,-0.98456 61.5192,-2.23345 9.9129,-0.55883 11.2262,-0.8384 10.6347,-2.26394 -1.5067,-3.63135 -2.0976,-7.83127 -1.3762,-9.78136 1.8602,-5.02878 8.2111,-3.00097 9.3331,2.98006 0.3548,1.89134 1.9466,5.23543 3.5373,7.43132 3.4172,4.71737 36.1236,33.83595 44.1018,39.26393 3.0471,2.07315 6.1684,4.52615 6.936,5.45111 1.1264,1.35722 2.4695,1.5666 6.9597,1.08503 3.0602,-0.32821 16.139,-1.4666 29.064,-2.52977 z M 1552.4677,1451.7125 c -43.0454,-3.2519 -144.8151,-26.5626 -219.5318,-50.2845 -47.9297,-15.2172 -80.9286,-23.4323 -122.4682,-30.4886 -46.5279,-7.9036 -86.7824,-11.0589 -141.5589,-11.096 -28.039,-0.019 -30.5898,-0.4109 -29.7876,-4.5765 0.6719,-3.4888 5.3225,-4.651 20.7295,-5.1804 17.5374,-0.6026 66.8236,1.1795 91.117,3.2946 58.8052,5.1199 119.6665,17.935 185,38.954 24.5233,7.8896 61.2739,18.0371 99.5,27.4738 71.5885,17.6725 111.9254,23.9252 146.5,22.7091 57.0519,-2.0066 105.4204,-18.4155 155,-52.5834 35.4005,-24.3964 67.03,-50.8203 86.8457,-72.5529 7.9686,-8.7395 11.0689,-10.702 13.5946,-8.6059 4.1371,3.4335 -0.1603,9.822 -18.552,27.5798 -29.8868,28.8565 -79.03,65.7091 -109.2135,81.8993 -47.5201,25.4895 -103.8698,37.4846 -157.1748,33.4576 z m -158.5,-333.6002 c -0.825,-0.3053 -5.9892,-3.0234 -11.4761,-6.0402 -9.3118,-5.1198 -10.1898,-5.4077 -13.1865,-4.3241 -2.9996,1.0847 -4.7541,0.5035 -26.7249,-8.8537 -63.6611,-27.1127 -116.8406,-42.4992 -164.1125,-47.4829 -41.0703,-4.3298 -92.6042,-4.6637 -114.5,-0.7419 -23.5916,4.2257 -44.7455,12.3649 -59.5,22.8935 -3.85,2.7473 -11.05002,8.7994 -16.00002,13.4491 -4.95,4.6497 -9.7358,8.7259 -10.6352,9.0582 -2.3884,0.8825 -5.8648,-1.9657 -5.8648,-4.8049 0,-2.8828 2.8276,-5.8205 26.5,-27.5315 42.05242,-38.5681 54.50722,-48.1207 80.62942,-61.8409 14.377,-7.55133 23.1399,-10.59723 37.72,-13.11093 30.0377,-5.1787 63.5949,0.5812 106.7671,18.32603 30.6836,12.6118 56.4594,27.4805 98.8835,57.0409 23.4042,16.3076 33.9136,22.8268 57,35.3581 21.8775,11.875 23.9525,13.7229 19.9286,17.7469 -1.6219,1.6218 -2.8438,1.815 -5.4286,0.8583 z m -72.6153,-42.9144 c -42.8782,-29.7315 -50.1914,-34.2955 -75.8847,-47.3583 -33.8193,-17.1942 -66.0578,-27.6789 -95.2896,-30.99043 -11.4893,-1.3015 -28.5675,0.1172 -41.7907,3.47153 -19.6784,4.9918 -47.7412,21.4411 -71.7193,42.0387 -4.2898,3.6851 -7.649,6.8508 -7.4648,7.0349 0.1842,0.1842 4.594,-1.0009 9.7996,-2.6336 30.389,-9.531 67.6542,-11.2089 130.9648,-5.8966 44.0897,3.6994 95.4622,16.7732 148.5,37.7917 8.25,3.2694 15.3981,5.9951 15.8847,6.057 0.4865,0.062 -5.3635,-4.2198 -13,-9.5149 z m -187.1999,30.5653 c -17.4539,-0.7584 -25.1701,-1.3833 -61.6848,-4.9953 -22.2385,-2.1998 -26.0918,-3.0809 -27.0793,-6.1922 -1.1572,-3.6463 3.0025,-6.1016 9.076,-5.3573 14.7183,1.8037 58.4543,5.6856 75.0033,6.6571 10.45,0.6135 34.3998,0.9657 53.2219,0.7827 33.9574,-0.3302 34.2386,-0.3161 36.3838,1.8288 l 2.162,2.1616 -2.4232,2.4232 c -2.2953,2.2953 -3.2651,2.458 -18.3838,3.085 -18.9018,0.7839 -42.387,0.6444 -66.2759,-0.3936 z m 896.7428,-29.7954 c -3.2466,-2.6289 -1.8832,-5.1505 6.3649,-11.7717 22.9364,-18.4123 35.2809,-36.2208 49.4726,-71.37073 13.025,-32.2603 17.6437,-57.2436 19.2308,-104.0235 1.6328,-48.1276 5.1436,-74.0544 12.4687,-92.0816 1.3926,-3.4273 2.3124,-6.4512 2.0439,-6.7197 -0.7986,-0.7987 -8.4992,3.0043 -16.0639,7.9332 -8.4184,5.4853 -23.9357,20.0833 -33.8997,31.8916 -3.9448,4.675 -13.1675,16.375 -20.4949,26 -13.247,17.4009 -22.2671,28.1496 -31.2524,37.2417 -5.254,5.3165 -10.1043,6.5182 -11.2856,2.7961 -0.8961,-2.8233 0.3661,-4.6923 11.6594,-17.2654 5.5687,-6.1998 14.1916,-16.6724 19.1621,-23.2724 17.835,-23.6824 28.1897,-36.169 38.5933,-46.5392 24.0981,-24.0208 41.599,-32.4885 69.5732,-33.6627 12.2155,-0.5128 13.111,-0.4219 14.8401,1.5064 2.338,2.6073 1.4018,5.9629 -2.0273,7.2667 -1.8699,0.7109 -2.3295,1.4025 -1.7895,2.6927 2.761,6.5971 4.7363,15.2843 5.6509,24.852 1.7354,18.1533 -0.7774,36.718 -9.1581,67.6631 -7.4074,27.351 -11.5528,35.9872 -16.3838,34.1334 -3.1147,-1.1952 -2.8379,-4.9347 1.2595,-17.0156 5.2005,-15.3331 12.5907,-45.3641 14.0015,-56.8968 2.4224,-19.801 0.9275,-36.7878 -4.2112,-47.851 l -3.1821,-6.851 -6.6589,0.5995 c -7.6953,0.6928 -11.7677,1.9118 -10.0121,2.9968 1.8245,1.1276 1.4148,4.075 -1.8533,13.3342 -6.7426,19.1033 -9.5105,39.9207 -11.0053,82.7715 -1.3136,37.6577 -3.2489,54.2782 -9.0304,77.5521 -7.0856,28.5239 -22.0055,62.82103 -35.1351,80.76683 -8.4518,11.552 -29.7489,31.6885 -36.0478,34.0833 -2.0952,0.7966 -3.1033,0.638 -4.8295,-0.7598 z m -68.3339,-8.0389 c -0.944,-1.0431 -2.1297,-4.7556 -2.6349,-8.25 -3.0177,-20.8726 1.1922,-36.2214 15.9804,-58.2629 14.9938,-22.34793 15.9775,-28.63093 7.2764,-46.47503 -2.0134,-4.1289 -5.3606,-9.7695 -7.4382,-12.5345 -2.0776,-2.765 -3.7774,-6.0361 -3.7774,-7.269 0,-3.0142 3.4925,-4.8644 6.5515,-3.4706 3.0154,1.3739 9.6725,11.2709 14.8248,22.0397 4.0225,8.4074 4.1237,8.8764 4.1237,19.1188 0,12.7303 -0.7459,14.617 -13.2102,33.41303 -8.2425,12.4298 -13.2428,22.8459 -14.6833,30.587 l -0.6513,3.5 2.9168,-3.5336 c 4.287,-5.1935 11.1989,-8.4918 26.1204,-12.4644 7.3157,-1.9477 15.8985,-4.9255 19.0729,-6.6175 10.8118,-5.7626 21.0073,-18.31103 29.5442,-36.36233 9.1587,-19.3661 13.5719,-41.2712 13.7619,-68.3085 0.106,-15.0677 0.3926,-18.4531 1.6286,-19.2346 2.2678,-1.434 3.5027,-1.1859 5.595,1.124 1.6581,1.8304 1.9497,4.0524 2.2495,17.1402 0.7933,34.6242 -8.539,68.1293 -26.0195,93.41573 -9.9498,14.393 -22.1866,22.9532 -38.325,26.8104 -18.4694,4.4143 -20.6686,5.3606 -26.2357,11.289 -4.9638,5.286 -5.3742,5.5126 -7.901,4.3613 l -2.6652,-1.2144 0.6729,9.5721 c 0.7175,10.2069 -0.08,13.5226 -3.2512,13.5226 -0.9954,0 -2.5822,-0.8534 -3.5261,-1.8965 z M 1285.7701,902.87627 c -2.0337,-0.3954 -4.3962,-1.2988 -5.25,-2.0074 -1.7948,-1.4896 -2.0707,-5.6052 -0.4431,-6.6111 0.6102,-0.3771 6.7977,-0.7629 13.75,-0.8574 10.8068,-0.1468 13.399,-0.5076 17.8677,-2.4867 6.6047,-2.9249 12.5438,-9.329 16.6085,-17.9087 3.0323,-6.4006 3.1637,-7.2017 3.1461,-19.1796 -0.013,-9.0284 -0.513,-14.1664 -1.799,-18.5 -5.2353,-17.6417 -12.5801,-30.8775 -23.9326,-43.1285 -4.2625,-4.5998 -7.75,-9.008 -7.75,-9.796 0,-2.0146 2.7933,-4.5755 4.9908,-4.5755 5.326,0 21.5164,20.2697 29.0766,36.4027 8.3309,17.7777 11.8567,39.4768 8.5465,52.5973 -3.9232,15.5495 -13.9336,28.731 -24.9491,32.8525 -9.4631,3.5405 -21.483,4.828 -29.8624,3.1984 z m -193.3024,-15.4369 c -12.3518,-3.0037 -26.1598,-14.3236 -31.4572,-25.7887 -3.3724,-7.2989 -6.0583,-19.3845 -6.0079,-27.0331 0.056,-8.4818 2.5774,-20.3708 5.7432,-27.0792 3.1568,-6.6895 11.7581,-18.713 13.3868,-18.713 0.638,0 0.7564,-3.5011 0.3299,-9.75 -0.8087,-11.8475 0.4377,-20.3576 4.8999,-33.4548 4.0584,-11.9122 8.2839,-19.162 16.1053,-27.6329 5.5654,-6.0275 18.0226,-15.2412 22.5488,-16.6778 1.0779,-0.3421 1.9512,-1.5142 1.9512,-2.6188 0,-2.1259 14.3075,-30.3989 25.4875,-50.3657 3.6955,-6.6 12.8889,-21.45 20.4298,-33 7.5409,-11.55 15.786,-24.3827 18.3226,-28.5171 l 4.6119,-7.5171 -1.4123,-8.1382 c -1.8593,-10.7144 -5.0058,-20.45146 -12.8038,-39.62282 -6.4907,-15.95709 -7,-18.90426 -3.5832,-20.73286 4.269,-2.2847 5.2157,-0.86867 13.8063,20.65091 6.7633,16.94184 10.6287,28.74927 11.6528,35.59497 0.3882,2.5948 1.3319,5.2374 2.0971,5.8724 3.7382,3.1025 0.1987,9.8763 -26.6025,50.9098 -18.454,28.2538 -42.8867,72.7012 -39.3899,71.6573 5.8989,-1.761 7.5156,-1.8009 9.891,-0.2445 4.9555,3.247 2.35,6.3944 -8.2887,10.0128 -19.8278,6.7439 -33.2387,17.2641 -40.8874,32.0744 -5.9364,11.4948 -8.4057,20.2774 -9.0573,32.215 -0.4716,8.6395 -0.2007,11.5993 1.7563,19.1902 1.9148,7.4269 2.0906,9.2443 1.0194,10.535 -1.6479,1.9856 -4.9055,2.0002 -7.0807,0.032 -1.537,-1.391 -1.9107,-1.2339 -4.1625,1.75 -8.395,11.1239 -11.2685,21.0444 -10.508,36.2781 0.6972,13.9646 3.2812,20.9084 10.7532,28.896 7.9456,8.4939 14.7589,11.8409 25.5644,12.5584 8.924,0.5925 10.7401,1.5088 10.2187,5.1552 -0.6618,4.6274 -8.7147,6.087 -19.3347,3.5044 z m 135.7618,-14.0821 c -12.7348,-5.9754 -23.225,-18.2837 -23.252,-27.2819 -0.01,-1.7875 -0.4297,-3.25 -0.9429,-3.25 -2.724,0 -11.1848,13.4722 -12.5603,20 -0.9405,4.463 -2.2031,6 -4.929,6 -7.4131,0 -5.6035,-12.2029 3.7542,-25.3165 11.2891,-15.8202 25.0306,-21.3373 39.4749,-15.849 10.5607,4.0128 41.9849,23.7522 46.6631,29.3119 3.2478,3.8598 3.2286,7.8702 -0.056,11.7741 -3.0922,3.675 -9.1016,5.6083 -21.9134,7.0502 -14.7759,1.6629 -18.1686,1.3476 -26.2382,-2.4388 z m 34.9882,-8.5531 c 2.6125,-0.6689 4.75,-1.5999 4.75,-2.0687 0,-2.6861 -34.541,-23.7102 -43.7104,-26.6053 -4.3913,-1.3865 -5.8602,-1.4504 -9.3434,-0.4068 -3.7522,1.1242 -3.9982,1.3931 -2.671,2.9201 0.804,0.925 1.7117,3.6581 2.0171,6.0735 0.7587,5.9992 5.0811,11.6337 13.3435,17.3937 l 6.8642,4.7852 12,-0.4378 c 6.6,-0.2407 14.1375,-0.985 16.75,-1.6539 z m -125.8651,8.8592 c -1.5867,-1.189 -5.1589,-4.3487 -7.9381,-7.0215 -5.0148,-4.8225 -5.0763,-4.848 -8.0815,-3.3488 -2.6875,1.3406 -3.6681,1.344 -8.7136,0.03 -18.7098,-4.8733 -27.5547,-16.5011 -23.543,-30.9506 1.9556,-7.0439 9.5113,-12.5454 13.4341,-9.7816 0.5735,0.4041 3.2069,3.4347 5.852,6.7347 9.811,12.2402 24.2954,27.7699 31.8351,34.1325 4.2735,3.6064 7.7701,7.1573 7.7701,7.8909 0,2.0822 -2.9079,4.4766 -5.4366,4.4766 -1.2615,0 -3.5919,-0.9729 -5.1785,-2.162 z m -23.0515,-22.2035 c -6.1725,-7.9641 -14.8207,-17.4514 -15.5161,-17.0216 -1.6667,1.0301 -0.8481,9.0782 1.1864,11.6646 2.2054,2.8038 11.2983,7.7225 14.2761,7.7225 1.8342,0 1.8357,-0.066 0.054,-2.3655 z m -40.4126,-140.2299 c -1.6696,-2.0117 -1.0066,-3.1157 9.0792,-15.1208 28.0084,-33.3381 61.027,-80.609 64.1522,-91.8432 0.642,-2.3077 0.8602,-7.4628 0.5268,-12.4406 -0.9984,-14.9029 -6.9333,-28.5972 -24.7027,-57 -14.7279,-23.54099 -35.3606,-57.85151 -38.4206,-63.88999 -2.9818,-5.88432 -2.2965,-9.11001 1.9354,-9.11001 1.9525,0 3.2322,1.40219 6.6165,7.25 7.6497,13.2181 28.1598,47.02716 37.7637,62.25 16.4281,26.0398 22.969,40.768 25.1527,56.6361 1.6275,11.8275 0.062,19.2703 -6.4935,30.8639 -8.1865,14.479 -26.2173,40.1952 -44.5239,63.5018 -23.6143,30.0641 -27.2876,33.4794 -31.0858,28.9028 z m 369.8166,-20.7128 c -22.516,-11.6499 -50.6874,-34.1333 -56.3741,-44.9918 -1.6354,-3.1227 -1.0883,-6.2078 1.2607,-7.1092 2.2471,-0.8623 4.0605,0.4565 8.237,5.9907 3.9902,5.2872 23.0394,21.4019 33.9622,28.7303 3.6819,2.4702 11.5278,7.0496 17.4355,10.1764 9.0504,4.7901 10.7413,6.0594 10.7413,8.0632 0,2.0178 -2.4239,4.4486 -4.4359,4.4486 -0.3121,0 -5.1841,-2.3887 -10.8267,-5.3082 z m -521.49912,-39.8535 c -2.0547,-2.0547 -1.4339,-5.011 2.7841,-13.259 5.3081,-10.3794 10.4902,-17.5577 18.628,-25.8036 6.9445,-7.0368 10.3864,-8.4439 12.2296,-4.9999 1.2878,2.4063 0.078,4.4163 -7.3602,12.2242 -7.0785,7.4307 -11.7931,14.2742 -17.223,25 -3.8636,7.632 -6.3716,9.5252 -9.0585,6.8383 z m 594.26172,0.4858 c -16.4727,-1.3989 -30.9253,-4.2526 -43,-8.4904 -10.0142,-3.5147 -37.659,-17.4243 -43.3133,-21.7933 l -5.3134,-4.1056 -1.6993,2.0986 c -1.4382,1.7761 -3.1571,2.1848 -11.1866,2.6601 -17.0558,1.0094 -26.9874,-2.9183 -26.9874,-10.6728 0,-2.6185 1.7658,-4.9821 10.75,-14.3894 5.9125,-6.1909 13.6207,-14.8281 17.1293,-19.1938 5.1266,-6.3789 3.0648,-4.576 -10.5,9.1818 -18.3905,18.652 -24.1604,23.3807 -28.5293,23.3807 -2.5948,0 -6.8168,-2.9179 -6.873,-4.75 -0.013,-0.4125 -0.9374,-6.6 -2.0551,-13.75 -1.1177,-7.15 -2.2934,-20.4944 -2.6126,-29.6543 -0.8506,-24.4088 1.5173,-41.08241 8.5543,-60.23555 3.9167,-10.66014 6.4162,-13.60112 9.9517,-11.709 3.2335,1.7305 3.264,3.76553 0.1768,11.7829 -6.6954,17.38757 -9.1639,31.52686 -9.221,52.81595 -0.04,15.0704 2.6158,41.0667 4.3924,42.9887 0.579,0.6264 9.2383,-7.4782 23.6252,-22.1117 27.9837,-28.46309 38.2191,-36.33775 52.8889,-40.69008 7.3223,-2.17243 37.3685,-3.24523 48.2477,-1.72269 16.9878,2.37745 28.8433,7.25798 50.8554,20.93552 31.6252,19.65075 51.3618,37.46725 67.1313,60.60025 9.7928,14.3655 13.2862,20.9163 12.9087,24.2061 -0.3093,2.6943 -0.5346,2.7989 -6.3207,2.9329 -3.3,0.077 -12.075,1.2817 -19.5,2.6783 -29.014,5.4575 -69.9793,8.6646 -89.5,7.0068 z m 44.5,-10.8591 c 18.2829,-1.5917 56.063,-6.8671 57.837,-8.076 0.1854,-0.1263 -2.2594,-4.1722 -5.4327,-8.9909 -11.368,-17.2621 -24.3917,-31.0981 -41.9043,-44.5178 -7.7126,-5.91 -27.6599,-19.0537 -28.1591,-18.5545 -0.2103,0.2103 0.1304,2.7734 0.7571,5.6958 1.7572,8.1932 0.7385,19.4714 -2.3723,26.2664 -6.9998,15.2895 -27.545,26.6537 -48.2656,26.6972 -13.4384,0.028 -24.442,-4.2303 -33.9765,-13.1494 -8.1124,-7.5888 -11.8538,-15.4633 -11.8783,-25.0002 -0.015,-5.8467 0.5043,-7.7167 4.2323,-15.24 2.5491,-5.1443 6.4756,-10.98017 9.8136,-14.58553 3.0603,-3.30554 5.0176,-6.01007 4.3495,-6.01007 -3.1524,0 -14.2444,6.50632 -21.0007,12.31853 -7.784,6.69637 -11.1957,10.39077 -29.7182,32.18147 -6.0776,7.15 -12.8837,14.7606 -15.1246,16.9125 -2.2409,2.1519 -3.8414,4.2894 -3.5568,4.75 0.5975,0.9667 21.3996,1.1604 21.3996,0.1993 0,-0.351 -1.8,-2.5909 -4,-4.9776 -4.2825,-4.646 -4.9397,-7.3016 -2.4286,-9.8128 2.6305,-2.6304 4.3096,-1.8474 11.2542,5.2482 9.563,9.771 17.3066,15.1124 32.9301,22.7146 20.7053,10.0749 37.9499,15.1765 56.7443,16.7869 10.5978,0.908 32.7229,0.5175 48.5,-0.8561 z m -58.5876,-31.9641 c 17.9776,-3.8086 30.183,-13.8927 32.6809,-27.0009 1.0146,-5.3244 -0.4981,-16.8342 -3.1407,-23.89721 -2.002,-5.35074 -2.4913,-5.8666 -7.7943,-8.21689 -7.3202,-3.24428 -17.7747,-6.13005 -25.2869,-6.97996 -5.0958,-0.57653 -6.2763,-0.38998 -8.1643,1.29015 -1.2139,1.08027 -4.0285,2.48135 -6.2547,3.11352 -12.8669,3.65381 -27.4524,22.26609 -27.4524,35.03159 0,8.0274 7.6798,18.3343 17.3887,23.3372 3.9612,2.0411 14.0896,4.6124 18.6113,4.7247 1.375,0.034 5.6106,-0.5968 9.4124,-1.4022 z m -11.962,-24.9075 c -3.8385,-1.672 -8.0849,-6.6529 -8.9224,-10.4659 -0.6955,-3.1668 1.3744,-9.232 4.2601,-12.4826 2.8406,-3.19975 11.2979,-6.6245 16.3852,-6.63513 8.7452,-0.0183 14.5595,8.26343 11.9399,17.00683 -3.2008,10.6831 -14.3751,16.6223 -23.6628,12.5768 z m -494.97302,34.5362 c -11.1064,-2.0217 -16.1415,-3.4774 -21.7128,-6.2778 -5.6554,-2.8426 -7.2296,-5.9931 -7.3946,-14.799 -0.078,-4.154 -0.4179,-8.3403 -0.7558,-9.3028 -0.3378,-0.9625 -0.8279,-2.4323 -1.0891,-3.2663 -1.2158,-3.8821 1.523,-21.7706 4.4537,-29.08965 5.5816,-13.93949 17.9718,-30.09409 28.8387,-37.60063 5.63912,-3.89527 17.71512,-8.25354 28.81012,-10.39764 11.6693,-2.25508 33.1313,-2.27275 43.3724,-0.0357 4.125,0.90105 7.9142,1.63865 8.4204,1.6391 0.5062,4.5e-4 -1.9688,-2.57002 -5.5,-5.71216 -12.0151,-10.69124 -26.1097,-24.77513 -29.0853,-29.06328 -3.7842,-5.45343 -3.5165,-8.60859 0.7657,-9.02597 2.4727,-0.24101 3.471,0.26538 4.9286,2.5 3.2585,4.99552 12.5865,14.22887 31.9473,31.62313 22.897,20.57138 29.8623,27.95607 39.3205,41.68796 3.9743,5.77013 8.6164,12.35555 10.3157,14.63428 3.2681,4.38236 3.3222,7.59216 0.1485,8.81006 -2.7876,1.0697 -6.2115,-2.4615 -16.3124,-16.82392 -12.3481,-17.55762 -14.7407,-19.9673 -24.449,-24.62312 -13.838,-6.63633 -23.3476,-8.52015 -42.5,-8.41911 -14.3782,0.0759 -17.7331,0.41683 -26.089,2.65155 -12.4541,3.33077 -18.9477,6.70482 -26.22732,13.62759 -7.0255,6.68121 -12.5373,14.51218 -17.3557,24.65846 -4.4757,9.42455 -3.8955,11.55445 0.9909,3.63774 7.5068,-12.16193 22.89012,-24.57014 36.32882,-29.30284 26.6461,-9.38398 50.2257,-5.55731 71.8276,11.65667 9.6348,7.67776 33.9626,30.91288 44.4372,42.44138 l 8.7932,9.6778 0.7226,7.3341 c 0.6918,7.0206 0.6117,7.4451 -1.8752,9.9319 -2.1043,2.1044 -3.4511,2.5649 -7.0891,2.4241 -5.9433,-0.23 -11.8697,-3.1612 -12.2836,-6.0755 -0.1757,-1.2375 -0.5492,-2.25 -0.83,-2.25 -0.2808,0 -4.2003,1.3023 -8.71,2.8941 -9.2391,3.261 -22.9874,6.2904 -42.1404,9.2855 -19.0533,2.9795 -59.0167,3.4994 -73.02262,0.95 z m 63.52262,-9.5385 c 26.9758,-3.375 46.1768,-7.8068 54.7254,-12.6314 2.8844,-1.6278 6.1353,-2.9597 7.2243,-2.9597 2.6649,0 4.296,3.2236 3.1526,6.2309 -0.8314,2.1867 -0.5777,2.4361 3.4218,3.364 4.0261,0.9341 4.348,0.8543 4.7357,-1.1738 0.313,-1.637 -1.8355,-4.6595 -8.6719,-12.1998 -8.9383,-9.8587 -33.5337,-33.60887 -34.1582,-32.98438 -0.1755,0.17558 0.099,2.1066 0.6107,4.29118 1.2044,5.1445 -0.4076,13.4225 -3.8629,19.837 -3.617,6.7148 -11.928,14.8765 -18.3461,18.0165 -5.7366,2.8067 -17.0916,5.5837 -22.8314,5.5837 -1.925,0 -6.6421,-0.6656 -10.4826,-1.4791 -27.4511,-5.8148 -41.14222,-29.4763 -30.0595,-51.94998 1.3463,-2.73008 2.2956,-5.11603 2.1095,-5.30212 -0.7876,-0.78766 -12.86472,10.24544 -16.53252,15.1035 -5.1463,6.8162 -10.2043,17.8257 -13.3979,29.1624 -2.3194,8.2332 -2.4053,9.1988 -1.0084,11.3335 0.8398,1.2835 2.9545,2.9222 4.6992,3.6417 4.4963,1.8541 16.7884,4.4376 26.17222,5.5007 10.362,1.1739 37.842,0.4491 52.5,-1.3848 z m 3.4743,-18.5038 c 14.0263,-6.9052 21.601,-21.4366 16.7781,-32.1873 -2.3934,-5.33519 -12.5432,-17.89565 -15.9318,-19.71572 -3.0773,-1.65287 -14.6644,-4.14392 -19.3825,-4.16692 -2.7338,-0.0133 -4.0386,0.62206 -5.6117,2.73264 -1.1721,1.57266 -4.152,3.4822 -6.9603,4.46026 -7.1799,2.50055 -15.4935,8.68794 -18.1556,13.51222 -5.1619,9.35452 -3.8289,19.56392 3.59,27.49532 8.1646,8.7287 16.6711,11.9019 30.4764,11.369 7.4236,-0.2865 9.767,-0.8262 15.1974,-3.4995 z m -24.5741,-19.221 c -6.9091,-4.007 -8.8947,-11.64007 -4.6502,-17.87647 3.1758,-4.66628 6.7632,-7.04778 11.5918,-7.69544 3.494,-0.46864 4.8421,-0.0927 8.3295,2.32324 7.395,5.12284 9.6916,11.87933 6.2802,18.47627 -3.4829,6.735 -14.1097,9.0883 -21.5513,4.7724 z m 608.3214,42.2918 c -0.7031,-0.4462 -3.2502,-5.6496 -5.6602,-11.5633 -10.6827,-26.2125 -29.1451,-48.3903 -52.2904,-62.81347 -10.4027,-6.48252 -28.9858,-14.14687 -45.7453,-18.86705 -16.1894,-4.55961 -19.4478,-6.95354 -14.1707,-10.4112 2.1716,-1.42291 3.2809,-1.30447 14.25,1.52148 14.8556,3.82723 34.7878,11.72384 46.4117,18.38712 26.9702,15.46033 49.648,42.10642 60.0176,70.51962 3.4786,9.5316 3.645,11.6348 1.0314,13.0335 -2.2934,1.2275 -2.2203,1.2238 -3.8441,0.1933 z m -706.58522,-27.2756 c -5.6349,-3.7323 -8.2045,-7.9526 -6.6316,-10.8915 1.5771,-2.9467 4.5018,-2.4316 8.9353,1.5739 2.1703,1.9606 5.5466,4.0068 7.5029,4.547 2.7329,0.7546 3.557,1.5041 3.557,3.2351 0,5.5163 -6.2666,6.2364 -13.3636,1.5355 z M 1630.8695,472.19668 c -27.7819,-23.59522 -35.272,-29.01827 -51,-36.92546 -40.3149,-20.26813 -72.8098,-28.35626 -109.1935,-27.17875 -32.1037,1.039 -51.6461,6.88392 -96.5501,28.87703 -23.025,11.2772 -26.3499,12.52655 -30.5391,11.47513 -6.821,-1.71196 -19.996,-18.3694 -22.7466,-28.75908 -1.0667,-4.02927 -0.9871,-5.27165 0.6053,-9.44135 7.876,-20.62295 54.1742,-40.82954 110.0222,-48.01861 15.7054,-2.02168 47.9094,-2.31182 61.5,-0.55407 33.4209,4.32252 64.8772,14.71465 87.9609,29.0594 27.7538,17.24684 52.4936,44.85123 68.7569,76.71809 7.0361,13.78683 7.6126,15.35579 6.5217,17.75 -2.4775,5.4376 -5.3792,3.9486 -25.3377,-13.00233 z m 3.614,-12.9345 c -1.4999,-2.55944 -6.7429,-9.98816 -11.6511,-16.50825 -29.7263,-39.4887 -66.2676,-60.5823 -121.4618,-70.11423 -18.5788,-3.20852 -54.4095,-3.17855 -75.4029,0.0631 -33.6728,5.19945 -60.7881,13.93675 -79.5812,25.64328 -8.7521,5.4518 -16.4188,13.37887 -16.4188,16.97633 0,5.39278 8.1409,18.24433 14.0226,22.13667 l 3.8821,2.56903 5.7976,-3.50941 c 7.7244,-4.67566 38.9435,-19.30051 53.2977,-24.96773 55.5552,-21.93389 111.3854,-17.3648 175.5,14.36278 15.493,7.66681 27.4473,15.79569 43.402,29.51314 5.8289,5.01155 10.7652,8.97173 10.9695,8.80039 0.2043,-0.17134 -0.8557,-2.40562 -2.3557,-4.96506 z"
     style="fill:#000000" />
</svg>
