<?xml version="1.0" encoding="UTF-8" standalone="no"?>
<svg
   xmlns:dc="http://purl.org/dc/elements/1.1/"
   xmlns:cc="http://creativecommons.org/ns#"
   xmlns:rdf="http://www.w3.org/1999/02/22-rdf-syntax-ns#"
   xmlns:svg="http://www.w3.org/2000/svg"
   xmlns="http://www.w3.org/2000/svg"
   version="1.1"
   id="svg13585"
   width="525.73865"
   height="195.91965"
   viewBox="0 0 525.73865 195.91965">
  <metadata
     id="metadata13591">
    <rdf:RDF>
      <cc:Work
         rdf:about="">
        <dc:format>image/svg+xml</dc:format>
        <dc:type
           rdf:resource="http://purl.org/dc/dcmitype/StillImage" />
        <dc:title></dc:title>
      </cc:Work>
    </rdf:RDF>
  </metadata>
  <defs
     id="defs13589" />
  <path
     style="fill:#000000"
     d="m 65.281326,195.0691 c -0.316431,-0.512 -0.130229,-1.20599 0.413781,-1.54221 2.622486,-1.62078 17.215794,-4.67661 26.816544,-5.61535 18.208639,-1.78041 19.672099,-2.66641 13.914469,-8.42404 -3.48891,-3.48891 -6.02594,-4.36694 -7.187499,-2.4875 -0.33992,0.55 0.0835,1 0.940979,1 0.85746,0 1.55902,0.675 1.55902,1.5 0,0.825 -0.3375,1.50171 -0.75,1.50381 -2.608969,0.0132 -18.593099,3.11321 -22.749999,4.41215 -2.75,0.85932 -7.37662,1.56726 -10.281385,1.57322 -5.478788,0.0112 -7.779202,1.85023 -5.351398,4.27804 0.623031,0.62303 1.132783,1.71778 1.132783,2.43278 0,2.13854 -2.657177,1.47216 -4.333924,-1.08688 -2.090242,-3.19011 -8.054663,-6.78497 -10.01146,-6.03408 -2.403269,0.92222 -3.052967,-3.53536 -1.771283,-12.1528 1.73482,-11.6641 1.334586,-30.3053 -1.039729,-48.42624 l -2.161929,-16.5 -4.090838,-4.35973 C 36.121272,100.65547 22.082313,89.20177 10.329657,80.66489 6.6686049,78.00559 2.9923509,74.79068 2.1602039,73.52066 -0.38720107,69.63283 -0.66758707,64.31563 1.2448049,56.16116 4.0504149,44.198 8.4692059,41.09967 25.155149,39.39591 c 6.071818,-0.61997 6.842355,-0.51293 6.309197,0.87646 -0.499271,1.30108 -0.0297,1.48894 2.639116,1.05585 2.184725,-0.35453 7.59903,0.81382 16.555424,3.57248 15.029793,4.62933 19.736505,4.95554 38.906615,2.69651 8.30957,-0.97921 12.061189,-1.87767 14.083439,-3.37279 1.6684,-1.2335 5.68426,-2.4609 10.17312,-3.10929 43.23138,-6.24456 53.07535,-8.09151 53.73907,-10.08266 0.18929,-0.56786 1.54416,-1.03781 3.01082,-1.04434 1.46667,-0.007 5.14167,-0.7081 8.16667,-1.55906 6.25062,-1.75834 16.47263,-2.42712 43,-2.81331 12.09375,-0.17606 22.30912,-0.9051 29.5,-2.10531 6.05,-1.00979 12.125,-1.78765 13.5,-1.72857 1.375,0.0591 5.65,-0.7374 9.5,-1.76993 7.54225,-2.02276 22.0363,-4.49187 32.5,-5.5365 3.575,-0.3569 10.70302,-1.94298 15.84004,-3.52461 5.13703,-1.58163 15.35394,-3.62783 22.70426,-4.54711 13.15257,-1.64495 13.51142,-1.6375 22.65996,0.47056 6.75542,1.55662 10.14496,1.89672 12.40328,1.24451 1.70914,-0.49361 9.13414,-0.69386 16.5,-0.445 18.58938,0.62806 23.04652,2.47719 33.87928,14.0555 5.86364,6.2672 9.22355,11.00199 12.8632,18.12684 2.70955,5.30412 5.23751,11.10636 5.61768,12.89386 0.79902,3.75689 1.55567,4.04348 3.30023,1.25 0.68696,-1.1 1.8077,-1.99303 2.49054,-1.98452 0.68284,0.009 2.9156,-1.90398 4.96169,-4.25 3.64405,-4.17822 3.72077,-4.21081 3.75,-1.59322 0.0413,3.69574 -5.77877,11.0546 -9.61256,12.15411 -2.99286,0.85834 -3.10313,1.09828 -3.68287,8.01339 -0.67219,8.018 -4.48353,16.72062 -8.67473,19.80747 -1.375,1.0127 -4.75,2.12541 -7.5,2.4727 -2.75,0.34728 -8.06115,1.95152 -11.80256,3.56497 -3.74141,1.61346 -9.47891,3.40499 -12.75,3.98118 -3.27109,0.57619 -5.94744,1.37802 -5.94744,1.78184 0,0.40382 2.25,1.95883 5,3.45556 2.75,1.49674 5,3.4164 5,4.26592 0,1.06816 0.53978,1.33099 1.75,0.85209 1.854,-0.73363 26.64814,-8.00625 41.75,-12.24611 18.2666,-5.12835 21.09989,-6.08483 18.31205,-6.18184 -3.57189,-0.1243 -13.56143,2.24541 -22.81205,5.41145 -8.96725,3.06906 -26.13135,7.51887 -28.68122,7.43565 -1.00033,-0.0326 3.35622,-1.5227 9.68122,-3.31122 6.325,-1.78852 15.775,-4.87597 21,-6.86102 5.225,-1.98504 10.73439,-3.91799 12.24309,-4.29546 1.52989,-0.38276 2.45928,-1.14551 2.10137,-1.7246 -0.41064,-0.66444 0.3532,-0.84813 2.12134,-0.51013 3.18406,0.60867 10.81492,-1.11165 18.0342,-4.06569 2.75,-1.12526 7.62335,-3.04123 10.82966,-4.2577 l 5.82966,-2.21177 -2.53602,-2.35152 C 501.96711,70.05819 500.38841,69 499.85369,69 c -1.49448,0 -4.20223,-3.04995 -3.58886,-4.04241 0.31308,-0.50657 1.55119,-0.49846 2.91238,0.0191 1.30228,0.49513 5.22385,1.41451 8.7146,2.04307 7.66783,1.3807 12.84681,3.67851 12.84681,5.69987 0,0.82043 1.125,2.82868 2.5,4.46278 1.83776,2.18405 2.5,4.13669 2.5,7.3713 0,5.338 -0.55015,5.7638 -15.66442,12.12364 -5.95957,2.50769 -12.03005,5.40617 -13.48995,6.44106 -3.73368,2.64673 -4.36514,2.44034 -7.79759,-2.54855 -3.18664,-4.63161 -3.67317,-6.17912 -2.11793,-6.73649 0.51157,-0.18333 0.30619,-1.18 -0.45639,-2.21483 -1.34937,-1.83109 -1.60872,-1.81418 -9.68012,0.63102 -8.93584,2.70709 -29.80115,8.71986 -41.5658,11.97804 -5.75979,1.59515 -7.0462,2.28633 -6.18548,3.32344 0.5977,0.72018 0.94519,3.01571 0.77221,5.10118 -0.3103,3.74073 -0.42219,3.83423 -8.31453,6.94836 -4.4,1.73613 -10.10899,3.91257 -12.68664,4.83654 -2.57765,0.92397 -6.62765,2.99542 -9,4.60323 -5.65985,3.83585 -8.92464,3.80459 -12.22447,-0.11704 -3.11967,-3.70751 -3.30894,-5.34483 -0.53396,-4.61916 2.08379,0.54493 17.44755,-6.57478 25.44507,-11.79148 4.69742,-3.06407 3.66648,-2.86126 -11,2.16399 -23.29399,7.98134 -49.79688,13.97396 -90.15442,20.38499 -6.68493,1.06194 -14.78493,2.59819 -18,3.41388 -3.21507,0.81569 -19.85627,3.47384 -36.98045,5.907 -17.12418,2.43315 -32.02732,4.90154 -33.1181,5.4853 -2.25317,1.20586 -1.98745,5.91085 0.38525,6.82134 1.83488,0.70411 1.73581,3.76049 -0.17324,5.34486 C 220.82477,164.00332 211.76464,168 209.67325,168 c -1.02673,0 -3.34454,0.65894 -5.1507,1.46431 -19.44731,8.67159 -23.11817,8.78443 -33.42428,1.02743 C 164.53667,165.55308 161.87974,162 164.74829,162 c 1.06417,0 16.28955,10.92538 16.77024,12.03394 0.15395,0.35503 2.40395,-0.35336 5,-1.57422 2.59605,-1.22086 9.22009,-3.6671 14.72009,-5.43608 8.35207,-2.68631 18.5,-6.90327 18.5,-7.68765 0,-0.11319 -0.42919,-1.33464 -0.95375,-2.71435 -0.83876,-2.2061 -1.2909,-2.40017 -3.75,-1.60963 -8.98189,2.88745 -13.01811,4.27119 -14.79625,5.07261 -7.793,3.51235 -19.54536,5.41583 -18,2.91538 0.33992,-0.55 1.37898,-1.01068 2.30902,-1.02374 0.93004,-0.0131 4.39098,-1.17807 7.69098,-2.58894 3.3,-1.41086 7.35,-2.95496 9,-3.43132 3.86814,-1.11676 -17.09866,-0.18057 -24,1.07162 -2.75,0.49897 -10.625,1.39762 -17.5,1.997 -15.16441,1.32208 -37.4458,4.53762 -41.68676,6.01603 -2.80431,0.97759 -3.17904,1.61907 -3.95457,6.76963 -0.47119,3.12935 -0.85715,7.92758 -0.85769,10.66274 -10e-4,6.40124 -1.18549,6.99436 -17.000979,8.51491 -6.6,0.63455 -15.47558,2.02185 -19.7235,3.08289 -8.709642,2.1755 -10.412701,2.32684 -11.233795,0.99828 z m -7.777287,-14.43483 c -1.351413,-2.83395 -2.034306,-3.30552 -4.189988,-2.89344 -3.795514,0.72556 -3.403761,4.317 0.697279,6.39238 4.257753,2.15469 5.564487,0.84562 3.492709,-3.49894 z m 30.734582,-3.3218 c 4.95,-1.90407 9.7459,-3.69492 10.65755,-3.97966 1.351059,-0.42199 3.329659,-4.2443 2.552789,-4.93154 -0.58104,-0.51401 -32.625059,4.589 -35.210339,5.60725 -1.65,0.64987 -4.078007,1.60258 -5.395571,2.11713 l -2.395572,0.93554 2.395572,2.55091 c 2.307514,2.45714 2.689638,2.52539 10.395571,1.85661 5.4056,-0.46914 10.91871,-1.81701 17,-4.15624 z m 22.417139,-4.36169 c 1.4856,-6.92716 1.46903,-6.98136 -1.78787,-5.846 -4.25683,1.48394 -5.35889,4.74033 -2.73785,8.08989 1.15972,1.48207 2.40879,2.71957 2.77572,2.75 0.36692,0.0304 1.15442,-2.21682 1.75,-4.99389 z m -54.917139,1.06736 c 2.215368,-1.4049 1.990438,-21.1009 -0.357396,-31.29535 -1.840235,-7.99041 -1.723613,-12.3389 0.201271,-7.50482 2.543064,6.38656 4.338241,19.08532 4.001797,28.30799 -0.378971,10.38839 -0.356301,10.42099 5.534004,7.95987 1.993159,-0.8328 10.935614,-2.63671 19.872124,-4.0087 14.63438,-2.24676 24.115809,-3.97437 27.433149,-4.99859 0.82909,-0.25598 0.93241,-1.35879 0.34403,-3.67219 -0.46251,-1.81849 -1.59983,-7.69385 -2.52738,-13.05635 -1.67034,-9.65678 -1.7137,-9.75 -4.53501,-9.75 -1.56671,0 -3.05428,0.3375 -3.30572,0.75 -0.25144,0.4125 0.38629,4.575 1.41718,9.25 2.00322,9.0844 2.4914,16.46998 1.02891,15.56611 -0.49117,-0.30356 -2.16357,-6.0111 -3.71644,-12.68341 l -2.823409,-12.13149 -6.07132,0.56695 c -7.16855,0.66941 -12.77999,-0.41283 -16.53495,-3.18899 -1.49438,-1.10484 -5.0154,-2.76056 -7.824486,-3.67936 -4.230128,-1.38361 -6.183478,-2.92585 -11.371893,-8.97851 -3.445453,-4.01937 -6.732957,-7.5195 -7.305564,-7.77808 -0.642463,-0.29011 -0.185136,5.51787 1.194371,15.16833 2.264693,15.84285 2.814904,31.32608 1.453009,40.88845 -0.786966,5.52558 0.201786,6.60941 3.893723,4.26814 z m 79.999999,-15.8852 c 4.675,-0.61438 11.93736,-1.40742 16.13858,-1.76231 l 7.63858,-0.64526 -3.13858,-4.14028 c -1.72622,-2.27715 -5.33669,-8.07644 -8.02326,-12.88732 -3.57032,-6.3934 -5.31934,-8.62381 -6.5,-8.28905 -0.88843,0.25191 -6.56532,1.19685 -12.61532,2.09987 -15.0259,2.24276 -18,2.90845 -18,4.02892 0,0.88866 4.30743,21.5483 5.02043,24.07934 0.22872,0.81193 1.77047,0.7778 5.64709,-0.12501 2.93286,-0.68301 9.15748,-1.74452 13.83248,-2.3589 z m 32.26071,-3.72698 c 0.51581,-0.51582 -1.67809,-4.51848 -10.4996,-19.15596 -3.964,-6.57745 -0.0644,-2.95971 6.47862,6.01028 3.70685,5.08184 7.30685,9.96628 8,10.8543 1.08055,1.38434 2.5437,1.50192 10.26027,0.8245 17.78295,-1.56111 29.65228,-2.91516 30.5801,-3.48858 0.51952,-0.32108 -0.55972,-2.4663 -2.39831,-4.76714 -3.9769,-4.97677 -9.68179,-14.27597 -9.68179,-15.78172 0,-2.475 2.85525,0.27615 8.43045,8.12309 7.04793,9.91977 8.70674,9.12924 2.14102,-1.02032 -2.51431,-3.88673 -4.57147,-7.48862 -4.57147,-8.00421 0,-3.26783 7.12518,5.40619 13.53371,16.47561 0.98196,1.69612 1.24283,1.67884 5.21016,-0.34514 5.47258,-2.79191 8.67655,-2.84636 7.96763,-0.13543 -0.42468,1.62397 -0.12075,1.90796 1.63336,1.52617 1.18533,-0.25799 6.43014,-1.17474 11.65514,-2.03722 9.47016,-1.56323 12.11462,-1.98325 32,-5.08262 9.41139,-1.46688 14.92449,-3.22931 10.95,-3.50051 -1.86267,-0.1271 10.37124,-2.13687 35.56779,-5.84302 11.00979,-1.61943 24.95979,-4.10962 31,-5.53376 18.05738,-4.25749 52.37603,-14.09423 53.62169,-15.36957 0.35171,-0.36009 -1.74151,-2.79379 -4.6516,-5.40822 l -5.29108,-4.75351 -12.8484,2.57118 c -15.15198,3.03217 -43.38338,6.79493 -62.3484,8.30996 -7.425,0.59316 -19.35,1.54972 -26.5,2.12571 -7.15,0.57598 -16.6,1.68004 -21,2.45346 -6.85689,1.20529 -23.19881,2.95157 -48.25,5.15593 -4.54591,0.40002 -6.25,0.94603 -6.25,2.0026 0,2.30648 -4.19569,3.43499 -6.20007,1.66762 -1.23135,-1.08574 -2.88557,-1.32512 -6,-0.86825 -2.36496,0.34694 -9.02493,1.08534 -14.79993,1.64089 -5.775,0.55555 -16.35,2.16791 -23.5,3.58301 -7.15,1.41511 -15.57675,2.55171 -18.72612,2.52577 -3.14937,-0.0259 -5.99916,0.39463 -6.33286,0.93458 -0.5273,0.85319 7.89548,14.15741 13.99082,22.09923 1.90872,2.48694 5.41714,3.62301 6.82887,2.21129 z m 204.73929,-42.02373 c -5.70612,-3.13097 -6.37103,-4.77724 -1.19137,-2.94975 4.63364,1.63484 10.19137,4.41235 10.19137,5.0932 0,1.25145 -4.97014,0.0678 -9,-2.14345 z M 97.988181,131.43259 c 5.087739,-0.86207 11.725439,-2.17477 14.750439,-2.91709 3.025,-0.74233 10.225,-1.64415 16,-2.00404 14.17474,-0.88336 13.83792,-0.73361 14.19728,-6.31211 0.37313,-5.79241 2.18672,-5.78095 2.62163,0.0166 0.1754,2.33818 0.8504,4.58949 1.5,5.00292 2.14084,1.36252 21.68109,-1.61461 21.68109,-3.30331 0,-0.51847 -0.42479,-1.72406 -0.94399,-2.6791 -0.51919,-0.95504 -1.88703,-7.13643 -3.03963,-13.73643 -2.45047,-14.03178 -4.01409,-19.9814 -8.21929,-31.27462 -1.69465,-4.55105 -2.81167,-8.54414 -2.48226,-8.87354 3.29361,-3.29361 10.40664,16.58457 14.2299,39.76711 0.94162,5.70958 2.16351,11.24965 2.71529,12.31127 0.99116,1.90696 1.02088,1.90696 2.46617,0 1.12222,-1.4807 1.34539,-3.90975 0.95829,-10.43022 -0.3425,-5.76906 -0.23218,-7.3755 0.34335,-5 1.17218,4.83805 1.43814,13.93327 0.50588,17.29937 -0.71305,2.57459 -0.58494,2.75649 1.59549,2.26537 2.87962,-0.64861 23.72034,-3.68286 29.6208,-4.31256 l 4.25,-0.45357 v -6.75008 c 0,-3.71255 -0.49069,-8.15767 -1.09042,-9.87806 -1.68629,-4.83729 -0.41707,-6.16498 1.59691,-1.67047 0.98581,2.2 2.00232,7.06235 2.25892,10.80523 0.45677,6.66292 0.52161,6.79885 3.10056,6.5 2.2679,-0.2628 2.61437,-0.74929 2.4926,-3.49989 -0.22705,-5.12862 -5.37046,-17.31274 -9.00817,-21.33925 C 206.65343,87.1633 206.07505,86 207.61996,86 c 3.58568,0 11.76111,15.24671 13.69072,25.5324 l 0.70001,3.7314 6.5063,-0.60756 c 3.57846,-0.33417 6.77975,-0.88212 7.11396,-1.21768 2.25337,-2.26243 -2.82358,-30.60675 -7.8504,-43.82828 C 226.5095,66.26718 226.42792,63 227.61548,63 c 2.10494,0 7.8514,18.29076 11.62439,37 l 1.31082,6.5 0.094,-6.59107 c 0.0517,-3.62509 -0.57616,-8.80009 -1.39521,-11.5 C 237.54606,82.79387 237.38404,81 238.58029,81 c 1.54268,0 4.65855,12.41773 4.64204,18.5 -0.01,3.69995 -0.71365,7.46866 -1.83545,9.83121 -1.00055,2.10717 -1.60989,4.04049 -1.3541,4.29628 0.75295,0.75296 21.33474,-1.50212 32.70584,-3.58346 5.775,-1.05705 16.575,-2.41005 24,-3.00667 7.425,-0.59662 17.775,-1.55827 23,-2.13699 5.225,-0.57873 14,-1.43927 19.5,-1.91231 9.89116,-0.85072 20.5,-4.0879 20.5,-6.25537 0,-2.03322 -2.34087,-8.73269 -3.0513,-8.73269 -1.06546,0 -1.9487,2.72978 -1.9487,6.02277 0,3.52197 -1.61822,4.75547 -2.5183,1.91958 C 351.02685,92.18206 353.47763,86 356.1618,86 c 1.53908,0 5.57682,8.34561 5.57682,11.52675 0,2.97784 1.03114,3.06519 11.18462,0.9475 10.94189,-2.28213 10.94999,-2.28584 9.62039,-4.41488 -1.3295,-2.12886 0.0823,-10.70602 1.69946,-10.3245 0.54754,0.12918 1.13453,2.31179 1.30442,4.85025 l 0.30888,4.61537 3.69112,-0.6956 c 2.03011,-0.38259 5.08862,-0.82687 6.79669,-0.98731 3.52289,-0.33089 13.32551,-3.11218 15.00924,-4.25855 1.79462,-1.22187 7.01707,-11.29678 8.92579,-17.21921 1.59487,-4.9486 1.84176,-5.23847 2.63512,-3.09381 1.0608,2.8676 -1.42219,12.187 -4.33801,16.2819 L 416.60243,86 h 3.51841 c 3.74547,0 5.69817,-1.97657 4.91425,-4.97431 C 424.44788,78.78022 429.85186,65 431.31964,65 c 0.63209,0 2.33495,0.93266 3.78412,2.07258 3.10932,2.44579 3.53487,7.28631 1.06112,12.07001 -0.86555,1.6738 -1.40397,3.21304 -1.19648,3.42053 1.13287,1.13286 7.49232,-3.52073 8.96897,-6.56312 2.48699,-5.12405 3.23699,-16.7936 1.46321,-22.76657 -3.47392,-11.69798 -11.71032,-24.26339 -22.69906,-34.62962 l -7.25683,-6.84572 -15.10304,0.86228 c -20.55992,1.17384 -25.15499,1.10787 -39.44388,-0.56626 -13.76962,-1.6133 -18.9306,-0.98442 -41.15915,5.01535 -5.775,1.55874 -12.40649,3.32151 -14.73665,3.91726 -3.86377,0.98785 -4.12953,1.2547 -3.01955,3.03206 2.0346,3.2579 -0.69962,4.96226 -6.4938,4.04789 -5.12314,-0.80849 -5.53929,-0.49246 -3.2818,2.4922 0.8075,1.06762 1.46377,2.84113 1.45837,3.94113 -0.008,1.6715 -0.5368,1.40911 -3.2182,-1.59748 -1.7646,-1.97862 -4.10837,-4.05689 -5.20837,-4.61838 -3.24394,-1.65586 -8.74568,-2.26712 -12.5,-1.38879 l -3.5,0.81883 3,1.1946 c 5.30197,2.11124 13.5,7.47277 13.5,8.82902 0,0.85599 -2.7061,-0.0816 -7.75,-2.68521 -11.77875,-6.08002 -15.57016,-6.79726 -25.49542,-4.82305 -4.54002,0.90305 -9.60458,1.47077 -11.25458,1.26161 -1.65,-0.20916 -9.57413,-0.92283 -17.60917,-1.58594 -13.43123,-1.10843 -15.10803,-1.05621 -20.79608,0.64763 -8.11867,2.43192 -9.30429,3.87177 -5.0897,6.18106 1.77278,0.97136 4.76685,2.7786 6.6535,4.0161 1.88665,1.2375 3.86028,2.25 4.38586,2.25 0.52557,0 0.95559,0.9 0.95559,2 0,2.74007 -1.81188,2.50888 -4.20768,-0.53689 -1.09754,-1.39529 -4.6498,-3.87677 -7.89392,-5.5144 -3.49238,-1.76295 -5.8984,-3.62889 -5.8984,-4.5744 0,-1.30114 -0.69452,-1.46927 -3.75,-0.90778 -2.0625,0.379 -4.16375,1.09034 -4.66945,1.58074 -0.55008,0.53344 2.13038,3.81646 6.67227,8.17218 5.89059,5.64915 8.64314,9.29724 12.28396,16.28055 7.25558,13.91663 11.65318,21.7764 13.64351,24.38486 2.28333,2.99246 2.30251,4.12011 0.0697,4.09711 -2.16783,-0.0223 -6.2846,-4.93139 -13.41448,-15.99617 -3.01749,-4.68282 -6.93982,-9.73722 -8.71628,-11.23201 -4.67903,-3.93714 -14.27675,-9.06572 -24.81631,-13.26069 -5.0584,-2.01335 -9.726,-4.29794 -10.37245,-5.07687 -1.40536,-1.69336 -3.14487,-1.76204 -8.30928,-0.32809 l -3.87879,1.07699 2.87879,1.75538 c 4.40209,2.68421 5.95817,4.90463 4.46544,6.37187 -0.96298,0.94653 -1.63942,0.70493 -3.12871,-1.11746 -1.04506,-1.27879 -3.5825,-3.46678 -5.63875,-4.86219 -3.44862,-2.3403 -4.12966,-2.45649 -8.77891,-1.49785 -2.77215,0.57159 -8.19027,1.55766 -12.04027,2.19125 -3.85,0.63359 -7.59612,1.34019 -8.32471,1.57021 -1.66424,0.52542 -0.2099,2.41654 12.18517,15.84463 C 133.21608,68.96444 138.82624,75.075 140.56608,77 l 3.16337,3.5 -1.39717,-4.09724 c -2.73485,-8.02008 -5.63529,-12.30731 -12.5587,-18.5634 -3.85857,-3.48665 -7.01994,-7.11798 -7.02527,-8.06963 -0.0165,-2.94265 14.44765,11.73175 17.80838,18.06725 5.7364,10.81398 14.65243,41.02584 12.68735,42.99093 -0.33075,0.33074 -1.35448,0.12629 -2.27497,-0.45434 -1.11247,-0.70172 -2.06642,-3.59625 -2.84518,-8.63298 C 146.35875,90.32435 141.09462,81.99047 123.33738,62.5 c -4.00872,-4.4 -8.40469,-9.30383 -9.76883,-10.89739 l -2.48025,-2.89739 -8.17485,1.32756 c -7.976499,1.29536 -8.174829,1.39568 -8.174829,4.13485 0,2.18531 -0.88182,3.36395 -3.98013,5.31983 -4.41481,2.78694 -5.01987,2.96926 -5.01987,1.51254 0,-0.55 0.34639,-0.8875 0.76976,-0.75 0.42336,0.1375 2.10031,-0.98198 3.72655,-2.48773 2.57341,-2.38275 2.76534,-2.91135 1.48024,-4.07668 -0.99207,-0.89962 -3.23093,-1.19795 -6.82343,-0.90922 -6.03101,0.48471 -5.76304,-0.67492 -2.63362,11.39667 2.04258,7.8792 1.35983,21.5523 -1.12379,22.50535 -2.89832,1.11219 -4.39571,-1.69078 -4.39571,-8.22835 0,-4.42532 -0.87582,-8.78003 -2.93766,-14.60656 -1.61572,-4.56582 -2.77065,-8.4685 -2.56653,-8.67262 1.52018,-1.52019 5.79438,6.04101 7.95905,14.07981 1.26007,4.67948 1.42066,4.88505 1.47933,1.89367 0.0728,-3.71214 -2.63213,-15.17156 -3.88775,-16.47041 -0.43921,-0.45433 -5.46684,-0.90433 -11.172506,-1 L 55.238621,53.5 l 0.321447,11 c 0.423457,14.49077 -0.224402,18.14074 -4.359036,24.55834 -3.956447,6.14104 -4.409637,5.37028 -1.33549,-2.27132 2.385188,-5.92901 3.594998,-20.8534 2.439878,-30.09868 L 51.615103,51.16323 45.166341,48.58162 C 40.59873,46.75308 36.897476,46.00694 32.4781,46.0238 25.905969,46.0489 10.256166,49.06818 8.7590569,50.59991 8.2751969,51.09496 7.0088639,55.1 5.9449829,59.5 3.2779709,70.53024 4.7042699,73.00534 18.238621,80.83354 c 4.4,2.54493 11.375,7.80221 15.5,11.68283 17.439744,16.40655 21.251401,19.51987 22.564273,18.43029 0.699741,-0.58074 3.167356,-4.19238 5.48359,-8.02588 4.161812,-6.88803 4.210578,-7.07847 4.147131,-16.19538 -0.03531,-5.07397 -0.551523,-12.55501 -1.147137,-16.62453 -1.199634,-8.19646 -0.772177,-10.37488 0.87214,-4.44464 2.179821,7.86154 3.451713,24.81051 2.226864,29.67481 -1.104639,4.38692 -5.372076,11.81607 -9.350565,16.27832 -1.860132,2.08632 -1.841598,2.14368 1.696308,5.25 1.967344,1.72735 3.976804,3.14064 4.465467,3.14064 0.488663,0 2.273005,-1.165 3.965204,-2.58889 2.278175,-1.91696 3.076725,-2.19532 3.076725,-1.07248 0,0.83403 -1.40059,2.61254 -3.112423,3.95225 l -3.112423,2.43584 3.394126,2.58882 c 3.39324,2.58816 14.779,7.35558 18.08028,7.57054 0.96225,0.0627 5.91225,-0.59141 11,-1.45349 z m 11.407089,-14.48893 c -0.67661,-9.53214 -2.91008,-19.52665 -7.1203,-31.86248 -1.39262,-4.08035 -2.347799,-7.60306 -2.12262,-7.82824 0.9161,-0.9161 6.5016,12.89171 8.99932,22.24706 4.55809,17.07255 4.53836,17.05764 4.25523,3.21438 -0.24537,-11.99701 -0.16611,-12.61381 1.28511,-10 1.14763,2.06702 1.54238,5.75225 1.53021,14.28562 -0.0181,12.66801 -1.48822,19 -4.41141,19 -1.51912,0 -1.86466,-1.29549 -2.41554,-9.05634 z m -17.406649,7.39406 c -1.64028,-0.66187 -1.56808,-6.68452 0.21018,-17.53155 0.7839,-4.78161 1.7432,-13.71817 2.13177,-19.85904 0.54875,-8.67218 0.94572,-10.75011 1.77787,-9.30617 1.37024,2.37766 1.28316,18.76703 -0.14803,27.85904 -2.07788,13.20029 -2.26374,15.5 -1.25266,15.5 0.54602,0 1.25273,-1.2375 1.57045,-2.75 0.31773,-1.5125 1.52833,-5.675 2.69022,-9.25 1.161889,-3.575 2.400069,-8.975 2.751499,-12 l 0.63898,-5.5 1.26744,3 c 1.11534,2.63999 0.94798,3.90002 -1.39463,10.5 -1.46413,4.125 -3.139309,9.75 -3.722609,12.5 -1.48051,6.97999 -2.78299,8.34583 -6.52048,6.83772 z m 30.066029,-1.48505 c -1.05491,-1.29809 -2.54882,-7.88154 -3.71071,-16.35267 -0.83658,-6.09937 1.03713,-2.25272 3.04904,6.25953 1.93705,8.19555 3.30637,7.86685 3.33033,-0.79943 0.0186,-6.73492 -2.18365,-15.57481 -5.54967,-22.27642 -1.86999,-3.72305 -2.0729,-4.63119 -0.80102,-3.58492 2.39085,1.96676 7.25338,13.03441 8.41295,19.14881 1.18507,6.24887 0.26215,14.14914 -1.97579,16.91288 -1.35982,1.6793 -1.85238,1.80306 -2.75513,0.69222 z m 72.88694,-8.0497 c -0.66163,-0.66163 -1.20297,-3.73129 -1.20297,-6.82147 0,-6.9609 -1.67953,-12.72561 -7.4221,-25.4751 -2.4625,-5.46719 -4.2858,-10.13184 -4.05176,-10.36588 1.02959,-1.02958 3.50521,2.5121 7.78927,11.14351 4.64739,9.36345 7.61589,19.27537 7.70161,25.71597 0.0439,3.29514 0.13252,3.38638 1.51478,1.55887 0.80751,-1.06762 1.4682,-3.27812 1.4682,-4.91222 0,-3.01968 -6.05619,-21.87985 -8.63679,-26.89665 C 191.32382,77.2375 190.939,76 191.24667,76 c 0.56176,0 4.43671,8.11172 10.46891,21.91537 2.90954,6.65798 3.12681,7.79492 2.12718,11.13137 -0.61234,2.0438 -1.67377,4.16431 -2.35874,4.71224 -2.22763,1.78196 -5.31224,2.27418 -6.54243,1.04399 z m 58.44611,-7.29675 c -2.08863,-2.08862 -2.45071,-15.93623 -0.39908,-15.26225 0.6875,0.22584 1.36994,2.17584 1.51654,4.33333 0.53215,7.83155 0.93081,8.50573 4.87266,8.24026 1.97244,-0.13283 3.80867,-0.82113 4.08052,-1.52954 0.90555,-2.35982 2.28028,-1.3277 2.28028,1.71198 0,2.71515 -0.30859,3.0013 -3.25,3.01365 -1.7875,0.008 -4.19542,0.26746 -5.35092,0.57765 -1.26025,0.33831 -2.7608,-0.0959 -3.75,-1.08508 z m 35.83629,-5.5299 c -0.34797,-0.56302 0.34743,-3.96888 1.54533,-7.56857 2.11893,-6.36739 2.13297,-6.72609 0.51755,-13.22632 -0.91325,-3.67479 -3.43082,-10.3583 -5.59461,-14.85226 -3.96412,-8.23307 -6.53172,-11.02077 -25.95364,-28.17856 -3.43669,-3.03605 -3.45478,-3.09235 -1,-3.11241 2.62076,-0.0214 9.83288,5.56509 20.14941,15.60773 11.09641,10.80181 19.12348,32.49329 15.89999,42.9664 -2.80535,9.11456 -3.99496,10.90281 -5.56403,8.36399 z m -18.44844,-3.37918 c -0.50246,-1.32157 -1.38917,-2.6968 -1.97047,-3.05606 -0.58129,-0.35926 -3.40101,-5.01548 -6.26604,-10.34714 C 256.8267,74.56358 251.46343,68.29011 241.06496,60.0755 233.96414,54.46597 226.23654,46.16875 227.20809,45.1972 c 0.30827,-0.30827 2.01625,0.79342 3.79551,2.44819 1.77926,1.65478 7.12983,6.00262 11.89016,9.66185 10.79827,8.30059 16.99091,15.23228 21.48155,24.04524 1.92042,3.76887 3.65385,6.69032 3.85206,6.4921 0.32342,-0.32342 -2.66413,-9.33767 -6.76633,-20.41583 -4.47966,-12.0975 -11.63818,-22.26837 -17.97242,-25.5353 -2.0625,-1.06376 -3.75,-2.15643 -3.75,-2.42817 0,-0.27174 2.5875,0.81343 5.75,2.41148 6.42231,3.24528 10.48919,7.75421 15.001,16.63155 5.97718,11.76057 14.98261,38.13756 13.94436,40.84319 -0.91167,2.37577 -2.60077,2.02749 -3.65843,-0.75436 z m 9.5157,1.15286 c -0.21153,-0.6875 -0.65139,-5.525 -0.97746,-10.75 -0.32608,-5.225 -0.87314,-11.4125 -1.21569,-13.75 -0.34255,-2.3375 -0.22607,-4.23357 0.25885,-4.21349 3.19134,0.13217 11.00468,19.63302 9.79593,24.44908 -1.02977,4.10294 -6.92708,7.30184 -7.86163,4.26441 z m 4.74022,-5.07077 c 0.27875,-0.72642 -0.33998,-4.66392 -1.37496,-8.75 -1.03497,-4.08608 -1.6649,-5.91048 -1.39983,-4.05423 0.26507,1.85625 0.48194,5.79375 0.48194,8.75 0,5.03144 1.14259,7.05177 2.29285,4.05423 z M 53.738621,96.46339 c 0,-0.36006 0.888793,-1.90284 1.975095,-3.42841 C 58.258222,89.46155 59.736177,85.61095 60.716867,80 l 0.786516,-4.5 0.108235,5 c 0.08325,3.84595 -0.577223,6.19516 -2.861551,10.17811 -2.726913,4.75464 -5.011446,7.39193 -5.011446,5.78528 z M 317.36238,95.20025 C 316.15702,93.24993 311.79792,65.00607 312.00682,60.5 c 0.21076,-4.54606 0.46381,-5.02702 2.78732,-5.29766 1.90562,-0.22195 2.91374,0.37171 3.96414,2.33439 0.77474,1.44763 2.59329,3.4756 4.0412,4.50661 3.79473,2.70208 10.49107,11.82988 11.89592,16.21538 2.02951,6.33544 0.65701,6.27514 -3.30588,-0.14525 -4.29555,-6.95934 -5.42794,-7.8379 -3.04632,-2.36347 0.89728,2.0625 2.53454,6.3141 3.63837,9.44799 1.69583,4.81465 2.46087,5.79768 4.93497,6.34109 1.61041,0.3537 2.74373,1.16461 2.51849,1.80201 -0.47639,1.34814 -6.47621,1.27911 -7.84559,-0.0903 -0.51178,-0.51178 -2.88047,-6.66047 -5.26375,-13.66375 -2.38328,-7.00328 -4.84035,-13.24035 -5.46015,-13.86015 -1.47458,-1.47458 -1.40857,-0.36467 0.37308,6.27308 0.81194,3.025 1.46359,6.85 1.44809,8.5 l -0.0282,3 -1.31766,-2.5 c -0.72471,-1.375 -2.12827,-5.55518 -3.11901,-9.28928 -0.99075,-3.73411 -2.24541,-7.06373 -2.78815,-7.39916 -0.59719,-0.36908 -0.76178,0.33736 -0.41689,1.78929 0.31344,1.31953 1.28696,6.44915 2.16338,11.39915 2.247,12.69095 2.467,13.5 3.67108,13.5 0.59101,0 1.31474,-0.9184 1.60827,-2.04089 0.62303,-2.38247 2.62553,-2.08528 3.11956,0.46297 0.67442,3.47866 -6.51381,8.53356 -8.21674,5.77817 z m 48.94658,-1.08644 c -0.8041,-1.30105 0.48882,-12.03234 1.52697,-12.67395 0.44844,-0.27715 0.56185,-1.1645 0.25203,-1.97189 -1.33387,-3.476 4.56516,0.36942 6.5688,4.28203 1.56604,3.05807 0.48629,2.83133 -2.38103,-0.5 -1.30183,-1.5125 -2.54509,-2.525 -2.76279,-2.25 -0.21771,0.275 -0.209,2.91524 0.0193,5.8672 l 0.41517,5.36719 4.94149,-0.47481 c 4.15201,-0.39896 4.89261,-0.21797 4.63554,1.1328 -0.23391,1.22912 -1.75458,1.67718 -6.45879,1.90308 -3.38407,0.1625 -6.4246,-0.14424 -6.75673,-0.68165 z M 343.11872,84.79159 C 341.99305,83.53121 340.3202,80.475 339.40128,78 c -0.91892,-2.475 -3.4454,-6.73605 -5.61439,-9.469 -2.16898,-2.73294 -3.73273,-5.17988 -3.47498,-5.43763 1.0347,-1.0347 9.68264,8.73965 12.09996,13.676 2.97052,6.06601 4.59381,7.64861 3.33181,3.24829 -2.86401,-9.98625 -9.52705,-17.72656 -19.67114,-22.85156 -6.44374,-3.25551 -9.89842,-6.4437 -8.83928,-8.15742 0.48225,-0.78031 1.49215,-0.59076 3.34796,0.62839 1.46157,0.96016 5.3574,3.26545 8.6574,5.12287 3.3,1.85741 7.72694,5.03378 9.83764,7.05859 7.98156,7.65676 13.37156,24.222 8.12574,24.97306 -1.14638,0.16413 -2.93124,-0.71009 -4.08328,-2 z M 26.738621,78.95034 c 0,-3.68767 -1.338215,-6.37808 -7.937081,-15.95707 -2.784605,-4.04217 -5.044463,-8.05677 -5.021906,-8.92133 0.05394,-2.0673 6.824959,5.43215 11.854899,13.13025 4.494673,6.8789 4.879513,6.52187 5.797181,-5.37822 0.433214,-5.61779 0.242394,-8.19678 -0.689568,-9.31972 -0.708689,-0.85392 -0.960665,-1.87921 -0.559946,-2.27842 1.275853,-1.27104 4.556711,3.87502 4.548867,7.13495 -0.0122,5.06779 -1.942316,15.79934 -3.667099,20.38922 -1.883381,5.01193 -4.325347,5.68961 -4.325347,1.20034 z M 353.00063,76.79289 c -0.57974,-0.71109 -1.5237,-3.0134 -2.09769,-5.11625 -0.57399,-2.10284 -2.67822,-5.81818 -4.67608,-8.25629 -3.96133,-4.83429 -4.21997,-7.74167 -0.73297,-8.23925 1.67711,-0.23932 2.08576,0.0696 1.63747,1.23781 -0.33986,0.88568 0.73991,3.57562 2.50495,6.24034 1.70627,2.576 3.10231,5.90139 3.10231,7.38975 0,3.45885 2.69497,6.00141 4.11969,3.8867 0.7289,-1.08192 0.89493,-0.82218 0.67378,1.05408 -0.32665,2.77126 -2.90554,3.79742 -4.53146,1.80311 z m 21.09544,-3.56446 C 361.09192,61.2715 353.95379,55.22476 346.88118,50.1746 c -6.81347,-4.86511 -11.06954,-8.27359 -17.67115,-14.15197 -2.18961,-1.94973 -8.51455,-4.00805 -12.34385,-4.01705 -1.92916,-0.005 -2.15365,0.25806 -1.20145,1.40539 1.44801,1.74474 -0.0269,2.85143 -2.58587,1.94027 -3.01685,-1.07419 -5.34024,-3.52988 -5.34024,-5.64432 0,-1.83638 0.46715,-1.93525 6.31345,-1.33628 3.47239,0.35576 10.33489,2.02289 15.25,3.70473 4.9151,1.68185 13.88655,4.70898 19.93655,6.72696 10.15848,3.38838 11.44065,4.11277 16.75997,9.46904 6.88129,6.92907 10.29198,12.11326 12.83809,19.51363 1.04024,3.02352 2.38247,6.08908 2.98273,6.81235 1.22404,1.47487 0.42695,3.41398 -1.38981,3.38108 -0.65504,-0.0119 -3.50513,-2.14937 -6.33353,-4.75 z m -6.5e-4,-8.88441 C 369.10865,56.65155 358.1732,44.27335 354.86406,42.5754 c -1.44399,-0.74093 -5.25547,-1.88923 -8.46996,-2.55179 -3.21449,-0.66256 -7.48949,-1.85196 -9.5,-2.64312 l -3.65548,-1.43848 3,2.62141 c 1.65,1.44177 6.825,5.11294 11.5,8.15815 4.675,3.04521 11.46669,8.29112 15.09264,11.65759 7.5925,7.04915 14.26211,12.52923 14.73,12.10288 0.17746,-0.16169 -1.38217,-2.9238 -3.46584,-6.13802 z m 20.85118,10.17753 c -1.96213,-1.65103 -3.1536,-3.78002 -3.5689,-6.37716 -0.34289,-2.14428 -1.99986,-7.21648 -3.68217,-11.27155 C 375.65235,27.84374 374.93161,25.62601 376.68712,23 c 0.86843,-1.29905 1.64238,-1.16508 5.77713,1 4.25794,2.22958 5.35861,3.58166 10.17568,12.5 5.25336,9.72609 11.15826,24.86138 11.04025,28.29812 -0.0321,0.93603 -1.26964,-1.47289 -2.75,-5.35315 -1.48036,-3.88027 -4.1795,-9.28027 -5.99809,-12 -1.81859,-2.71974 -4.72391,-7.82053 -6.45627,-11.33511 -1.95146,-3.95909 -4.29006,-7.08361 -6.14715,-8.21297 -1.64859,-1.00257 -3.12164,-1.69864 -3.27345,-1.54682 -0.15181,0.15181 3.08937,8.26538 7.20262,18.03016 4.11324,9.76477 7.76412,19.5395 8.11306,21.72162 0.34893,2.18212 1.52554,5.10037 2.61469,6.48499 1.8556,2.35902 2.09504,2.41362 3.80363,0.86737 1.00286,-0.90757 2.31681,-1.34517 2.91989,-0.97245 0.6955,0.42984 0.20371,1.37997 -1.34471,2.59796 -3.15055,2.47822 -3.87394,2.42379 -7.4178,-0.55817 z m 39.23727,-17.08009 c -1.6737,-2.20138 -3.23626,-2.81363 -8.60735,-3.37256 -0.85218,-0.0887 -2.21051,-8.02962 -1.49576,-8.74437 0.29738,-0.29739 1.18997,1.01324 1.98353,2.91249 1.07148,2.56441 2.54041,3.89236 5.70721,5.15946 2.74312,1.09758 4.60901,1.36163 5.23046,0.74018 1.57487,-1.57487 -3.34666,-13.04545 -7.48523,-17.44579 -3.50144,-3.72291 -3.99104,-3.92697 -8.2658,-3.44515 -4.85674,0.54743 -5.90888,0.014 -4.49252,-2.27775 1.26056,-2.03962 8.145,-1.63986 12.16204,0.70621 5.77324,3.37176 9.13925,9.96887 10.48924,20.55806 0.40046,3.14115 0.17979,5.24254 -0.65633,6.25 -1.71416,2.06544 -2.31124,1.92944 -4.56949,-1.04078 z m -16.21329,-1.77289 c -1.08107,-1.83228 -2.52546,-5.09478 -3.20974,-7.25 -1.75036,-5.51292 -5.38989,-11.68135 -12.195,-20.66857 -5.86209,-7.74182 -6.32271,-9.18621 -1.95361,-6.12597 3.14185,2.20063 13.43211,16.20841 15.02385,20.45144 0.70657,1.88349 2.36999,6.12453 3.69648,9.42453 1.3265,3.3 2.41051,6.3375 2.40893,6.75 -0.007,1.81745 -1.96729,0.47548 -3.77091,-2.58143 z m -67.2119,0.8556 C 349.96993,55.57378 349.89406,55 350.55716,55 c 1.20855,0 2.61759,1.8972 1.9241,2.5907 -0.2517,0.2517 -1.02686,-0.22824 -1.72258,-1.06653 z M 142.25353,48.75 c -1.6418,-1.5125 -2.47916,-2.75 -1.86079,-2.75 1.67436,0 5.68976,3.50662 5.23783,4.57415 C 145.415,51.08337 143.89533,50.2625 142.25353,48.75 Z M 366.93862,42.8 c -0.66,-0.66 -1.2,-1.49818 -1.2,-1.86262 0,-1.35612 -14.61102,-15.78205 -17.5,-17.27831 -1.65,-0.85456 -4.35,-2.66886 -6,-4.03177 -2.42155,-2.00022 -2.75719,-2.72558 -1.74073,-3.76193 1.022,-1.042 1.5526,-0.86512 2.81608,0.93875 0.85625,1.22246 3.37862,3.15208 5.60528,4.28803 2.22666,1.13596 6.56316,4.72993 9.63667,7.98661 3.07351,3.25668 5.93284,5.92124 6.35407,5.92124 1.53163,0 -0.59494,-3.60651 -4.84834,-8.2224 -2.39335,-2.59732 -4.77921,-5.84726 -5.30192,-7.22207 -0.58737,-1.5449 -2.01427,-2.73322 -3.73574,-3.11112 -4.59161,-1.00797 -5.28537,-1.33189 -5.28537,-2.46782 0,-0.67157 1.80771,-0.96983 4.73582,-0.78138 4.14427,0.26672 4.98742,0.71891 6.75,3.62006 1.1078,1.8234 3.68171,5.31519 5.7198,7.75954 3.56353,4.27386 8.36494,16.69299 7.18921,18.59535 -0.71636,1.1591 -1.78996,1.03471 -3.19483,-0.37016 z M 224.05114,39.37204 c -1.25833,-3.27916 6.05187,-6.69409 9.5656,-4.46853 2.03688,1.29014 0.61357,2.78167 -3.36707,3.52844 -1.93108,0.36227 -3.51105,1.08829 -3.51105,1.61336 0,1.57962 -2.01685,1.07435 -2.68748,-0.67327 z M 384.39361,19.17126 C 382.63482,17.22782 382.1919,15 383.56431,15 c 0.97137,0 5.17431,4.31677 5.17431,5.31445 0,1.36222 -2.72695,0.64475 -4.34501,-1.14319 z m 13.89923,107.66198 c 4.33312,-2.77449 10.59615,-5.69116 24.74444,-11.52344 2.54994,-1.05115 3.68701,-2.09908 3.45902,-3.18785 -0.53388,-2.54942 -3.71698,-1.62298 -12.84454,3.73839 -4.62723,2.71795 -11.64385,6.3823 -15.5925,8.143 -4.99379,2.22672 -7.01608,3.62675 -6.64301,4.59896 0.74842,1.95036 1.28211,1.81306 6.87659,-1.76906 z M 505.81332,94.79316 c 5.26608,-2.41381 11.29051,-5.4011 13.38761,-6.63842 l 3.81291,-2.24967 -2.13761,-1.99149 c -1.17568,-1.09532 -2.13761,-2.88808 -2.13761,-3.98392 0,-2.96507 -3.06898,-3.71141 -4.76402,-1.15855 -0.92608,1.39475 -4.71894,3.19241 -11.07229,5.24782 -5.31503,1.71949 -10.68369,3.62371 -11.93035,4.2316 l -2.26665,1.10526 2.62276,2.73758 2.62277,2.73758 5.64389,-2.91943 c 9.41985,-4.87263 17.35584,-8.04417 18.77034,-7.50137 2.58344,0.99136 0.27521,3.16292 -5.89733,5.54814 -3.42602,1.3239 -8.35166,3.44988 -10.94588,4.7244 -2.59421,1.27452 -5.85671,2.31731 -7.25,2.31731 -2.49485,0 -3.22912,0.97078 -1.80867,2.39124 0.95602,0.95601 2.07039,0.5722 13.35013,-4.59808 z M 495.937,82.38629 c 8.88522,-2.79745 14.30015,-5.22109 13.48539,-6.03586 -0.27616,-0.27615 -4.93048,1.15239 -10.34294,3.17454 -15.43746,5.76759 -17.05697,7.24221 -3.14245,2.86132 z m -63.27118,-4.11413 c 3.42911,-4.16012 3.82114,-6.75874 1.5161,-10.04965 -2.33054,-3.3273 -3.10303,-2.74333 -3.76503,2.84617 -0.33017,2.78777 -1.25836,6.38777 -2.06264,8 -2.17812,4.36614 0.45739,3.87925 4.31157,-0.79652 z M 508.23862,71 c -2.74909,-1.18132 -4.32797,-1.18132 -2.5,0 0.825,0.53316 2.175,0.94464 3,0.9144 0.98906,-0.0362 0.81874,-0.34772 -0.5,-0.9144 z M 203.70251,66.40502 c -2.27265,-5.97751 -9.29302,-16.57203 -12.68369,-19.1411 -3.451,-2.61477 -7.47466,-6.52577 -10.88381,-10.57907 -1.71865,-2.04338 -3.62389,-1.83838 -14.23201,1.53136 -3.48459,1.1069 -5.95959,2.37747 -5.5,2.82349 0.45959,0.44601 4.43562,2.23198 8.83562,3.96882 14.48815,5.71898 21.60411,9.99086 28.5,17.10921 3.575,3.69032 6.60136,6.74851 6.72525,6.79597 0.12389,0.0475 -0.21873,-1.08144 -0.76136,-2.50868 z m 97.03611,-41.29803 c 0,-1.3126 -2.64777,-2.10699 -7.02277,-2.10699 -3.72691,0 -5.60752,1.03638 -4.28338,2.36052 0.98734,0.98734 11.30615,0.75595 11.30615,-0.25353 z m -13.27083,-0.71116 c -0.33229,-0.33229 -1.1948,-0.36781 -1.91667,-0.0789 -0.79773,0.31922 -0.56078,0.55618 0.60417,0.60416 1.05416,0.0434 1.64479,-0.19293 1.3125,-0.52522 z M 178.8399,168.00892 c -2.2557,-2.85368 -4.10128,-5.59811 -4.10128,-6.09872 0,-2.03912 2.03964,-0.64042 6.04871,4.14797 2.93329,3.5035 3.91512,5.378 3.1944,6.09872 -0.72072,0.72072 -2.30111,-0.55419 -5.14183,-4.14797 z M 452.38106,76.05473 c 0.64754,-0.70261 0.92581,-2.85479 0.64235,-4.9681 C 452.53593,67.4522 454.38056,64 456.81005,64 c 1.3281,0 1.1467,2.38187 -0.29089,3.81946 -0.6707,0.6707 0.61284,0.43696 2.85232,-0.51943 2.36276,-1.00905 4.02883,-2.3811 3.96946,-3.26898 -0.0581,-0.86881 0.87485,-1.66902 2.15871,-1.85156 3.1608,-0.44942 5.23897,-5.06268 5.23897,-11.62983 0,-3.05231 0.44139,-5.54966 0.98087,-5.54966 0.59419,0 0.72612,-1.87255 0.33465,-4.75 -0.59363,-4.36344 -0.50977,-4.63755 1.03037,-3.36823 2.48768,2.05024 5.99636,14.48033 5.2342,18.54301 -0.75572,4.02834 -8.84609,12.07086 -11.22454,11.15816 -0.90283,-0.34645 -2.72033,0.62799 -4.51075,2.41841 L 459.58477,72 h 3.86549 c 2.12601,0 5.63077,-0.9 7.78836,-2 4.66884,-2.38031 6.5,-2.52689 6.5,-0.52032 0,2.4765 -7.03781,5.20611 -15.28519,5.92834 -4.28186,0.37497 -8.55686,0.95279 -9.5,1.28405 -1.32446,0.46519 -1.45475,0.32011 -0.57237,-0.63734 z m 26.73953,-8.24571 c -0.40484,-0.65504 -0.16279,-1.38208 0.53788,-1.61564 0.70068,-0.23356 2.75226,-1.72261 4.55907,-3.30901 1.80681,-1.58641 3.5632,-2.88437 3.9031,-2.88437 1.62419,0 0.3117,3.46013 -2.3051,6.07692 -3.08808,3.08808 -5.47522,3.70568 -6.69495,1.7321 z m 8.61803,-0.08448 c 0,-0.77801 0.9,-2.22905 2,-3.22454 1.35342,-1.22483 2,-3.07997 2,-5.73832 0,-4.54764 1.91809,-4.74496 3.46875,-0.35686 1.2696,3.59274 -1.91364,9.94533 -5.21875,10.41473 -1.42354,0.20218 -2.25,-0.20004 -2.25,-1.09501 z M 487.0207,50.75 c -3.46807,-3.77593 -10.28208,-15.65337 -10.28208,-17.9226 0,-2.10914 0.0278,-2.11222 2.10364,-0.2336 1.15701,1.04707 3.26474,3.92931 4.68385,6.40498 1.41911,2.47567 3.84747,6.14098 5.39636,8.14512 1.54888,2.00415 2.81615,4.14165 2.81615,4.75 0,1.85162 -2.53006,1.23818 -4.71792,-1.1439 z m -39.05957,-7.3067 c -1.2655,-0.88639 -2.22251,-2.60879 -2.22251,-4 0,-2.98096 1.53741,-3.17618 3.03126,-0.3849 0.82579,1.54301 1.89874,1.98119 4.28518,1.75 2.64689,-0.25641 3.18356,-0.72984 3.18356,-2.8084 0,-1.55556 0.56667,-2.5 1.5,-2.5 0.825,0 1.95,-1.34452 2.5,-2.98782 0.55,-1.6433 1.84746,-3.15034 2.88325,-3.34899 1.62404,-0.31145 1.77595,0.031 1.10368,2.48782 -0.42877,1.56695 -0.82623,3.93655 -0.88325,5.2658 -0.057,1.32924 -0.77086,2.63914 -1.5863,2.91087 -0.81545,0.27174 -2.31061,1.54668 -3.32258,2.83319 -2.18046,2.77201 -7.10633,3.14004 -10.47229,0.78243 z m 24.34211,-20.6061 c -0.90166,-2.1308 -1.04271,-3.46954 -0.39017,-3.70327 1.35608,-0.48575 3.58616,1.89242 3.9969,4.26233 0.57947,3.34346 -2.13328,2.92297 -3.60673,-0.55906 z m -5.89795,0.49613 c -0.36667,-0.36666 -0.66667,-1.39608 -0.66667,-2.28759 0,-2.30113 -8.9652,-10.67481 -12.25,-11.44176 -3.00785,-0.70229 -3.62536,-2.33084 -1.23204,-3.24925 2.4632,-0.94521 7.03243,1.51351 12.43,6.68865 3.91087,3.74971 5.05204,5.53424 5.05204,7.90024 0,2.87424 -1.65926,4.06379 -3.33333,2.38971 z m -16.08322,-7.97646 c -0.34679,-0.90372 -0.40581,-1.86784 -0.13115,-2.1425 0.79607,-0.79608 3.58391,1.91803 2.97767,2.89894 -0.85809,1.38841 -2.1558,1.04356 -2.84652,-0.75644 z M 435.73862,10 c -0.68847,-1.28642 -0.71358,-2 -0.0704,-2 0.55,0 1.48167,0.9 2.07037,2 0.68847,1.28642 0.71358,2 0.0704,2 -0.55,0 -1.48167,-0.9 -2.07037,-2 z m -10.5,-0.48451 c -1.65,-0.72713 -3.35905,-1.10071 -3.79789,-0.83016 -0.43883,0.27054 -1.50202,0.22169 -2.36262,-0.10855 -1.23926,-0.47555 -1.31641,-0.89967 -0.37089,-2.03895 0.82487,-0.99391 3.01905,-1.38792 7.09929,-1.27483 3.88371,0.10765 5.56764,0.50147 4.91877,1.15034 C 430.18262,6.956 429.73862,8.21 429.73862,9.2 c 0,2.08037 -0.42723,2.11032 -4.5,0.31549 z M 441.06064,5.75 C 438.33271,3.24774 436.88812,2.3712 437.5478,3.61852 438.63922,5.68214 438.2589,7 436.57195,7 c -0.45833,0 -0.83333,-0.675 -0.83333,-1.5 0,-0.825 -0.675,-1.5 -1.5,-1.5 -2.41575,0 -1.72406,-1.96431 1.0651,-3.02475 C 436.71452,0.43886 438.22894,0 438.6691,0 c 1.50334,0 11.00403,8.29695 10.47705,9.14962 -1.09269,1.76801 -3.60208,0.71292 -8.08551,-3.39962 z"
     id="path14138" />
</svg>
