<?xml version="1.0" encoding="UTF-8" standalone="no"?>
<svg
   xmlns:dc="http://purl.org/dc/elements/1.1/"
   xmlns:cc="http://creativecommons.org/ns#"
   xmlns:rdf="http://www.w3.org/1999/02/22-rdf-syntax-ns#"
   xmlns:svg="http://www.w3.org/2000/svg"
   xmlns="http://www.w3.org/2000/svg"
   version="1.1"
   id="svg869"
   width="368.46606"
   height="368.31482"
   viewBox="0 0 368.46606 368.31482">
  <metadata
     id="metadata875">
    <rdf:RDF>
      <cc:Work
         rdf:about="">
        <dc:format>image/svg+xml</dc:format>
        <dc:type
           rdf:resource="http://purl.org/dc/dcmitype/StillImage" />
        <dc:title></dc:title>
      </cc:Work>
    </rdf:RDF>
  </metadata>
  <defs
     id="defs873" />
  <path
     style="fill:#000000"
     d="M 158.96182,366.79109 C 139.58034,363.95998 122.16207,358.65271 104.98423,350.34435 66.629546,331.79345 37.577679,302.96401 18.967526,264.9862 -6.1782785,213.67107 -6.3280955,154.95467 18.556315,103.82391 39.683299,60.413657 77.844608,26.312604 123.21828,10.297685 c 40.93583,-14.4485499 88.22419,-13.6560679 128.08393,2.146493 71.34393,28.284603 117.26218,95.758332 117.16371,172.164112 -0.0622,48.25919 -17.62084,91.52149 -51.97879,128.06923 -22.94637,24.40885 -59.43254,44.61848 -93.18921,51.61736 -20.43983,4.23786 -45.70267,5.21804 -64.3361,2.49621 z m 58.78372,-18.40215 c 28.15333,-6.08772 55.35746,-19.59739 76.83753,-38.15777 l 5.31522,-4.59274 -41.95703,-42.39635 c -23.07636,-23.318 -59.50702,-60.17411 -80.95702,-81.90246 -21.45001,-21.72836 -55.61902,-56.25145 -75.93113,-76.71799 L 64.121986,67.409757 60.79504,71.116837 C 29.311059,106.19814 13.624547,151.86658 17.507037,197.14201 c 3.490316,40.70212 18.6198,74.06287 46.95845,103.54412 25.343008,26.36482 57.632923,43.08626 94.947203,49.1687 12.9701,2.1142 45.5643,1.29512 58.33285,-1.46589 z M 112.05085,284.57391 c 2.63291,-25.91917 10.89265,-43.95062 27.84346,-60.78375 7.26062,-7.21022 38.34407,-31.46625 40.32314,-31.46625 1.07388,0 26.78955,25.82473 26.21795,26.32915 -0.24814,0.21897 -5.40116,3.92651 -11.45116,8.23897 -19.86889,14.16261 -29.5,22.77026 -29.5,26.36516 0,0.73707 11.84401,1.06672 38.32659,1.06672 h 38.32658 l 7.78175,7.99649 c 5.32227,5.46914 7.58948,8.49753 7.17342,9.58179 -0.33459,0.87191 -0.60834,5.37349 -0.60834,10.00351 v 8.41821 H 183.9755 111.46676 Z m 2.4321,-135.5 c -0.002,-5.57711 2.13191,-20.75 2.91783,-20.75 0.3374,0 6.22496,5.625 13.08345,12.5 l 12.46999,12.5 h -14.235 -14.23499 l -10e-4,-4.25 z m 209.55077,127.22195 c 11.38992,-17.06009 19.98234,-37.72287 24.62727,-59.22292 1.90613,-8.82289 2.22005,-13.37988 2.25604,-32.74903 0.0369,-19.85509 -0.22824,-23.73429 -2.25548,-33 C 340.89456,115.82399 324.93571,87.287437 299.00326,62.528247 246.07096,11.990763 164.56886,2.2612851 101.08736,38.901643 90.286927,45.135455 77.457981,54.536455 77.74969,56.003397 c 0.128999,0.6487 13.059544,14.16297 28.73454,30.0317 68.71832,69.567593 179.54905,181.909213 191.47584,194.086083 l 13.02417,13.29727 3.3441,-3.79727 c 1.83926,-2.0885 6.20668,-8.08489 9.70538,-13.32532 z M 214.66199,189.00203 c -7.24776,-7.26271 -13.17775,-13.47681 -13.17775,-13.80911 0,-0.3323 2.01248,-3.60531 4.47218,-7.27336 5.49716,-8.19771 7.52782,-14.74368 7.52782,-24.26642 0,-12.32199 -4.82312,-21.78949 -13.78389,-27.05693 -4.30659,-2.53157 -5.58631,-2.7723 -14.73754,-2.7723 -8.76117,0 -10.64752,0.31966 -15,2.5419 -4.46638,2.28038 -9.98984,8.4631 -11.77877,13.18464 -0.28732,0.75831 -6.4907,-4.6925 -15.33497,-13.4746 l -14.85248,-14.74806 6.53532,-6.251923 c 12.92407,-12.36369 25.98228,-16.94617 48.45233,-17.00324 11.00672,-0.028 15.8949,0.42443 22.86272,2.11588 23.84119,5.78751 41.43538,22.055073 48.27542,44.635403 1.39104,4.5921 1.82272,9.40243 1.83969,20.5 0.0209,13.67501 -0.15193,14.98613 -3.03775,23.04417 -4.28638,11.96877 -14.16302,26.06204 -22.34973,31.8915 l -2.73485,1.94738 z"
     id="path879" />
</svg>
