<?xml version="1.0" encoding="UTF-8" standalone="no"?>
<svg
   xmlns:dc="http://purl.org/dc/elements/1.1/"
   xmlns:cc="http://creativecommons.org/ns#"
   xmlns:rdf="http://www.w3.org/1999/02/22-rdf-syntax-ns#"
   xmlns:svg="http://www.w3.org/2000/svg"
   xmlns="http://www.w3.org/2000/svg"
   id="svg4491"
   version="1.1"
   viewBox="0 0 155.43433 155.43433"
   height="155.43433mm"
   width="155.43433mm">
  <defs
     id="defs4485" />
  <metadata
     id="metadata4488">
    <rdf:RDF>
      <cc:Work
         rdf:about="">
        <dc:format>image/svg+xml</dc:format>
        <dc:type
           rdf:resource="http://purl.org/dc/dcmitype/StillImage" />
        <dc:title></dc:title>
      </cc:Work>
    </rdf:RDF>
  </metadata>
  <g
     transform="translate(-28.494143,-49.571521)"
     id="layer1">
    <rect
       y="50.559521"
       x="29.482143"
       height="153.45833"
       width="153.45833"
       id="rect5061"
       style="fill:none;fill-opacity:0.97297297;stroke:#000000;stroke-width:1.97599995;stroke-miterlimit:4;stroke-dasharray:none;stroke-opacity:1" />
    <path
       id="path5063"
       d="M 29.482142,50.55952 182.94047,204.01785 Z"
       style="fill:none;stroke:#000000;stroke-width:0.26458332px;stroke-linecap:butt;stroke-linejoin:miter;stroke-opacity:1" />
    <path
       id="path5065"
       d="M 29.482142,204.01785 182.94047,50.55952 v 0 z"
       style="fill:none;stroke:#000000;stroke-width:0.26458332px;stroke-linecap:butt;stroke-linejoin:miter;stroke-opacity:1" />
    <g
       id="flowRoot5067"
       style="font-style:normal;font-weight:normal;font-size:74.66666412px;line-height:1.25;font-family:sans-serif;letter-spacing:0px;word-spacing:0px;fill:#000000;fill-opacity:1;stroke:none"
       transform="matrix(0.26458333,0,0,0.26458333,39.309524,-136.07143)"
       aria-label="TODO">
      <path
         id="path5094"
         d="m 145.49609,971.29232 h 46.04688 v 6.19791 h -19.32292 v 48.23437 h -7.40104 v -48.23437 h -19.32292 z" />
      <path
         id="path5096"
         d="m 220.78255,976.28711 q -8.02083,0 -12.76042,5.97917 -4.70312,5.97916 -4.70312,16.29687 0,10.28125 4.70312,16.26045 4.73959,5.9791 12.76042,5.9791 8.02083,0 12.6875,-5.9791 4.70312,-5.9792 4.70312,-16.26045 0,-10.31771 -4.70312,-16.29687 -4.66667,-5.97917 -12.6875,-5.97917 z m 0,-5.97917 q 11.44792,0 18.30208,7.69271 6.85417,7.65625 6.85417,20.5625 0,12.86975 -6.85417,20.56245 -6.85416,7.6563 -18.30208,7.6563 -11.48437,0 -18.375,-7.6563 -6.85417,-7.6562 -6.85417,-20.56245 0,-12.90625 6.85417,-20.5625 6.89063,-7.69271 18.375,-7.69271 z" />
      <path
         id="path5098"
         d="m 264.82422,977.3444 v 42.3281 h 8.89583 q 11.26562,0 16.47916,-5.1041 5.25,-5.1042 5.25,-16.11463 0,-10.93749 -5.25,-16.0052 -5.21354,-5.10417 -16.47916,-5.10417 z m -7.36459,-6.05208 h 15.13021 q 15.82292,0 23.22396,6.59896 7.40104,6.5625 7.40104,20.56249 0,14.07293 -7.4375,20.67183 -7.4375,6.599 -23.1875,6.599 h -15.13021 z" />
      <path
         id="path5100"
         d="m 337.01172,976.28711 q -8.02084,0 -12.76042,5.97917 -4.70312,5.97916 -4.70312,16.29687 0,10.28125 4.70312,16.26045 4.73958,5.9791 12.76042,5.9791 8.02083,0 12.6875,-5.9791 4.70312,-5.9792 4.70312,-16.26045 0,-10.31771 -4.70312,-16.29687 -4.66667,-5.97917 -12.6875,-5.97917 z m 0,-5.97917 q 11.44791,0 18.30208,7.69271 6.85417,7.65625 6.85417,20.5625 0,12.86975 -6.85417,20.56245 -6.85417,7.6563 -18.30208,7.6563 -11.48438,0 -18.375,-7.6563 -6.85417,-7.6562 -6.85417,-20.56245 0,-12.90625 6.85417,-20.5625 6.89062,-7.69271 18.375,-7.69271 z" />
    </g>
  </g>
</svg>
